{
  "ZWIversion": 1.4,
  "GeneratorName": "AutoZWI",
  "Title": "Schwartz, Christian Friedrich",
  "Lang": "en",
  "Content": {
    "article.html": "4bb891cc30b18852ed042f4d08b0cb7f0d5ce9cf",
    "article.txt": "c8bf93949ae580a72910230defdf6940c102bd89"
  },
  "Primary": "article.html",
  "Publisher": "ccrk",
  "LastModified": "1708959428",
  "TimeCreated": "1708959428",
  "Categories": [
    "Religion",
    "Christianity"
  ],
  "Topics": [],
  "Description": "Schwartz, Christian Friedrich, a celebrated German missionary: b. at Sonnen-burg, Prussia, Oct. 26, 1726; d. at Tanjore, India, Feb. 13, 1798. He studied theology at Halle, and in 1750 was sent as a missionary to Tranquebar by the Danish Missionary Society. In 1767 he became connected with the Society for Promoting Christian Knowledge, of London. ",
  "Comment": "",
  "License": "Public Domain in the USA",
  "SourceURL": "https://oldpedia.org/article/ccrk/Schwartz, Christian Friedrich",
  "SourceFileURL": "https://archive.org/details/concisecyclopedi00sanf",
  "LocalFileURL": "https://oldpedia.org/pdf/ccrk/concisecyclopedi00sanf.pdf",
  "ShortTitle": "",
  "BookTitle": "A Concise Cyclopedia of Religious Knowledge",
  "BookTitleLong": "A Concise Cyclopedia of Religious Knowledge: Biblical, Biographical, Geographical, Historical, Practical and Theological",
  "BookEdition": "",
  "BookEditors": [
    "Elias Benjamin Sanford"
  ],
  "BookVolumeNumber": "",
  "BookPublisher": "Funk & Wagnall Company",
  "BookCopyrightDate": "1890",
  "BookPrintingDate": "1895",
  "PublicationDate": "1895",
  "CreatorNames": [
    "Elias Benjamin Sanford"
  ],
  "ContributorNames": [],
  "Rating": []
}