{
  "ZWIversion": 1.4,
  "GeneratorName": "AutoZWI",
  "Title": "Merrill, Selah",
  "Lang": "en",
  "Content": {
    "article.html": "84fb8d45bd76a4b62a71dcc3fe96a8e13a8f2021",
    "article.txt": "87cde095ad6f3a2226e891672082b0067e963ad0"
  },
  "Primary": "article.html",
  "Publisher": "ccrk",
  "LastModified": "1708959424",
  "TimeCreated": "1708959424",
  "Categories": [
    "Religion",
    "Christianity"
  ],
  "Topics": [],
  "Description": "Merrill, Selah, D. D. (Iowa College, 1875), LL. D. (Union College, 1884), Congregationalist; b. in Canton Centre, Hartford Co., Conn., May 2, 1837. He studied at Yale, where he also prepared for the ministry. He was chaplain in the army, 18 64-6 5, and studied in Germany, 18 6 8-70. From 1874 till 1877, he was in the Holy Land as archaeologist of th",
  "Comment": "",
  "License": "Public Domain in the USA",
  "SourceURL": "https://oldpedia.org/article/ccrk/Merrill, Selah",
  "SourceFileURL": "https://archive.org/details/concisecyclopedi00sanf",
  "LocalFileURL": "https://oldpedia.org/pdf/ccrk/concisecyclopedi00sanf.pdf",
  "ShortTitle": "",
  "BookTitle": "A Concise Cyclopedia of Religious Knowledge",
  "BookTitleLong": "A Concise Cyclopedia of Religious Knowledge: Biblical, Biographical, Geographical, Historical, Practical and Theological",
  "BookEdition": "",
  "BookEditors": [
    "Elias Benjamin Sanford"
  ],
  "BookVolumeNumber": "",
  "BookPublisher": "Funk & Wagnall Company",
  "BookCopyrightDate": "1890",
  "BookPrintingDate": "1895",
  "PublicationDate": "1895",
  "CreatorNames": [
    "Elias Benjamin Sanford"
  ],
  "ContributorNames": [],
  "Rating": []
}