{
  "ZWIversion": 1.4,
  "GeneratorName": "AutoZWI",
  "Title": "Poole, Matthew",
  "Lang": "en",
  "Content": {
    "article.html": "da3625f15263405d9e5e6843a48710e21cef9ef0",
    "article.txt": "03c7a27a31539e3067283b916815f151916c074f"
  },
  "Primary": "article.html",
  "Publisher": "ccrk",
  "LastModified": "1708959426",
  "TimeCreated": "1708959426",
  "Categories": [
    "Religion",
    "Christianity"
  ],
  "Topics": [],
  "Description": "Poole, Matthew, a learned Nonconformist divine; b. at York, Eng., 1624; d. at Amsterdam, Oct., 1679. Educated at Emmanuel College, Cambridge, he became Presbyterian minister of St. Michael-le-Quernes, London, in 1648. Having lost his living on account of his Nonconformity, he devoted himself to biblical studies and writing. His chief works are: ",
  "Comment": "",
  "License": "Public Domain in the USA",
  "SourceURL": "https://oldpedia.org/article/ccrk/Poole, Matthew",
  "SourceFileURL": "https://archive.org/details/concisecyclopedi00sanf",
  "LocalFileURL": "https://oldpedia.org/pdf/ccrk/concisecyclopedi00sanf.pdf",
  "ShortTitle": "",
  "BookTitle": "A Concise Cyclopedia of Religious Knowledge",
  "BookTitleLong": "A Concise Cyclopedia of Religious Knowledge: Biblical, Biographical, Geographical, Historical, Practical and Theological",
  "BookEdition": "",
  "BookEditors": [
    "Elias Benjamin Sanford"
  ],
  "BookVolumeNumber": "",
  "BookPublisher": "Funk & Wagnall Company",
  "BookCopyrightDate": "1890",
  "BookPrintingDate": "1895",
  "PublicationDate": "1895",
  "CreatorNames": [
    "Elias Benjamin Sanford"
  ],
  "ContributorNames": [],
  "Rating": []
}