{
  "ZWIversion": 1.4,
  "GeneratorName": "AutoZWI",
  "Title": "Vagantes",
  "Lang": "en",
  "Content": {
    "article.html": "d02bfd5e2cbf5f7a4373696e429f8a14ab77ddc5",
    "article.txt": "8dd774ec02d392abca2b7156029f1f26582161ac"
  },
  "Primary": "article.html",
  "Publisher": "ccrk",
  "LastModified": "1708959430",
  "TimeCreated": "1708959430",
  "Categories": [
    "Religion",
    "Christianity"
  ],
  "Topics": [],
  "Description": "Vagantes, a name given in canon law to clergy who were ordained without having been nominated to any office. Laws against such clerics were made as early as the fourth and fifth centuries. The abuse was continued until it was enacted that a bishop should support all whom he ordained without an office. This put a stop to the evil. ",
  "Comment": "",
  "License": "Public Domain in the USA",
  "SourceURL": "https://oldpedia.org/article/ccrk/Vagantes",
  "SourceFileURL": "https://archive.org/details/concisecyclopedi00sanf",
  "LocalFileURL": "https://oldpedia.org/pdf/ccrk/concisecyclopedi00sanf.pdf",
  "ShortTitle": "",
  "BookTitle": "A Concise Cyclopedia of Religious Knowledge",
  "BookTitleLong": "A Concise Cyclopedia of Religious Knowledge: Biblical, Biographical, Geographical, Historical, Practical and Theological",
  "BookEdition": "",
  "BookEditors": [
    "Elias Benjamin Sanford"
  ],
  "BookVolumeNumber": "",
  "BookPublisher": "Funk & Wagnall Company",
  "BookCopyrightDate": "1890",
  "BookPrintingDate": "1895",
  "PublicationDate": "1895",
  "CreatorNames": [
    "Elias Benjamin Sanford"
  ],
  "ContributorNames": [],
  "Rating": []
}