{
  "ZWIversion": 1.4,
  "GeneratorName": "AutoZWI",
  "Title": "Reformed Church, The",
  "Lang": "en",
  "Content": {
    "article.html": "0dc06f4711b3192d0a8ccf172eb008a8ca5538b1",
    "article.txt": "fe34454e71d916171089368c0765da18ea930fa1"
  },
  "Primary": "article.html",
  "Publisher": "ccrk",
  "LastModified": "1708959427",
  "TimeCreated": "1708959427",
  "Categories": [
    "Religion",
    "Christianity"
  ],
  "Topics": [],
  "Description": "Reformed Church, The, in America. This body was formerly known as the Reformed Dutch Church, but the word Dutch, which indicated the nationality and language of its founders, was removed from its title in the year 1867. It is Calvinistic in doctrine, Presbyterian in government, and partly liturgical in worship. ",
  "Comment": "",
  "License": "Public Domain in the USA",
  "SourceURL": "https://oldpedia.org/article/ccrk/Reformed Church, The",
  "SourceFileURL": "https://archive.org/details/concisecyclopedi00sanf",
  "LocalFileURL": "https://oldpedia.org/pdf/ccrk/concisecyclopedi00sanf.pdf",
  "ShortTitle": "",
  "BookTitle": "A Concise Cyclopedia of Religious Knowledge",
  "BookTitleLong": "A Concise Cyclopedia of Religious Knowledge: Biblical, Biographical, Geographical, Historical, Practical and Theological",
  "BookEdition": "",
  "BookEditors": [
    "Elias Benjamin Sanford"
  ],
  "BookVolumeNumber": "",
  "BookPublisher": "Funk & Wagnall Company",
  "BookCopyrightDate": "1890",
  "BookPrintingDate": "1895",
  "PublicationDate": "1895",
  "CreatorNames": [
    "Elias Benjamin Sanford"
  ],
  "ContributorNames": [],
  "Rating": []
}