{
  "ZWIversion": 1.4,
  "GeneratorName": "AutoZWI",
  "Title": "Budde, Johann Franz",
  "Lang": "en",
  "Content": {
    "article.html": "204148f9e8ec88ef37171cae99e1ab3baf5d1894",
    "article.txt": "521dd28583aa83d7b3b43c48b001e9b8976750ec"
  },
  "Primary": "article.html",
  "Publisher": "ccrk",
  "LastModified": "1708959415",
  "TimeCreated": "1708959415",
  "Categories": [
    "Religion",
    "Christianity"
  ],
  "Topics": [],
  "Description": "Budde, Johann Franz, b. 1667; d. at Jena, 1729. He was a German theologian of considerable note as a writer on moral theology, “a man of genuine piety and immense learning.” Buddhism, the religion professed by one-third of the population of the world, namely: the people of China, Japan, Siam, Burmah, Nepaul, Ceylon, Mongolia, Tar-tary, Thibet, and C",
  "Comment": "",
  "License": "Public Domain in the USA",
  "SourceURL": "https://oldpedia.org/article/ccrk/Budde, Johann Franz",
  "SourceFileURL": "https://archive.org/details/concisecyclopedi00sanf",
  "LocalFileURL": "https://oldpedia.org/pdf/ccrk/concisecyclopedi00sanf.pdf",
  "ShortTitle": "",
  "BookTitle": "A Concise Cyclopedia of Religious Knowledge",
  "BookTitleLong": "A Concise Cyclopedia of Religious Knowledge: Biblical, Biographical, Geographical, Historical, Practical and Theological",
  "BookEdition": "",
  "BookEditors": [
    "Elias Benjamin Sanford"
  ],
  "BookVolumeNumber": "",
  "BookPublisher": "Funk & Wagnall Company",
  "BookCopyrightDate": "1890",
  "BookPrintingDate": "1895",
  "PublicationDate": "1895",
  "CreatorNames": [
    "Elias Benjamin Sanford"
  ],
  "ContributorNames": [],
  "Rating": []
}