{
  "ZWIversion": 1.4,
  "GeneratorName": "AutoZWI",
  "Title": "Humanists",
  "Lang": "en",
  "Content": {
    "article.html": "1f2014cc08f8999dfb26de96862043c8d07f9088",
    "article.txt": "328b08fde8094c20de0feff6bf3110337260e5f9"
  },
  "Primary": "article.html",
  "Publisher": "ccrk",
  "LastModified": "1708959421",
  "TimeCreated": "1708959421",
  "Categories": [
    "Religion",
    "Christianity"
  ],
  "Topics": [],
  "Description": "Humanists (from the Latin, ZitercE hu-maniores, polite letters), “was the name assumed in the beginning of the sixteenth century by a party which, with Erasmus and Reuchlin at its head, was especially devoted to the cultivation of classical literature, and which, as not unfrequently happens in the enthusiasm of a new pursuit, was arrayed in oppositi",
  "Comment": "",
  "License": "Public Domain in the USA",
  "SourceURL": "https://oldpedia.org/article/ccrk/Humanists",
  "SourceFileURL": "https://archive.org/details/concisecyclopedi00sanf",
  "LocalFileURL": "https://oldpedia.org/pdf/ccrk/concisecyclopedi00sanf.pdf",
  "ShortTitle": "",
  "BookTitle": "A Concise Cyclopedia of Religious Knowledge",
  "BookTitleLong": "A Concise Cyclopedia of Religious Knowledge: Biblical, Biographical, Geographical, Historical, Practical and Theological",
  "BookEdition": "",
  "BookEditors": [
    "Elias Benjamin Sanford"
  ],
  "BookVolumeNumber": "",
  "BookPublisher": "Funk & Wagnall Company",
  "BookCopyrightDate": "1890",
  "BookPrintingDate": "1895",
  "PublicationDate": "1895",
  "CreatorNames": [
    "Elias Benjamin Sanford"
  ],
  "ContributorNames": [],
  "Rating": []
}