{
  "ZWIversion": 1.4,
  "GeneratorName": "AutoZWI",
  "Title": "Richter",
  "Lang": "en",
  "Content": {
    "article.html": "5a2d7323b3e4919d691e4a79db61a588f33a5bc0",
    "article.txt": "527def9fa76267b7724d6d6390d01079db72fc61"
  },
  "Primary": "article.html",
  "Publisher": "ccrk",
  "LastModified": "1708959427",
  "TimeCreated": "1708959427",
  "Categories": [
    "Religion",
    "Christianity"
  ],
  "Topics": [],
  "Description": "Richter, Christian Friedrich Gottlieb, M. D., an eminent German hymnol-ogist; b. at Sorau, Silesia, Oct. 5, 1676; d. at Halle, Oct. 5, 1711. He was educated at Halle, where he was appointed by Francke principal of the academy and, later, physician to the Halle Orphan House. He wrote thirty-three hymns, several of which have been translated. ",
  "Comment": "",
  "License": "Public Domain in the USA",
  "SourceURL": "https://oldpedia.org/article/ccrk/Richter",
  "SourceFileURL": "https://archive.org/details/concisecyclopedi00sanf",
  "LocalFileURL": "https://oldpedia.org/pdf/ccrk/concisecyclopedi00sanf.pdf",
  "ShortTitle": "",
  "BookTitle": "A Concise Cyclopedia of Religious Knowledge",
  "BookTitleLong": "A Concise Cyclopedia of Religious Knowledge: Biblical, Biographical, Geographical, Historical, Practical and Theological",
  "BookEdition": "",
  "BookEditors": [
    "Elias Benjamin Sanford"
  ],
  "BookVolumeNumber": "",
  "BookPublisher": "Funk & Wagnall Company",
  "BookCopyrightDate": "1890",
  "BookPrintingDate": "1895",
  "PublicationDate": "1895",
  "CreatorNames": [
    "Elias Benjamin Sanford"
  ],
  "ContributorNames": [],
  "Rating": []
}