{
  "ZWIversion": 1.4,
  "GeneratorName": "AutoZWI",
  "Title": "Turkey",
  "Lang": "en",
  "Content": {
    "article.html": "821e0687bc8db8b09e55ed82696dddc19079ff48",
    "article.txt": "963025ce500f110c644925a982adf18fa069b74a"
  },
  "Primary": "article.html",
  "Publisher": "ccrk",
  "LastModified": "1708959429",
  "TimeCreated": "1708959429",
  "Categories": [
    "Religion",
    "Christianity"
  ],
  "Topics": [],
  "Description": "Turkey. The Ottoman Turks who laid the foundations of the Turkish Empire were Mohammedans, and carried on their wars in the name of the prophet. After the conquest of Egypt by Sultan Selim, he held as captive at Constantinople the last of the caliphs of the family of Koreish until he ceded to him his rights as caliph. ",
  "Comment": "",
  "License": "Public Domain in the USA",
  "SourceURL": "https://oldpedia.org/article/ccrk/Turkey",
  "SourceFileURL": "https://archive.org/details/concisecyclopedi00sanf",
  "LocalFileURL": "https://oldpedia.org/pdf/ccrk/concisecyclopedi00sanf.pdf",
  "ShortTitle": "",
  "BookTitle": "A Concise Cyclopedia of Religious Knowledge",
  "BookTitleLong": "A Concise Cyclopedia of Religious Knowledge: Biblical, Biographical, Geographical, Historical, Practical and Theological",
  "BookEdition": "",
  "BookEditors": [
    "Elias Benjamin Sanford"
  ],
  "BookVolumeNumber": "",
  "BookPublisher": "Funk & Wagnall Company",
  "BookCopyrightDate": "1890",
  "BookPrintingDate": "1895",
  "PublicationDate": "1895",
  "CreatorNames": [
    "Elias Benjamin Sanford"
  ],
  "ContributorNames": [],
  "Rating": []
}