{
  "ZWIversion": 1.4,
  "GeneratorName": "AutoZWI",
  "Title": "Selwyn, George Augustus",
  "Lang": "en",
  "Content": {
    "article.html": "78b0a1a64da56e6d54b6b5ba3ac5edcbecdb5c12",
    "article.txt": "5399ba7eaf15ab372c6336aec924267530d6c24c"
  },
  "Primary": "article.html",
  "Publisher": "ccrk",
  "LastModified": "1708959428",
  "TimeCreated": "1708959428",
  "Categories": [
    "Religion",
    "Christianity"
  ],
  "Topics": [],
  "Description": "Selwyn, George Augustus, D. D., missionary and bishop of the Church of England; b. at Richmond in 1809; d. at Lichfield, April 11, 1878. He was appointed bishop of New Zealand in 1841. His zeal and labors were abundant and fruitful. He visited England in 1854, and enlisted men like Mackenzie and Patteson to enter the missionary field. ",
  "Comment": "",
  "License": "Public Domain in the USA",
  "SourceURL": "https://oldpedia.org/article/ccrk/Selwyn, George Augustus",
  "SourceFileURL": "https://archive.org/details/concisecyclopedi00sanf",
  "LocalFileURL": "https://oldpedia.org/pdf/ccrk/concisecyclopedi00sanf.pdf",
  "ShortTitle": "",
  "BookTitle": "A Concise Cyclopedia of Religious Knowledge",
  "BookTitleLong": "A Concise Cyclopedia of Religious Knowledge: Biblical, Biographical, Geographical, Historical, Practical and Theological",
  "BookEdition": "",
  "BookEditors": [
    "Elias Benjamin Sanford"
  ],
  "BookVolumeNumber": "",
  "BookPublisher": "Funk & Wagnall Company",
  "BookCopyrightDate": "1890",
  "BookPrintingDate": "1895",
  "PublicationDate": "1895",
  "CreatorNames": [
    "Elias Benjamin Sanford"
  ],
  "ContributorNames": [],
  "Rating": []
}