{
  "ZWIversion": 1.4,
  "GeneratorName": "AutoZWI",
  "Title": "Movable",
  "Lang": "en",
  "Content": {
    "article.html": "8d86ac04dcfa776ff822e233132a6ebe4abae7f6",
    "article.txt": "348b45579968082b3b2a34bbc7e54c018b08663c"
  },
  "Primary": "article.html",
  "Publisher": "ccrk",
  "LastModified": "1708959424",
  "TimeCreated": "1708959424",
  "Categories": [
    "Religion",
    "Christianity"
  ],
  "Topics": [],
  "Description": "Movable Feasts are those which do not occur on a fixed day, as Easter and the feasts calculated from Easter. Tables for the calculation of movable feasts are found in the Book of Common Prayer.",
  "Comment": "",
  "License": "Public Domain in the USA",
  "SourceURL": "https://oldpedia.org/article/ccrk/Movable",
  "SourceFileURL": "https://archive.org/details/concisecyclopedi00sanf",
  "LocalFileURL": "https://oldpedia.org/pdf/ccrk/concisecyclopedi00sanf.pdf",
  "ShortTitle": "",
  "BookTitle": "A Concise Cyclopedia of Religious Knowledge",
  "BookTitleLong": "A Concise Cyclopedia of Religious Knowledge: Biblical, Biographical, Geographical, Historical, Practical and Theological",
  "BookEdition": "",
  "BookEditors": [
    "Elias Benjamin Sanford"
  ],
  "BookVolumeNumber": "",
  "BookPublisher": "Funk & Wagnall Company",
  "BookCopyrightDate": "1890",
  "BookPrintingDate": "1895",
  "PublicationDate": "1895",
  "CreatorNames": [
    "Elias Benjamin Sanford"
  ],
  "ContributorNames": [],
  "Rating": []
}