{
  "ZWIversion": 1.4,
  "GeneratorName": "AutoZWI",
  "Title": "Michael",
  "Lang": "en",
  "Content": {
    "article.html": "92a95cb3d430cacb67e48de0cf66605014b983f2",
    "article.txt": "dafff4fbab0cbccf7e81fec374fbf9a3fc5d2343"
  },
  "Primary": "article.html",
  "Publisher": "ccrk",
  "LastModified": "1708959424",
  "TimeCreated": "1708959424",
  "Categories": [
    "Religion",
    "Christianity"
  ],
  "Topics": [],
  "Description": "Michael (polio is like God?) “appears in the Old Testament as a man’s name, synonymous with Micaiah or Micah. In the book of Daniel the same name is given to one of the chief ‘ princes ’ of the heavenly host, the guardian angel or ‘ prince ’ of Israel (Dan. x. 13, 21; xii. 1), and as such he naturally appears in Jewish theosophy as the greatest of a",
  "Comment": "",
  "License": "Public Domain in the USA",
  "SourceURL": "https://oldpedia.org/article/ccrk/Michael",
  "SourceFileURL": "https://archive.org/details/concisecyclopedi00sanf",
  "LocalFileURL": "https://oldpedia.org/pdf/ccrk/concisecyclopedi00sanf.pdf",
  "ShortTitle": "",
  "BookTitle": "A Concise Cyclopedia of Religious Knowledge",
  "BookTitleLong": "A Concise Cyclopedia of Religious Knowledge: Biblical, Biographical, Geographical, Historical, Practical and Theological",
  "BookEdition": "",
  "BookEditors": [
    "Elias Benjamin Sanford"
  ],
  "BookVolumeNumber": "",
  "BookPublisher": "Funk & Wagnall Company",
  "BookCopyrightDate": "1890",
  "BookPrintingDate": "1895",
  "PublicationDate": "1895",
  "CreatorNames": [
    "Elias Benjamin Sanford"
  ],
  "ContributorNames": [],
  "Rating": []
}