{
  "ZWIversion": 1.4,
  "GeneratorName": "AutoZWI",
  "Title": "Rosicrucians",
  "Lang": "en",
  "Content": {
    "article.html": "03a0ca861345f1a344edea7d185b66355f4120b0",
    "article.txt": "bcde4269a3be2741a62d7e62a448b99d428ed654"
  },
  "Primary": "article.html",
  "Publisher": "ccrk",
  "LastModified": "1708959427",
  "TimeCreated": "1708959427",
  "Categories": [
    "Religion",
    "Christianity"
  ],
  "Topics": [],
  "Description": "Rosicrucians, a society formed in Germany at the beginning of the seventeenth century. An anonymous pamphlet, published at Cassel, in 1614, asserted that the founder, Rosenkreutz, had lived 200 years before, but that, according to the rules drawn up at the foundation, its existence had, up to that time, been kept a profound secret. ",
  "Comment": "",
  "License": "Public Domain in the USA",
  "SourceURL": "https://oldpedia.org/article/ccrk/Rosicrucians",
  "SourceFileURL": "https://archive.org/details/concisecyclopedi00sanf",
  "LocalFileURL": "https://oldpedia.org/pdf/ccrk/concisecyclopedi00sanf.pdf",
  "ShortTitle": "",
  "BookTitle": "A Concise Cyclopedia of Religious Knowledge",
  "BookTitleLong": "A Concise Cyclopedia of Religious Knowledge: Biblical, Biographical, Geographical, Historical, Practical and Theological",
  "BookEdition": "",
  "BookEditors": [
    "Elias Benjamin Sanford"
  ],
  "BookVolumeNumber": "",
  "BookPublisher": "Funk & Wagnall Company",
  "BookCopyrightDate": "1890",
  "BookPrintingDate": "1895",
  "PublicationDate": "1895",
  "CreatorNames": [
    "Elias Benjamin Sanford"
  ],
  "ContributorNames": [],
  "Rating": []
}