{
  "ZWIversion": 1.4,
  "GeneratorName": "AutoZWI",
  "Title": "Harbaugh, Henry",
  "Lang": "en",
  "Content": {
    "article.html": "9dd3ecca9138a7b9666e7cfb160b4fe4c0088edd",
    "article.txt": "7ef86ed19a2ff9c584556155200c157f2d076bea"
  },
  "Primary": "article.html",
  "Publisher": "ccrk",
  "LastModified": "1708959421",
  "TimeCreated": "1708959421",
  "Categories": [
    "Religion",
    "Christianity"
  ],
  "Topics": [],
  "Description": "Harbaugh, Henry, D. D., a divine of the German Reformed Church, widely known by his writings on the heavenly life and the state of the sainted dead. Of Swiss descent, he was b. near Waynesborough, Penn., Oct. 2S, 1817; d. at Mercersburg, Penn., Dec. 28, 1867. After graduating at Franklin and Marshall College he was pastor of the Reformed Church, Lew",
  "Comment": "",
  "License": "Public Domain in the USA",
  "SourceURL": "https://oldpedia.org/article/ccrk/Harbaugh, Henry",
  "SourceFileURL": "https://archive.org/details/concisecyclopedi00sanf",
  "LocalFileURL": "https://oldpedia.org/pdf/ccrk/concisecyclopedi00sanf.pdf",
  "ShortTitle": "",
  "BookTitle": "A Concise Cyclopedia of Religious Knowledge",
  "BookTitleLong": "A Concise Cyclopedia of Religious Knowledge: Biblical, Biographical, Geographical, Historical, Practical and Theological",
  "BookEdition": "",
  "BookEditors": [
    "Elias Benjamin Sanford"
  ],
  "BookVolumeNumber": "",
  "BookPublisher": "Funk & Wagnall Company",
  "BookCopyrightDate": "1890",
  "BookPrintingDate": "1895",
  "PublicationDate": "1895",
  "CreatorNames": [
    "Elias Benjamin Sanford"
  ],
  "ContributorNames": [],
  "Rating": []
}