{
  "ZWIversion": 1.4,
  "GeneratorName": "AutoZWI",
  "Title": "Ware, Henry, Jun",
  "Lang": "en",
  "Content": {
    "article.html": "1b5a71f08f4254e64ae95074c6580efa779295e3",
    "article.txt": "d5b9a17f0afc3dd887ae15b8e30b3e4500c24360"
  },
  "Primary": "article.html",
  "Publisher": "ccrk",
  "LastModified": "1708959430",
  "TimeCreated": "1708959430",
  "Categories": [
    "Religion",
    "Christianity"
  ],
  "Topics": [],
  "Description": "Ware, Henry, Jun., D. D., b. at Hingham, Mass., April 21, 1794; d. at Framingham, Mass., Sept. 22, 1843. He was graduated at Harvard, 1812; pastor of the Second Church in Boston, 1817-30; Parkman professor of pulpit eloquence at the divinity school at Cambridge, 1830-42. He was one of the editors of the Christian Disciple, afterward the Christian Ex",
  "Comment": "",
  "License": "Public Domain in the USA",
  "SourceURL": "https://oldpedia.org/article/ccrk/Ware, Henry, Jun",
  "SourceFileURL": "https://archive.org/details/concisecyclopedi00sanf",
  "LocalFileURL": "https://oldpedia.org/pdf/ccrk/concisecyclopedi00sanf.pdf",
  "ShortTitle": "",
  "BookTitle": "A Concise Cyclopedia of Religious Knowledge",
  "BookTitleLong": "A Concise Cyclopedia of Religious Knowledge: Biblical, Biographical, Geographical, Historical, Practical and Theological",
  "BookEdition": "",
  "BookEditors": [
    "Elias Benjamin Sanford"
  ],
  "BookVolumeNumber": "",
  "BookPublisher": "Funk & Wagnall Company",
  "BookCopyrightDate": "1890",
  "BookPrintingDate": "1895",
  "PublicationDate": "1895",
  "CreatorNames": [
    "Elias Benjamin Sanford"
  ],
  "ContributorNames": [],
  "Rating": []
}