{
  "ZWIversion": 1.4,
  "GeneratorName": "AutoZWI",
  "Title": "Lent",
  "Lang": "en",
  "Content": {
    "article.html": "1d22cf2c588788993c5f54689f845ba2e011ca44",
    "article.txt": "b31dda2e898d2302555955e361cbd1fe35d2bfb1"
  },
  "Primary": "article.html",
  "Publisher": "ccrk",
  "LastModified": "1708959423",
  "TimeCreated": "1708959423",
  "Categories": [
    "Religion",
    "Christianity"
  ],
  "Topics": [],
  "Description": "Lent (from the Saxon word lenc/en, signifying “spring”), is the name given to the forty week-days preceding Easter. Its origin was of very early date, as the writings of Irenaeus and Tertullian prove. At first its duration was very short, and appears to have been confined to the forty hours between the time of the crucifixion and the resurrection. ",
  "Comment": "",
  "License": "Public Domain in the USA",
  "SourceURL": "https://oldpedia.org/article/ccrk/Lent",
  "SourceFileURL": "https://archive.org/details/concisecyclopedi00sanf",
  "LocalFileURL": "https://oldpedia.org/pdf/ccrk/concisecyclopedi00sanf.pdf",
  "ShortTitle": "",
  "BookTitle": "A Concise Cyclopedia of Religious Knowledge",
  "BookTitleLong": "A Concise Cyclopedia of Religious Knowledge: Biblical, Biographical, Geographical, Historical, Practical and Theological",
  "BookEdition": "",
  "BookEditors": [
    "Elias Benjamin Sanford"
  ],
  "BookVolumeNumber": "",
  "BookPublisher": "Funk & Wagnall Company",
  "BookCopyrightDate": "1890",
  "BookPrintingDate": "1895",
  "PublicationDate": "1895",
  "CreatorNames": [
    "Elias Benjamin Sanford"
  ],
  "ContributorNames": [],
  "Rating": []
}