{
  "ZWIversion": 1.4,
  "GeneratorName": "AutoZWI",
  "Title": "Hosea",
  "Lang": "en",
  "Content": {
    "article.html": "bba473dee1688171ed5c7c872fcb632f92c81d89",
    "article.txt": "b8598496127cdfbd0a6b27c1045ac7f424270f86"
  },
  "Primary": "article.html",
  "Publisher": "ccrk",
  "LastModified": "1708959421",
  "TimeCreated": "1708959421",
  "Categories": [
    "Religion",
    "Christianity"
  ],
  "Topics": [],
  "Description": "Hose'a, “son of Beeri, and first of the minor prophets, as they appear in the A. V. Time.—This question must be settled, as far as it can be settled, partly by reference to the title, partly by an inquiry into the ■contents of the book. For the beginning of Hosea’s ministry the title gives us the reign of Uzziah, king of Judah, but limits this vague",
  "Comment": "",
  "License": "Public Domain in the USA",
  "SourceURL": "https://oldpedia.org/article/ccrk/Hosea",
  "SourceFileURL": "https://archive.org/details/concisecyclopedi00sanf",
  "LocalFileURL": "https://oldpedia.org/pdf/ccrk/concisecyclopedi00sanf.pdf",
  "ShortTitle": "",
  "BookTitle": "A Concise Cyclopedia of Religious Knowledge",
  "BookTitleLong": "A Concise Cyclopedia of Religious Knowledge: Biblical, Biographical, Geographical, Historical, Practical and Theological",
  "BookEdition": "",
  "BookEditors": [
    "Elias Benjamin Sanford"
  ],
  "BookVolumeNumber": "",
  "BookPublisher": "Funk & Wagnall Company",
  "BookCopyrightDate": "1890",
  "BookPrintingDate": "1895",
  "PublicationDate": "1895",
  "CreatorNames": [
    "Elias Benjamin Sanford"
  ],
  "ContributorNames": [],
  "Rating": []
}