{
  "ZWIversion": 1.4,
  "GeneratorName": "AutoZWI",
  "Title": "Doxology",
  "Lang": "en",
  "Content": {
    "article.html": "1f0a72ba04d73dd60704be7c23dcb4aba98ffb3a",
    "article.txt": "ecedda5529cbc8650608b358d1959732999fafa4"
  },
  "Primary": "article.html",
  "Publisher": "ccrk",
  "LastModified": "1708959418",
  "TimeCreated": "1708959418",
  "Categories": [
    "Religion",
    "Christianity"
  ],
  "Topics": [],
  "Description": "Doxology, a hymn of glorification to God. It originally consisted of the words found in Luke ii. 14. Additions were early made to it, first in the Greek Church and then in the Latin, probably by Hilary, ' Bishop of Poitiers (d. 366), and in the fifth century what is known as the Doxologia major read as follows: ",
  "Comment": "",
  "License": "Public Domain in the USA",
  "SourceURL": "https://oldpedia.org/article/ccrk/Doxology",
  "SourceFileURL": "https://archive.org/details/concisecyclopedi00sanf",
  "LocalFileURL": "https://oldpedia.org/pdf/ccrk/concisecyclopedi00sanf.pdf",
  "ShortTitle": "",
  "BookTitle": "A Concise Cyclopedia of Religious Knowledge",
  "BookTitleLong": "A Concise Cyclopedia of Religious Knowledge: Biblical, Biographical, Geographical, Historical, Practical and Theological",
  "BookEdition": "",
  "BookEditors": [
    "Elias Benjamin Sanford"
  ],
  "BookVolumeNumber": "",
  "BookPublisher": "Funk & Wagnall Company",
  "BookCopyrightDate": "1890",
  "BookPrintingDate": "1895",
  "PublicationDate": "1895",
  "CreatorNames": [
    "Elias Benjamin Sanford"
  ],
  "ContributorNames": [],
  "Rating": []
}