{
  "ZWIversion": 1.4,
  "GeneratorName": "AutoZWI",
  "Title": "Carstares, William",
  "Lang": "en",
  "Content": {
    "article.html": "5dcc1bb17722116bcf60e9f49f11b5de25972977",
    "article.txt": "d9046a95f8000e524a03fab92ca6ad92686fb398"
  },
  "Primary": "article.html",
  "Publisher": "ccrk",
  "LastModified": "1708959416",
  "TimeCreated": "1708959416",
  "Categories": [
    "Religion",
    "Christianity"
  ],
  "Topics": [],
  "Description": "Carstares, William, D. D., a prominent political and ecclesiastical leader of the seventeenth century, who took an active part in bringing about the Revolution of 1688; b. at Cathcart, Scotland, 1649; d. at Edinburgh, 1715. He was employed to negotiate between the English and Scotch conspirators in the Rye House plot. ",
  "Comment": "",
  "License": "Public Domain in the USA",
  "SourceURL": "https://oldpedia.org/article/ccrk/Carstares, William",
  "SourceFileURL": "https://archive.org/details/concisecyclopedi00sanf",
  "LocalFileURL": "https://oldpedia.org/pdf/ccrk/concisecyclopedi00sanf.pdf",
  "ShortTitle": "",
  "BookTitle": "A Concise Cyclopedia of Religious Knowledge",
  "BookTitleLong": "A Concise Cyclopedia of Religious Knowledge: Biblical, Biographical, Geographical, Historical, Practical and Theological",
  "BookEdition": "",
  "BookEditors": [
    "Elias Benjamin Sanford"
  ],
  "BookVolumeNumber": "",
  "BookPublisher": "Funk & Wagnall Company",
  "BookCopyrightDate": "1890",
  "BookPrintingDate": "1895",
  "PublicationDate": "1895",
  "CreatorNames": [
    "Elias Benjamin Sanford"
  ],
  "ContributorNames": [],
  "Rating": []
}