{
  "ZWIversion": 1.4,
  "GeneratorName": "AutoZWI",
  "Title": "Kneeling",
  "Lang": "en",
  "Content": {
    "article.html": "7719776a62059d811f1abe7798f3a78e45335eaf",
    "article.txt": "6272722333b81fce5110e614ea4970d8b0ee41ca"
  },
  "Primary": "article.html",
  "Publisher": "ccrk",
  "LastModified": "1708959422",
  "TimeCreated": "1708959422",
  "Categories": [
    "Religion",
    "Christianity"
  ],
  "Topics": [],
  "Description": "Kneeling, Genuflexion, Prostration. Standing was the most common posture in prayer among the Jews (Neh. ix. 2-4; Matt. vi. 5; Luke xviii. 11, 13); but they also knelt (2 Chron. vi. 13; Dan. vi. 10; Ezra ix. 5), and sometimes prostrated themselves. (Num. xiv. 5; Josh. v. 14; 1 Kings xviii. 39.) Kneeling or prostration was probably the general posture",
  "Comment": "",
  "License": "Public Domain in the USA",
  "SourceURL": "https://oldpedia.org/article/ccrk/Kneeling",
  "SourceFileURL": "https://archive.org/details/concisecyclopedi00sanf",
  "LocalFileURL": "https://oldpedia.org/pdf/ccrk/concisecyclopedi00sanf.pdf",
  "ShortTitle": "",
  "BookTitle": "A Concise Cyclopedia of Religious Knowledge",
  "BookTitleLong": "A Concise Cyclopedia of Religious Knowledge: Biblical, Biographical, Geographical, Historical, Practical and Theological",
  "BookEdition": "",
  "BookEditors": [
    "Elias Benjamin Sanford"
  ],
  "BookVolumeNumber": "",
  "BookPublisher": "Funk & Wagnall Company",
  "BookCopyrightDate": "1890",
  "BookPrintingDate": "1895",
  "PublicationDate": "1895",
  "CreatorNames": [
    "Elias Benjamin Sanford"
  ],
  "ContributorNames": [],
  "Rating": []
}