{
  "ZWIversion": 1.4,
  "GeneratorName": "AutoZWI",
  "Title": "Legion, The Theban",
  "Lang": "en",
  "Content": {
    "article.html": "e2b0e17e6ac8488d92ef04ca1878e6d8e4cacd03",
    "article.txt": "0680023f730d0e22deb974d3600bc7f2e84cb818"
  },
  "Primary": "article.html",
  "Publisher": "ccrk",
  "LastModified": "1708959423",
  "TimeCreated": "1708959423",
  "Categories": [
    "Religion",
    "Christianity"
  ],
  "Topics": [],
  "Description": "Legion, The Theban, according to the legend, which has many versions, a legion of sixty-six hundred men, called the “Theban,” was sent from the Orient to northern Italy to reinforce the army of Maximinian. Being Christians themselves, they refused to obey his commands to persecute the Christians in that region. ",
  "Comment": "",
  "License": "Public Domain in the USA",
  "SourceURL": "https://oldpedia.org/article/ccrk/Legion, The Theban",
  "SourceFileURL": "https://archive.org/details/concisecyclopedi00sanf",
  "LocalFileURL": "https://oldpedia.org/pdf/ccrk/concisecyclopedi00sanf.pdf",
  "ShortTitle": "",
  "BookTitle": "A Concise Cyclopedia of Religious Knowledge",
  "BookTitleLong": "A Concise Cyclopedia of Religious Knowledge: Biblical, Biographical, Geographical, Historical, Practical and Theological",
  "BookEdition": "",
  "BookEditors": [
    "Elias Benjamin Sanford"
  ],
  "BookVolumeNumber": "",
  "BookPublisher": "Funk & Wagnall Company",
  "BookCopyrightDate": "1890",
  "BookPrintingDate": "1895",
  "PublicationDate": "1895",
  "CreatorNames": [
    "Elias Benjamin Sanford"
  ],
  "ContributorNames": [],
  "Rating": []
}