{
  "ZWIversion": 1.4,
  "GeneratorName": "AutoZWI",
  "Title": "Gregory Illuminator",
  "Lang": "en",
  "Content": {
    "article.html": "424c1cb2b86a8ac14c113ded19c74e88284d78fa",
    "article.txt": "c431cd64d16b130857fcd819b8aa714573ece3c9"
  },
  "Primary": "article.html",
  "Publisher": "ccrk",
  "LastModified": "1708959420",
  "TimeCreated": "1708959420",
  "Categories": [
    "Religion",
    "Christianity"
  ],
  "Topics": [],
  "Description": "Gregory Illuminator, the apostle of Armenia; b. about 257, at Valarshabad, in the province of Ararat, Armenia; d. in the wilderness of Manyea, in the province of Taran, 332. He received a Christian education at Caesarea, Cappadocia, and on his return he was the means of converting King Teridates III. and many other of his countrymen. ",
  "Comment": "",
  "License": "Public Domain in the USA",
  "SourceURL": "https://oldpedia.org/article/ccrk/Gregory Illuminator",
  "SourceFileURL": "https://archive.org/details/concisecyclopedi00sanf",
  "LocalFileURL": "https://oldpedia.org/pdf/ccrk/concisecyclopedi00sanf.pdf",
  "ShortTitle": "",
  "BookTitle": "A Concise Cyclopedia of Religious Knowledge",
  "BookTitleLong": "A Concise Cyclopedia of Religious Knowledge: Biblical, Biographical, Geographical, Historical, Practical and Theological",
  "BookEdition": "",
  "BookEditors": [
    "Elias Benjamin Sanford"
  ],
  "BookVolumeNumber": "",
  "BookPublisher": "Funk & Wagnall Company",
  "BookCopyrightDate": "1890",
  "BookPrintingDate": "1895",
  "PublicationDate": "1895",
  "CreatorNames": [
    "Elias Benjamin Sanford"
  ],
  "ContributorNames": [],
  "Rating": []
}