{
  "ZWIversion": 1.4,
  "GeneratorName": "AutoZWI",
  "Title": "Cajetan (ka-ye-tan), Cardinal",
  "Lang": "en",
  "Content": {
    "article.html": "2cf64f895d03baaac4f1201039f319a5284fd5d1",
    "article.txt": "c3db855dee776b03703835e910d0ddbe1344994d"
  },
  "Primary": "article.html",
  "Publisher": "ccrk",
  "LastModified": "1708959415",
  "TimeCreated": "1708959415",
  "Categories": [
    "Religion",
    "Christianity"
  ],
  "Topics": [],
  "Description": "Cajetan (ka-ye-tan), Cardinal, b. at Gaeta, Italy, Feb. 20, 1469; d. in Rome, Aug. 9, 1534. His proper name was Thomas de Vio, but he adopted that of Cajetan from his birthplace. He was chosen general of the Dominican order in 1508, and in 1517 was made a cardinal. The most remarkable event in his life was the conference with Luther at Augsburg, 151",
  "Comment": "",
  "License": "Public Domain in the USA",
  "SourceURL": "https://oldpedia.org/article/ccrk/Cajetan (ka-ye-tan), Cardinal",
  "SourceFileURL": "https://archive.org/details/concisecyclopedi00sanf",
  "LocalFileURL": "https://oldpedia.org/pdf/ccrk/concisecyclopedi00sanf.pdf",
  "ShortTitle": "",
  "BookTitle": "A Concise Cyclopedia of Religious Knowledge",
  "BookTitleLong": "A Concise Cyclopedia of Religious Knowledge: Biblical, Biographical, Geographical, Historical, Practical and Theological",
  "BookEdition": "",
  "BookEditors": [
    "Elias Benjamin Sanford"
  ],
  "BookVolumeNumber": "",
  "BookPublisher": "Funk & Wagnall Company",
  "BookCopyrightDate": "1890",
  "BookPrintingDate": "1895",
  "PublicationDate": "1895",
  "CreatorNames": [
    "Elias Benjamin Sanford"
  ],
  "ContributorNames": [],
  "Rating": []
}