{
  "ZWIversion": 1.4,
  "GeneratorName": "AutoZWI",
  "Title": "Trinity",
  "Lang": "en",
  "Content": {
    "article.html": "a971a64e0ff9019c5c0964ea7cc4f25a981afa36",
    "article.txt": "7a70c13569c086ce0c7a748f615da44a5e1b58be"
  },
  "Primary": "article.html",
  "Publisher": "ccrk",
  "LastModified": "1708959429",
  "TimeCreated": "1708959429",
  "Categories": [
    "Religion",
    "Christianity"
  ],
  "Topics": [],
  "Description": "Trinity, The. All branches of the Christian Church teach the doctrine of the divine unity. That there is none other God but one is the most, unequivocal, positive and continuous testimony of both the Old and the New Testaments. It is the substance of the first commandment, and the primordial basis of all true religion and morality. (Exod. xx. 3; ",
  "Comment": "",
  "License": "Public Domain in the USA",
  "SourceURL": "https://oldpedia.org/article/ccrk/Trinity",
  "SourceFileURL": "https://archive.org/details/concisecyclopedi00sanf",
  "LocalFileURL": "https://oldpedia.org/pdf/ccrk/concisecyclopedi00sanf.pdf",
  "ShortTitle": "",
  "BookTitle": "A Concise Cyclopedia of Religious Knowledge",
  "BookTitleLong": "A Concise Cyclopedia of Religious Knowledge: Biblical, Biographical, Geographical, Historical, Practical and Theological",
  "BookEdition": "",
  "BookEditors": [
    "Elias Benjamin Sanford"
  ],
  "BookVolumeNumber": "",
  "BookPublisher": "Funk & Wagnall Company",
  "BookCopyrightDate": "1890",
  "BookPrintingDate": "1895",
  "PublicationDate": "1895",
  "CreatorNames": [
    "Elias Benjamin Sanford"
  ],
  "ContributorNames": [],
  "Rating": []
}