{
  "ZWIversion": 1.4,
  "GeneratorName": "AutoZWI",
  "Title": "Presiding",
  "Lang": "en",
  "Content": {
    "article.html": "54c34111c7b26a7b42a17fba0c77f26b46acdd5c",
    "article.txt": "49e4faf66f1d12d3026d7b81b98b62f9b44d35ed"
  },
  "Primary": "article.html",
  "Publisher": "ccrk",
  "LastModified": "1708959426",
  "TimeCreated": "1708959426",
  "Categories": [
    "Religion",
    "Christianity"
  ],
  "Topics": [],
  "Description": "Presiding Elders are officers of the Methodist Episcopal Church, appointed by the bishops, and having charge of local districts within the bounds of a conference. It is their duty to visit the churches at stated intervals, to be present at, as far as practicable, and hold all their quarterly meetings. They hear complaints, receive and try appeals, a",
  "Comment": "",
  "License": "Public Domain in the USA",
  "SourceURL": "https://oldpedia.org/article/ccrk/Presiding",
  "SourceFileURL": "https://archive.org/details/concisecyclopedi00sanf",
  "LocalFileURL": "https://oldpedia.org/pdf/ccrk/concisecyclopedi00sanf.pdf",
  "ShortTitle": "",
  "BookTitle": "A Concise Cyclopedia of Religious Knowledge",
  "BookTitleLong": "A Concise Cyclopedia of Religious Knowledge: Biblical, Biographical, Geographical, Historical, Practical and Theological",
  "BookEdition": "",
  "BookEditors": [
    "Elias Benjamin Sanford"
  ],
  "BookVolumeNumber": "",
  "BookPublisher": "Funk & Wagnall Company",
  "BookCopyrightDate": "1890",
  "BookPrintingDate": "1895",
  "PublicationDate": "1895",
  "CreatorNames": [
    "Elias Benjamin Sanford"
  ],
  "ContributorNames": [],
  "Rating": []
}