{
  "ZWIversion": 1.4,
  "GeneratorName": "AutoZWI",
  "Title": "Leipzig Interim, The",
  "Lang": "en",
  "Content": {
    "article.html": "b5e479ee3a094f32458f5f85661da6a17941b5af",
    "article.txt": "d35d3b4b5a0e2ac64eedd9224f3610a373489e5b"
  },
  "Primary": "article.html",
  "Publisher": "ccrk",
  "LastModified": "1708959423",
  "TimeCreated": "1708959423",
  "Categories": [
    "Religion",
    "Christianity"
  ],
  "Topics": [],
  "Description": "Leipzig Interim, The, was issued at Leipzig, Dec. 22, 154S. It was the joint production of Melanchthon, Paul Eber, Bu-genhagen, Hieronymus Weller, Antonius Lauterbach, Georg Major, and Joachim Camerarius. It made such concessions to the Roman Catholics with respect to baptism, penance, mass, etc., that it met with great opposition from the Lutherans",
  "Comment": "",
  "License": "Public Domain in the USA",
  "SourceURL": "https://oldpedia.org/article/ccrk/Leipzig Interim, The",
  "SourceFileURL": "https://archive.org/details/concisecyclopedi00sanf",
  "LocalFileURL": "https://oldpedia.org/pdf/ccrk/concisecyclopedi00sanf.pdf",
  "ShortTitle": "",
  "BookTitle": "A Concise Cyclopedia of Religious Knowledge",
  "BookTitleLong": "A Concise Cyclopedia of Religious Knowledge: Biblical, Biographical, Geographical, Historical, Practical and Theological",
  "BookEdition": "",
  "BookEditors": [
    "Elias Benjamin Sanford"
  ],
  "BookVolumeNumber": "",
  "BookPublisher": "Funk & Wagnall Company",
  "BookCopyrightDate": "1890",
  "BookPrintingDate": "1895",
  "PublicationDate": "1895",
  "CreatorNames": [
    "Elias Benjamin Sanford"
  ],
  "ContributorNames": [],
  "Rating": []
}