{
  "ZWIversion": 1.4,
  "GeneratorName": "AutoZWI",
  "Title": "England",
  "Lang": "en",
  "Content": {
    "article.html": "8b7901db78919864f5610caec601b488a99d119d",
    "article.txt": "63b5802424a43ee0ac2c00ea2d83a2265b55225e"
  },
  "Primary": "article.html",
  "Publisher": "ccrk",
  "LastModified": "1708959419",
  "TimeCreated": "1708959419",
  "Categories": [
    "Religion",
    "Christianity"
  ],
  "Topics": [],
  "Description": "England, Church of. The earliest inhabitants of England that appear in history, known as the “Britons,” were pagans,, and the Druids were their ministering; priests. They were partially Christianized soon after the Apostolic Age. There are many and various traditions respecting the missionary work in Britain of apostolic men, such as Joseph of Arima",
  "Comment": "",
  "License": "Public Domain in the USA",
  "SourceURL": "https://oldpedia.org/article/ccrk/England",
  "SourceFileURL": "https://archive.org/details/concisecyclopedi00sanf",
  "LocalFileURL": "https://oldpedia.org/pdf/ccrk/concisecyclopedi00sanf.pdf",
  "ShortTitle": "",
  "BookTitle": "A Concise Cyclopedia of Religious Knowledge",
  "BookTitleLong": "A Concise Cyclopedia of Religious Knowledge: Biblical, Biographical, Geographical, Historical, Practical and Theological",
  "BookEdition": "",
  "BookEditors": [
    "Elias Benjamin Sanford"
  ],
  "BookVolumeNumber": "",
  "BookPublisher": "Funk & Wagnall Company",
  "BookCopyrightDate": "1890",
  "BookPrintingDate": "1895",
  "PublicationDate": "1895",
  "CreatorNames": [
    "Elias Benjamin Sanford"
  ],
  "ContributorNames": [],
  "Rating": []
}