{
  "ZWIversion": 1.4,
  "GeneratorName": "AutoZWI",
  "Title": "Girdle",
  "Lang": "en",
  "Content": {
    "article.html": "773045f0df00a088657b718e75bdbadf0e651178",
    "article.txt": "766194ba4a4acf0fd02512ac9bc85ce1b068e873"
  },
  "Primary": "article.html",
  "Publisher": "ccrk",
  "LastModified": "1708959420",
  "TimeCreated": "1708959420",
  "Categories": [
    "Religion",
    "Christianity"
  ],
  "Topics": [],
  "Description": "Girdle, “an essential article of dress in the East, and worn both by men and women. The common girdle was made of leather (2 Kings i. 8; Matt. iii. 4), like that worn by the Bedouins of the present day. A finer girdle was made ofjinen (Jer. xiii. 1; Ezek. xvi. 10), embroidered with silk, and sometimes with gold and silver thread (Dan. x. 5; Rev. ",
  "Comment": "",
  "License": "Public Domain in the USA",
  "SourceURL": "https://oldpedia.org/article/ccrk/Girdle",
  "SourceFileURL": "https://archive.org/details/concisecyclopedi00sanf",
  "LocalFileURL": "https://oldpedia.org/pdf/ccrk/concisecyclopedi00sanf.pdf",
  "ShortTitle": "",
  "BookTitle": "A Concise Cyclopedia of Religious Knowledge",
  "BookTitleLong": "A Concise Cyclopedia of Religious Knowledge: Biblical, Biographical, Geographical, Historical, Practical and Theological",
  "BookEdition": "",
  "BookEditors": [
    "Elias Benjamin Sanford"
  ],
  "BookVolumeNumber": "",
  "BookPublisher": "Funk & Wagnall Company",
  "BookCopyrightDate": "1890",
  "BookPrintingDate": "1895",
  "PublicationDate": "1895",
  "CreatorNames": [
    "Elias Benjamin Sanford"
  ],
  "ContributorNames": [],
  "Rating": []
}