{
  "ZWIversion": 1.4,
  "GeneratorName": "AutoZWI",
  "Title": "Curia Romana",
  "Lang": "en",
  "Content": {
    "article.html": "f2b1deab2105f0ff133aaab8c50a3b73c5499ebe",
    "article.txt": "9dd77afeaef7badf1880f8eb75dd540727907ebf"
  },
  "Primary": "article.html",
  "Publisher": "ccrk",
  "LastModified": "1708959417",
  "TimeCreated": "1708959417",
  "Categories": [
    "Religion",
    "Christianity"
  ],
  "Topics": [],
  "Description": "Curia Romana is the name given to the entire body of officials which together forms the papal government, and through whom all communications are carried on between the Holy See and Foreign Powers. See Cardinal.",
  "Comment": "",
  "License": "Public Domain in the USA",
  "SourceURL": "https://oldpedia.org/article/ccrk/Curia Romana",
  "SourceFileURL": "https://archive.org/details/concisecyclopedi00sanf",
  "LocalFileURL": "https://oldpedia.org/pdf/ccrk/concisecyclopedi00sanf.pdf",
  "ShortTitle": "",
  "BookTitle": "A Concise Cyclopedia of Religious Knowledge",
  "BookTitleLong": "A Concise Cyclopedia of Religious Knowledge: Biblical, Biographical, Geographical, Historical, Practical and Theological",
  "BookEdition": "",
  "BookEditors": [
    "Elias Benjamin Sanford"
  ],
  "BookVolumeNumber": "",
  "BookPublisher": "Funk & Wagnall Company",
  "BookCopyrightDate": "1890",
  "BookPrintingDate": "1895",
  "PublicationDate": "1895",
  "CreatorNames": [
    "Elias Benjamin Sanford"
  ],
  "ContributorNames": [],
  "Rating": []
}