{
  "ZWIversion": 1.4,
  "GeneratorName": "AutoZWI",
  "Title": "Ragged",
  "Lang": "en",
  "Content": {
    "article.html": "0b118c66d7ac38e63cdcaabf2d852d255a04fd71",
    "article.txt": "b5ffe4291b814d8071b59c546f1c120fbb64e628"
  },
  "Primary": "article.html",
  "Publisher": "ccrk",
  "LastModified": "1708959427",
  "TimeCreated": "1708959427",
  "Categories": [
    "Religion",
    "Christianity"
  ],
  "Topics": [],
  "Description": "Ragged Schools have for their purpose the teaching of vagrant children and their rescue from a criminal life. The earliest school of the kind is said to have been organized in Rome, near the close of the last century, by Giovanni Borgia, an illiterate mason. The name, however, came into general use to designate the schools instituted by John Pounds,",
  "Comment": "",
  "License": "Public Domain in the USA",
  "SourceURL": "https://oldpedia.org/article/ccrk/Ragged",
  "SourceFileURL": "https://archive.org/details/concisecyclopedi00sanf",
  "LocalFileURL": "https://oldpedia.org/pdf/ccrk/concisecyclopedi00sanf.pdf",
  "ShortTitle": "",
  "BookTitle": "A Concise Cyclopedia of Religious Knowledge",
  "BookTitleLong": "A Concise Cyclopedia of Religious Knowledge: Biblical, Biographical, Geographical, Historical, Practical and Theological",
  "BookEdition": "",
  "BookEditors": [
    "Elias Benjamin Sanford"
  ],
  "BookVolumeNumber": "",
  "BookPublisher": "Funk & Wagnall Company",
  "BookCopyrightDate": "1890",
  "BookPrintingDate": "1895",
  "PublicationDate": "1895",
  "CreatorNames": [
    "Elias Benjamin Sanford"
  ],
  "ContributorNames": [],
  "Rating": []
}