{
  "ZWIversion": 1.4,
  "GeneratorName": "AutoZWI",
  "Title": "Hannah",
  "Lang": "en",
  "Content": {
    "article.html": "0f77227dbe70de601a5e9842a45bd7843fa9aa3c",
    "article.txt": "162073777557a7150ea1b179acb4701a3e89168a"
  },
  "Primary": "article.html",
  "Publisher": "ccrk",
  "LastModified": "1708959421",
  "TimeCreated": "1708959421",
  "Categories": [
    "Religion",
    "Christianity"
  ],
  "Topics": [],
  "Description": "Han'nah, wife of Elkanah of Ramathaim-Zophim. (1 Sam. i. I, 2.) In answer to prayer she was given a son, Samuel. Her wonderful song of praise at his birth is given in 1 Sam. ii. 1-10. The name Hannah is a favorite among the Hebrews and Phoenicians.",
  "Comment": "",
  "License": "Public Domain in the USA",
  "SourceURL": "https://oldpedia.org/article/ccrk/Hannah",
  "SourceFileURL": "https://archive.org/details/concisecyclopedi00sanf",
  "LocalFileURL": "https://oldpedia.org/pdf/ccrk/concisecyclopedi00sanf.pdf",
  "ShortTitle": "",
  "BookTitle": "A Concise Cyclopedia of Religious Knowledge",
  "BookTitleLong": "A Concise Cyclopedia of Religious Knowledge: Biblical, Biographical, Geographical, Historical, Practical and Theological",
  "BookEdition": "",
  "BookEditors": [
    "Elias Benjamin Sanford"
  ],
  "BookVolumeNumber": "",
  "BookPublisher": "Funk & Wagnall Company",
  "BookCopyrightDate": "1890",
  "BookPrintingDate": "1895",
  "PublicationDate": "1895",
  "CreatorNames": [
    "Elias Benjamin Sanford"
  ],
  "ContributorNames": [],
  "Rating": []
}