{
  "ZWIversion": 1.4,
  "GeneratorName": "AutoZWI",
  "Title": "Adams, Mrs. Sarah Flower",
  "Lang": "en",
  "Content": {
    "article.html": "bfbd7ee0c705c9039ba92686a28957633a9375e6",
    "article.txt": "32c2e771d7013b6bcf8661d2a7dc7a5d8d599242"
  },
  "Primary": "article.html",
  "Publisher": "ccrk",
  "LastModified": "1708959413",
  "TimeCreated": "1708959413",
  "Categories": [
    "Religion",
    "Christianity"
  ],
  "Topics": [],
  "Description": "Adams, Mrs. Sarah Flower; b. at Harlow, Essex, Eng., Feb. 22, 1805; d. Aug. 13, 1849. She wrote many poems, but her name will live as the author of the hymn, ‘'Nearer, my God, to Thee.” This hymn was contributed to a collection of Hymns and Anthems (1840-41), made by her pastor, the Rev.William J. ",
  "Comment": "",
  "License": "Public Domain in the USA",
  "SourceURL": "https://oldpedia.org/article/ccrk/Adams, Mrs. Sarah Flower",
  "SourceFileURL": "https://archive.org/details/concisecyclopedi00sanf",
  "LocalFileURL": "https://oldpedia.org/pdf/ccrk/concisecyclopedi00sanf.pdf",
  "ShortTitle": "",
  "BookTitle": "A Concise Cyclopedia of Religious Knowledge",
  "BookTitleLong": "A Concise Cyclopedia of Religious Knowledge: Biblical, Biographical, Geographical, Historical, Practical and Theological",
  "BookEdition": "",
  "BookEditors": [
    "Elias Benjamin Sanford"
  ],
  "BookVolumeNumber": "",
  "BookPublisher": "Funk & Wagnall Company",
  "BookCopyrightDate": "1890",
  "BookPrintingDate": "1895",
  "PublicationDate": "1895",
  "CreatorNames": [
    "Elias Benjamin Sanford"
  ],
  "ContributorNames": [],
  "Rating": []
}