{
  "ZWIversion": 1.4,
  "GeneratorName": "AutoZWI",
  "Title": "Rale(r«Z",
  "Lang": "en",
  "Content": {
    "article.html": "af9a6cef1805bb6b398804ce9e158a1ccda15e82",
    "article.txt": "5d24c9dc853524c84aad2aea3dd21985c6d04504"
  },
  "Primary": "article.html",
  "Publisher": "ccrk",
  "LastModified": "1708959427",
  "TimeCreated": "1708959427",
  "Categories": [
    "Religion",
    "Christianity"
  ],
  "Topics": [],
  "Description": "Rale(r«Z), Sebastian, French Jesuit missionary to the North American Indians; b. in Fianche-Comte, 1657 or 1658; d. at Norridgewock, Me., Aug. 23, 1724. He came to Quebec in 1689, an",
  "Comment": "",
  "License": "Public Domain in the USA",
  "SourceURL": "https://oldpedia.org/article/ccrk/Rale(r«Z",
  "SourceFileURL": "https://archive.org/details/concisecyclopedi00sanf",
  "LocalFileURL": "https://oldpedia.org/pdf/ccrk/concisecyclopedi00sanf.pdf",
  "ShortTitle": "",
  "BookTitle": "A Concise Cyclopedia of Religious Knowledge",
  "BookTitleLong": "A Concise Cyclopedia of Religious Knowledge: Biblical, Biographical, Geographical, Historical, Practical and Theological",
  "BookEdition": "",
  "BookEditors": [
    "Elias Benjamin Sanford"
  ],
  "BookVolumeNumber": "",
  "BookPublisher": "Funk & Wagnall Company",
  "BookCopyrightDate": "1890",
  "BookPrintingDate": "1895",
  "PublicationDate": "1895",
  "CreatorNames": [
    "Elias Benjamin Sanford"
  ],
  "ContributorNames": [],
  "Rating": []
}