{
  "ZWIversion": 1.4,
  "GeneratorName": "AutoZWI",
  "Title": "Crete",
  "Lang": "en",
  "Content": {
    "article.html": "d4171f9a77651b58a8bd1dd2d0875b027fa9fe0c",
    "article.txt": "249b2a557ceb4da928d96bf459fc90847b701df2"
  },
  "Primary": "article.html",
  "Publisher": "ccrk",
  "LastModified": "1708959417",
  "TimeCreated": "1708959417",
  "Categories": [
    "Religion",
    "Christianity"
  ],
  "Topics": [],
  "Description": "Crete, a large island midway between Syria and Malta, now called Candia. (Acts xxvii. 7-21; Titus i. 5.)",
  "Comment": "",
  "License": "Public Domain in the USA",
  "SourceURL": "https://oldpedia.org/article/ccrk/Crete",
  "SourceFileURL": "https://archive.org/details/concisecyclopedi00sanf",
  "LocalFileURL": "https://oldpedia.org/pdf/ccrk/concisecyclopedi00sanf.pdf",
  "ShortTitle": "",
  "BookTitle": "A Concise Cyclopedia of Religious Knowledge",
  "BookTitleLong": "A Concise Cyclopedia of Religious Knowledge: Biblical, Biographical, Geographical, Historical, Practical and Theological",
  "BookEdition": "",
  "BookEditors": [
    "Elias Benjamin Sanford"
  ],
  "BookVolumeNumber": "",
  "BookPublisher": "Funk & Wagnall Company",
  "BookCopyrightDate": "1890",
  "BookPrintingDate": "1895",
  "PublicationDate": "1895",
  "CreatorNames": [
    "Elias Benjamin Sanford"
  ],
  "ContributorNames": [],
  "Rating": []
}