{
  "ZWIversion": 1.4,
  "GeneratorName": "AutoZWI",
  "Title": "Ephraem Syrus",
  "Lang": "en",
  "Content": {
    "article.html": "4ed50a7bb6306d745045002c49f9894901d8b17e",
    "article.txt": "48bd869aa5273bc6c65ed661ea430707d679ee28"
  },
  "Primary": "article.html",
  "Publisher": "ccrk",
  "LastModified": "1708959418",
  "TimeCreated": "1708959418",
  "Categories": [
    "Religion",
    "Christianity"
  ],
  "Topics": [],
  "Description": "E'phraem Sy'rus, one of the most prominent fathers of the Syrian Church, and a prolific ecclesiastical writer. The real story of his life has become so mingled with legendary accounts that it is difficult to separate them. Born in the early part of the fourth century, he was educated by Bishop Jacob, ol Nisibis.and accompanied that prelate to the Co",
  "Comment": "",
  "License": "Public Domain in the USA",
  "SourceURL": "https://oldpedia.org/article/ccrk/Ephraem Syrus",
  "SourceFileURL": "https://archive.org/details/concisecyclopedi00sanf",
  "LocalFileURL": "https://oldpedia.org/pdf/ccrk/concisecyclopedi00sanf.pdf",
  "ShortTitle": "",
  "BookTitle": "A Concise Cyclopedia of Religious Knowledge",
  "BookTitleLong": "A Concise Cyclopedia of Religious Knowledge: Biblical, Biographical, Geographical, Historical, Practical and Theological",
  "BookEdition": "",
  "BookEditors": [
    "Elias Benjamin Sanford"
  ],
  "BookVolumeNumber": "",
  "BookPublisher": "Funk & Wagnall Company",
  "BookCopyrightDate": "1890",
  "BookPrintingDate": "1895",
  "PublicationDate": "1895",
  "CreatorNames": [
    "Elias Benjamin Sanford"
  ],
  "ContributorNames": [],
  "Rating": []
}