{
  "ZWIversion": 1.4,
  "GeneratorName": "AutoZWI",
  "Title": "Archevites,“the",
  "Lang": "en",
  "Content": {
    "article.html": "3a253b85f4d7e229213648d2f767ebcb9bc21940",
    "article.txt": "21356cda373601f5930a20dac34af9628c645287"
  },
  "Primary": "article.html",
  "Publisher": "ccrk",
  "LastModified": "1708959414",
  "TimeCreated": "1708959414",
  "Categories": [
    "Religion",
    "Christianity"
  ],
  "Topics": [],
  "Description": "Ar'chevites,“the name of a people transplanted by the Assyrians into the depopulated Samaria. (Ezek. iv. 9.) They were inhabitants of Erech and its neighborhood, mentioned in Gen. x. 10 as belonging to the kingdom of Nimrod. Erech has been identified in the ruins of Warka, on the banks of the Euphrates, eighty-two miles south-east from Babylon.”—Wol",
  "Comment": "",
  "License": "Public Domain in the USA",
  "SourceURL": "https://oldpedia.org/article/ccrk/Archevites,“the",
  "SourceFileURL": "https://archive.org/details/concisecyclopedi00sanf",
  "LocalFileURL": "https://oldpedia.org/pdf/ccrk/concisecyclopedi00sanf.pdf",
  "ShortTitle": "",
  "BookTitle": "A Concise Cyclopedia of Religious Knowledge",
  "BookTitleLong": "A Concise Cyclopedia of Religious Knowledge: Biblical, Biographical, Geographical, Historical, Practical and Theological",
  "BookEdition": "",
  "BookEditors": [
    "Elias Benjamin Sanford"
  ],
  "BookVolumeNumber": "",
  "BookPublisher": "Funk & Wagnall Company",
  "BookCopyrightDate": "1890",
  "BookPrintingDate": "1895",
  "PublicationDate": "1895",
  "CreatorNames": [
    "Elias Benjamin Sanford"
  ],
  "ContributorNames": [],
  "Rating": []
}