{
  "ZWIversion": 1.4,
  "GeneratorName": "AutoZWI",
  "Title": "Ninian",
  "Lang": "en",
  "Content": {
    "article.html": "af659de79d56f52982757e8076228fb85a742620",
    "article.txt": "3ea0deed02c9c8e5b77726f04ea41a3449c13b92"
  },
  "Primary": "article.html",
  "Publisher": "ccrk",
  "LastModified": "1708959425",
  "TimeCreated": "1708959425",
  "Categories": [
    "Religion",
    "Christianity"
  ],
  "Topics": [],
  "Description": "Ninian, St., the apostle of the Southern Picts, said to have visited Rome in 370, and was ordained in 394. Returning to Britain, he built a stone church at what is now the modern Whithorn. Here he established his see. He is reputed to have converted the Picts as far as the Grampians.",
  "Comment": "",
  "License": "Public Domain in the USA",
  "SourceURL": "https://oldpedia.org/article/ccrk/Ninian",
  "SourceFileURL": "https://archive.org/details/concisecyclopedi00sanf",
  "LocalFileURL": "https://oldpedia.org/pdf/ccrk/concisecyclopedi00sanf.pdf",
  "ShortTitle": "",
  "BookTitle": "A Concise Cyclopedia of Religious Knowledge",
  "BookTitleLong": "A Concise Cyclopedia of Religious Knowledge: Biblical, Biographical, Geographical, Historical, Practical and Theological",
  "BookEdition": "",
  "BookEditors": [
    "Elias Benjamin Sanford"
  ],
  "BookVolumeNumber": "",
  "BookPublisher": "Funk & Wagnall Company",
  "BookCopyrightDate": "1890",
  "BookPrintingDate": "1895",
  "PublicationDate": "1895",
  "CreatorNames": [
    "Elias Benjamin Sanford"
  ],
  "ContributorNames": [],
  "Rating": []
}