{
  "ZWIversion": 1.4,
  "GeneratorName": "AutoZWI",
  "Title": "Des Cartes, Ren",
  "Lang": "en",
  "Content": {
    "article.html": "1679760fb93ee1afea099f38ce5dbe0018c303d1",
    "article.txt": "74e50436d1bacfc970617b4d82dd3bc529a053c7"
  },
  "Primary": "article.html",
  "Publisher": "ccrk",
  "LastModified": "1708959418",
  "TimeCreated": "1708959418",
  "Categories": [
    "Religion",
    "Christianity"
  ],
  "Topics": [],
  "Description": "Des Cartes, Ren6, a famous French philosopher; b. at La Haye, in Touraine, March 30, 1596; d. at Stockholm, Feb. 11, 1650. He was connected with the army for a time, and during the later part of his life traveled extensively. The year before he died he made his home in Stockholm, at the invitation of Queen Christina. ",
  "Comment": "",
  "License": "Public Domain in the USA",
  "SourceURL": "https://oldpedia.org/article/ccrk/Des Cartes, Ren",
  "SourceFileURL": "https://archive.org/details/concisecyclopedi00sanf",
  "LocalFileURL": "https://oldpedia.org/pdf/ccrk/concisecyclopedi00sanf.pdf",
  "ShortTitle": "",
  "BookTitle": "A Concise Cyclopedia of Religious Knowledge",
  "BookTitleLong": "A Concise Cyclopedia of Religious Knowledge: Biblical, Biographical, Geographical, Historical, Practical and Theological",
  "BookEdition": "",
  "BookEditors": [
    "Elias Benjamin Sanford"
  ],
  "BookVolumeNumber": "",
  "BookPublisher": "Funk & Wagnall Company",
  "BookCopyrightDate": "1890",
  "BookPrintingDate": "1895",
  "PublicationDate": "1895",
  "CreatorNames": [
    "Elias Benjamin Sanford"
  ],
  "ContributorNames": [],
  "Rating": []
}