{
  "ZWIversion": 1.4,
  "GeneratorName": "AutoZWI",
  "Title": "Cummins, George David",
  "Lang": "en",
  "Content": {
    "article.html": "af3de0ec6a7ac9190720a8d1dff61d9dece2dd3d",
    "article.txt": "b86ad37a38bca554080991d703a1a0ccb6469987"
  },
  "Primary": "article.html",
  "Publisher": "ccrk",
  "LastModified": "1708959417",
  "TimeCreated": "1708959417",
  "Categories": [
    "Religion",
    "Christianity"
  ],
  "Topics": [],
  "Description": "Cummins, George David, D. D., Reformed Episcopal; b. near Smyrna, Kent Co., Del., Dec. 11, 1822; d. at Lutherville, near Baltimore, Md., June 26, 1876. After graduating at Dickinson College, Carlisle, Pa., in 1841, he first entered the ministry of the Methodist Church, but in 1845 changed to the Episcopal. After holding honored pastorates in Washing",
  "Comment": "",
  "License": "Public Domain in the USA",
  "SourceURL": "https://oldpedia.org/article/ccrk/Cummins, George David",
  "SourceFileURL": "https://archive.org/details/concisecyclopedi00sanf",
  "LocalFileURL": "https://oldpedia.org/pdf/ccrk/concisecyclopedi00sanf.pdf",
  "ShortTitle": "",
  "BookTitle": "A Concise Cyclopedia of Religious Knowledge",
  "BookTitleLong": "A Concise Cyclopedia of Religious Knowledge: Biblical, Biographical, Geographical, Historical, Practical and Theological",
  "BookEdition": "",
  "BookEditors": [
    "Elias Benjamin Sanford"
  ],
  "BookVolumeNumber": "",
  "BookPublisher": "Funk & Wagnall Company",
  "BookCopyrightDate": "1890",
  "BookPrintingDate": "1895",
  "PublicationDate": "1895",
  "CreatorNames": [
    "Elias Benjamin Sanford"
  ],
  "ContributorNames": [],
  "Rating": []
}