{
  "ZWIversion": 1.4,
  "GeneratorName": "AutoZWI",
  "Title": "Sun",
  "Lang": "en",
  "Content": {
    "article.html": "640d77a1a8115da62ab923df41663bf847a893fd",
    "article.txt": "a650d9bed958944d869971793037dd7ba7a4b833"
  },
  "Primary": "article.html",
  "Publisher": "ccrk",
  "LastModified": "1708959429",
  "TimeCreated": "1708959429",
  "Categories": [
    "Religion",
    "Christianity"
  ],
  "Topics": [],
  "Description": "Sun. “The worship of the sun was the earliest form of idolatry (Job xxxi. 26, 27); Ra was the sun-god in Egypt; On was the city of the sun-worship (Jer. xliii. 13), Heb. Beth-shemesh, * house of the sun,’ Gr. Heliopolis. Joshua’s causing the sun to stand still, phenomenally, virtually proclaimed his God, Jehovah, to be Lord of the sun and all creati",
  "Comment": "",
  "License": "Public Domain in the USA",
  "SourceURL": "https://oldpedia.org/article/ccrk/Sun",
  "SourceFileURL": "https://archive.org/details/concisecyclopedi00sanf",
  "LocalFileURL": "https://oldpedia.org/pdf/ccrk/concisecyclopedi00sanf.pdf",
  "ShortTitle": "",
  "BookTitle": "A Concise Cyclopedia of Religious Knowledge",
  "BookTitleLong": "A Concise Cyclopedia of Religious Knowledge: Biblical, Biographical, Geographical, Historical, Practical and Theological",
  "BookEdition": "",
  "BookEditors": [
    "Elias Benjamin Sanford"
  ],
  "BookVolumeNumber": "",
  "BookPublisher": "Funk & Wagnall Company",
  "BookCopyrightDate": "1890",
  "BookPrintingDate": "1895",
  "PublicationDate": "1895",
  "CreatorNames": [
    "Elias Benjamin Sanford"
  ],
  "ContributorNames": [],
  "Rating": []
}