{
  "ZWIversion": 1.4,
  "GeneratorName": "AutoZWI",
  "Title": "Immersion",
  "Lang": "en",
  "Content": {
    "article.html": "612244eeccaadc1944a97bb4a5930cc53ab5114a",
    "article.txt": "ac23f5ff41e5e14cb6eecbdb18ebe14dc12209d7"
  },
  "Primary": "article.html",
  "Publisher": "ccrk",
  "LastModified": "1708959422",
  "TimeCreated": "1708959422",
  "Categories": [
    "Religion",
    "Christianity"
  ],
  "Topics": [],
  "Description": "Immersion. See Baptism.",
  "Comment": "",
  "License": "Public Domain in the USA",
  "SourceURL": "https://oldpedia.org/article/ccrk/Immersion",
  "SourceFileURL": "https://archive.org/details/concisecyclopedi00sanf",
  "LocalFileURL": "https://oldpedia.org/pdf/ccrk/concisecyclopedi00sanf.pdf",
  "ShortTitle": "",
  "BookTitle": "A Concise Cyclopedia of Religious Knowledge",
  "BookTitleLong": "A Concise Cyclopedia of Religious Knowledge: Biblical, Biographical, Geographical, Historical, Practical and Theological",
  "BookEdition": "",
  "BookEditors": [
    "Elias Benjamin Sanford"
  ],
  "BookVolumeNumber": "",
  "BookPublisher": "Funk & Wagnall Company",
  "BookCopyrightDate": "1890",
  "BookPrintingDate": "1895",
  "PublicationDate": "1895",
  "CreatorNames": [
    "Elias Benjamin Sanford"
  ],
  "ContributorNames": [],
  "Rating": []
}