{
  "ZWIversion": 1.4,
  "GeneratorName": "AutoZWI",
  "Title": "Dunster, Henry",
  "Lang": "en",
  "Content": {
    "article.html": "db374a723c7dbd4e127ba2adf0c0c06ffb68f4a5",
    "article.txt": "6e06ee39ce01c651d4df07c6282a81092c5d5e8d"
  },
  "Primary": "article.html",
  "Publisher": "ccrk",
  "LastModified": "1708959418",
  "TimeCreated": "1708959418",
  "Categories": [
    "Religion",
    "Christianity"
  ],
  "Topics": [],
  "Description": "Dunster, Henry, first president of Harvard University: b. in England; d. at Scituate, Mass., Feb. 27, 165g. Educated at Emanuel College, Cambridge, he emigrated to New England, where he was made president of the college just established at Cambridge (1640). He discharged the duties of his office with great acceptance for fourteen years, when he beca",
  "Comment": "",
  "License": "Public Domain in the USA",
  "SourceURL": "https://oldpedia.org/article/ccrk/Dunster, Henry",
  "SourceFileURL": "https://archive.org/details/concisecyclopedi00sanf",
  "LocalFileURL": "https://oldpedia.org/pdf/ccrk/concisecyclopedi00sanf.pdf",
  "ShortTitle": "",
  "BookTitle": "A Concise Cyclopedia of Religious Knowledge",
  "BookTitleLong": "A Concise Cyclopedia of Religious Knowledge: Biblical, Biographical, Geographical, Historical, Practical and Theological",
  "BookEdition": "",
  "BookEditors": [
    "Elias Benjamin Sanford"
  ],
  "BookVolumeNumber": "",
  "BookPublisher": "Funk & Wagnall Company",
  "BookCopyrightDate": "1890",
  "BookPrintingDate": "1895",
  "PublicationDate": "1895",
  "CreatorNames": [
    "Elias Benjamin Sanford"
  ],
  "ContributorNames": [],
  "Rating": []
}