{
  "ZWIversion": 1.4,
  "GeneratorName": "AutoZWI",
  "Title": "Alexander, James Waddell",
  "Lang": "en",
  "Content": {
    "article.html": "738f187d99b4acca59690ae70ea891db31a0f4d6",
    "article.txt": "bc997f967476c56aa6d93291da533beac4896c10"
  },
  "Primary": "article.html",
  "Publisher": "ccrk",
  "LastModified": "1708959413",
  "TimeCreated": "1708959413",
  "Categories": [
    "Religion",
    "Christianity"
  ],
  "Topics": [],
  "Description": "Alexander, James Waddell, D. D., b. in Louisa County, Va., March 13, 1804; d. at the Red Sweet Springs, Va., July 31, 1859. Son of Dr. Archibald. After being graduated at Princeton he was pastor of a Presbyterian Church at Charlotte, Va., and then at Trenton, N.J.; professor of belles-lettres and Latin in Princeton College, 1833-44; ",
  "Comment": "",
  "License": "Public Domain in the USA",
  "SourceURL": "https://oldpedia.org/article/ccrk/Alexander, James Waddell",
  "SourceFileURL": "https://archive.org/details/concisecyclopedi00sanf",
  "LocalFileURL": "https://oldpedia.org/pdf/ccrk/concisecyclopedi00sanf.pdf",
  "ShortTitle": "",
  "BookTitle": "A Concise Cyclopedia of Religious Knowledge",
  "BookTitleLong": "A Concise Cyclopedia of Religious Knowledge: Biblical, Biographical, Geographical, Historical, Practical and Theological",
  "BookEdition": "",
  "BookEditors": [
    "Elias Benjamin Sanford"
  ],
  "BookVolumeNumber": "",
  "BookPublisher": "Funk & Wagnall Company",
  "BookCopyrightDate": "1890",
  "BookPrintingDate": "1895",
  "PublicationDate": "1895",
  "CreatorNames": [
    "Elias Benjamin Sanford"
  ],
  "ContributorNames": [],
  "Rating": []
}