{
  "ZWIversion": 1.4,
  "GeneratorName": "AutoZWI",
  "Title": "Pericopes",
  "Lang": "en",
  "Content": {
    "article.html": "b0c2155d294f7b3e1d6c6c76a29dbbfc52e49003",
    "article.txt": "37322bf8ce0866cf9692b8ab44edc733df282dee"
  },
  "Primary": "article.html",
  "Publisher": "ccrk",
  "LastModified": "1708959426",
  "TimeCreated": "1708959426",
  "Categories": [
    "Religion",
    "Christianity"
  ],
  "Topics": [],
  "Description": "Pericopes, portions of the New Testament to be read in the ancient Christian Church on Sunday and festivals. Some say that the selection was made as early as apostolic times, while others fix the time as the fourth century, and some as late as the eighth century. The custom corresponds with the Jewish Parashas and Maph-tarahs. ",
  "Comment": "",
  "License": "Public Domain in the USA",
  "SourceURL": "https://oldpedia.org/article/ccrk/Pericopes",
  "SourceFileURL": "https://archive.org/details/concisecyclopedi00sanf",
  "LocalFileURL": "https://oldpedia.org/pdf/ccrk/concisecyclopedi00sanf.pdf",
  "ShortTitle": "",
  "BookTitle": "A Concise Cyclopedia of Religious Knowledge",
  "BookTitleLong": "A Concise Cyclopedia of Religious Knowledge: Biblical, Biographical, Geographical, Historical, Practical and Theological",
  "BookEdition": "",
  "BookEditors": [
    "Elias Benjamin Sanford"
  ],
  "BookVolumeNumber": "",
  "BookPublisher": "Funk & Wagnall Company",
  "BookCopyrightDate": "1890",
  "BookPrintingDate": "1895",
  "PublicationDate": "1895",
  "CreatorNames": [
    "Elias Benjamin Sanford"
  ],
  "ContributorNames": [],
  "Rating": []
}