{
  "ZWIversion": 1.4,
  "GeneratorName": "AutoZWI",
  "Title": "Ernesti, Johann August",
  "Lang": "en",
  "Content": {
    "article.html": "daa78ed8e7bbb430f56ef802f4bc05321e374e1a",
    "article.txt": "5a47ee3b1748569294f03ff3dfe21aa19fe0ad4a"
  },
  "Primary": "article.html",
  "Publisher": "ccrk",
  "LastModified": "1708959419",
  "TimeCreated": "1708959419",
  "Categories": [
    "Religion",
    "Christianity"
  ],
  "Topics": [],
  "Description": "Ernesti, Johann August, the founder of the grammatico-historical school of theology and philosophy; b. at Tennstadt, in Thuringia, 1707; d. at Leipzig, in 17S1. He was professor of classical literature at Leipzig (1742), of rhetoric (1756), and of theology (175S). His principal theological work is his Institutio Interpretis N. 7\". ",
  "Comment": "",
  "License": "Public Domain in the USA",
  "SourceURL": "https://oldpedia.org/article/ccrk/Ernesti, Johann August",
  "SourceFileURL": "https://archive.org/details/concisecyclopedi00sanf",
  "LocalFileURL": "https://oldpedia.org/pdf/ccrk/concisecyclopedi00sanf.pdf",
  "ShortTitle": "",
  "BookTitle": "A Concise Cyclopedia of Religious Knowledge",
  "BookTitleLong": "A Concise Cyclopedia of Religious Knowledge: Biblical, Biographical, Geographical, Historical, Practical and Theological",
  "BookEdition": "",
  "BookEditors": [
    "Elias Benjamin Sanford"
  ],
  "BookVolumeNumber": "",
  "BookPublisher": "Funk & Wagnall Company",
  "BookCopyrightDate": "1890",
  "BookPrintingDate": "1895",
  "PublicationDate": "1895",
  "CreatorNames": [
    "Elias Benjamin Sanford"
  ],
  "ContributorNames": [],
  "Rating": []
}