{
  "ZWIversion": 1.4,
  "GeneratorName": "AutoZWI",
  "Title": "Astrology",
  "Lang": "en",
  "Content": {
    "article.html": "13798737c8c18f0f8f826289189d7a585b1bc170",
    "article.txt": "2126ccc1c306eec9cd045fc43096f200bd337e6a"
  },
  "Primary": "article.html",
  "Publisher": "ccrk",
  "LastModified": "1708959414",
  "TimeCreated": "1708959414",
  "Categories": [
    "Religion",
    "Christianity"
  ],
  "Topics": [],
  "Description": "Astrology {the science of the stars') was studied under the two departments of natural and judicial astrology. The former developed into the science of astronomy; the latter ascribed to the stars a subtle and mysterious influence upon the will. Those who taught it pretended to trace this influence in its relation to the destinies of men. ",
  "Comment": "",
  "License": "Public Domain in the USA",
  "SourceURL": "https://oldpedia.org/article/ccrk/Astrology",
  "SourceFileURL": "https://archive.org/details/concisecyclopedi00sanf",
  "LocalFileURL": "https://oldpedia.org/pdf/ccrk/concisecyclopedi00sanf.pdf",
  "ShortTitle": "",
  "BookTitle": "A Concise Cyclopedia of Religious Knowledge",
  "BookTitleLong": "A Concise Cyclopedia of Religious Knowledge: Biblical, Biographical, Geographical, Historical, Practical and Theological",
  "BookEdition": "",
  "BookEditors": [
    "Elias Benjamin Sanford"
  ],
  "BookVolumeNumber": "",
  "BookPublisher": "Funk & Wagnall Company",
  "BookCopyrightDate": "1890",
  "BookPrintingDate": "1895",
  "PublicationDate": "1895",
  "CreatorNames": [
    "Elias Benjamin Sanford"
  ],
  "ContributorNames": [],
  "Rating": []
}