{
  "ZWIversion": 1.4,
  "GeneratorName": "AutoZWI",
  "Title": "High Places",
  "Lang": "en",
  "Content": {
    "article.html": "fef2473f2cf7ac78f0058132d23acbe64ade3cab",
    "article.txt": "eeae428903fa7da7b715ba7e2f26f0177aa8f38c"
  },
  "Primary": "article.html",
  "Publisher": "ccrk",
  "LastModified": "1708959421",
  "TimeCreated": "1708959421",
  "Categories": [
    "Religion",
    "Christianity"
  ],
  "Topics": [],
  "Description": "High Places. “From the earliest times it was the custom among all nations to erect altars and places of worship on lofty and conspicuous spots. To this general custom we find constant allusion in the Bible (Isa. Ixv. 7; Jer. iii. 6; Ez. vi. 13; xviii. 6; Hos. iv. 13), and it is especially attributed to the Moabites. (Isa. xv. 2; xvi. 12; Jer. ",
  "Comment": "",
  "License": "Public Domain in the USA",
  "SourceURL": "https://oldpedia.org/article/ccrk/High Places",
  "SourceFileURL": "https://archive.org/details/concisecyclopedi00sanf",
  "LocalFileURL": "https://oldpedia.org/pdf/ccrk/concisecyclopedi00sanf.pdf",
  "ShortTitle": "",
  "BookTitle": "A Concise Cyclopedia of Religious Knowledge",
  "BookTitleLong": "A Concise Cyclopedia of Religious Knowledge: Biblical, Biographical, Geographical, Historical, Practical and Theological",
  "BookEdition": "",
  "BookEditors": [
    "Elias Benjamin Sanford"
  ],
  "BookVolumeNumber": "",
  "BookPublisher": "Funk & Wagnall Company",
  "BookCopyrightDate": "1890",
  "BookPrintingDate": "1895",
  "PublicationDate": "1895",
  "CreatorNames": [
    "Elias Benjamin Sanford"
  ],
  "ContributorNames": [],
  "Rating": []
}