{
  "ZWIversion": 1.4,
  "GeneratorName": "AutoZWI",
  "Title": "Canaan",
  "Lang": "en",
  "Content": {
    "article.html": "bff2ef3e291a9ce655001041f972ee2451db734e",
    "article.txt": "546f88a357c864d9ccf42e07b488c266e51f2b53"
  },
  "Primary": "article.html",
  "Publisher": "ccrk",
  "LastModified": "1708959415",
  "TimeCreated": "1708959415",
  "Categories": [
    "Religion",
    "Christianity"
  ],
  "Topics": [],
  "Description": "Ca'naan, the fourth son of Ham (Gen. x. 6; 1 Chron. i. 8); the progenitor of the Phoenicians (“Zidon”), and of the various nations who, before the Israelite conquest, peopled the sea-coast of Palestine, and generally the whole of the country westward of the Jordan. (Gen. x. 13; 1 Chron. i.",
  "Comment": "",
  "License": "Public Domain in the USA",
  "SourceURL": "https://oldpedia.org/article/ccrk/Canaan",
  "SourceFileURL": "https://archive.org/details/concisecyclopedi00sanf",
  "LocalFileURL": "https://oldpedia.org/pdf/ccrk/concisecyclopedi00sanf.pdf",
  "ShortTitle": "",
  "BookTitle": "A Concise Cyclopedia of Religious Knowledge",
  "BookTitleLong": "A Concise Cyclopedia of Religious Knowledge: Biblical, Biographical, Geographical, Historical, Practical and Theological",
  "BookEdition": "",
  "BookEditors": [
    "Elias Benjamin Sanford"
  ],
  "BookVolumeNumber": "",
  "BookPublisher": "Funk & Wagnall Company",
  "BookCopyrightDate": "1890",
  "BookPrintingDate": "1895",
  "PublicationDate": "1895",
  "CreatorNames": [
    "Elias Benjamin Sanford"
  ],
  "ContributorNames": [],
  "Rating": []
}