{
  "ZWIversion": 1.4,
  "GeneratorName": "AutoZWI",
  "Title": "Johnson, Herrick",
  "Lang": "en",
  "Content": {
    "article.html": "aea6f263b1edb437d6ba8ef99b4acc422c7080c2",
    "article.txt": "22a6579b2f22a0fa21da0ee5ddeb4419302ec4de"
  },
  "Primary": "article.html",
  "Publisher": "ccrk",
  "LastModified": "1708959422",
  "TimeCreated": "1708959422",
  "Categories": [
    "Religion",
    "Christianity"
  ],
  "Topics": [],
  "Description": "Johnson, Herrick, D. D. (Western Re serve College, Hudson, O., 1867), LL. D. (Wooster University, Wooster, O., 1880), Presbyterian; b. near Fonda, Montgomery Co., N. Y., Sept. 21, 1832; was graduated at Hamilton College, Clinton, N. Y., 1857, and at Auburn (N. Y.) Theological Seminary, i860. He was pastor at Troy, N. Y., 1860-62; ",
  "Comment": "",
  "License": "Public Domain in the USA",
  "SourceURL": "https://oldpedia.org/article/ccrk/Johnson, Herrick",
  "SourceFileURL": "https://archive.org/details/concisecyclopedi00sanf",
  "LocalFileURL": "https://oldpedia.org/pdf/ccrk/concisecyclopedi00sanf.pdf",
  "ShortTitle": "",
  "BookTitle": "A Concise Cyclopedia of Religious Knowledge",
  "BookTitleLong": "A Concise Cyclopedia of Religious Knowledge: Biblical, Biographical, Geographical, Historical, Practical and Theological",
  "BookEdition": "",
  "BookEditors": [
    "Elias Benjamin Sanford"
  ],
  "BookVolumeNumber": "",
  "BookPublisher": "Funk & Wagnall Company",
  "BookCopyrightDate": "1890",
  "BookPrintingDate": "1895",
  "PublicationDate": "1895",
  "CreatorNames": [
    "Elias Benjamin Sanford"
  ],
  "ContributorNames": [],
  "Rating": []
}