{
  "ZWIversion": 1.4,
  "GeneratorName": "AutoZWI",
  "Title": "Sebastian, an early Christian martyr",
  "Lang": "en",
  "Content": {
    "article.html": "e2650646e4b813c79537a3e195e4cb848eb1721c",
    "article.txt": "069c15b2d4c3f152d9f7c7b1284b256af0fc746e"
  },
  "Primary": "article.html",
  "Publisher": "ccrk",
  "LastModified": "1708959428",
  "TimeCreated": "1708959428",
  "Categories": [
    "Religion",
    "Christianity"
  ],
  "Topics": [],
  "Description": "Sebastian, an early Christian martyr; b. at Narbonne, in Gaul, 255; d. in Rome, 288. In order that he might render more efficient service to the Christians he concealed his faith when entering the ranks of the army of Diocletian. He rose to high rank, and when he avowed himself a Christian the emperor did all in his power to induce him to recant. ",
  "Comment": "",
  "License": "Public Domain in the USA",
  "SourceURL": "https://oldpedia.org/article/ccrk/Sebastian, an early Christian martyr",
  "SourceFileURL": "https://archive.org/details/concisecyclopedi00sanf",
  "LocalFileURL": "https://oldpedia.org/pdf/ccrk/concisecyclopedi00sanf.pdf",
  "ShortTitle": "",
  "BookTitle": "A Concise Cyclopedia of Religious Knowledge",
  "BookTitleLong": "A Concise Cyclopedia of Religious Knowledge: Biblical, Biographical, Geographical, Historical, Practical and Theological",
  "BookEdition": "",
  "BookEditors": [
    "Elias Benjamin Sanford"
  ],
  "BookVolumeNumber": "",
  "BookPublisher": "Funk & Wagnall Company",
  "BookCopyrightDate": "1890",
  "BookPrintingDate": "1895",
  "PublicationDate": "1895",
  "CreatorNames": [
    "Elias Benjamin Sanford"
  ],
  "ContributorNames": [],
  "Rating": []
}