{
  "ZWIversion": 1.4,
  "GeneratorName": "AutoZWI",
  "Title": "Zinzendorf",
  "Lang": "en",
  "Content": {
    "article.html": "56e5c7fb33e5972fa2b80e9e31629c4afcc600b4",
    "article.txt": "aad9515c74a26723b83f11e0f122c1c117b19a18"
  },
  "Primary": "article.html",
  "Publisher": "ccrk",
  "LastModified": "1708959430",
  "TimeCreated": "1708959430",
  "Categories": [
    "Religion",
    "Christianity"
  ],
  "Topics": [],
  "Description": "Zinzendorf, Nicolaus Ludwig, Count von, “the founder of the existing sect of the Moravian Brethren, or Herrnhuters, was b. at Dresden, May 26, 1700. His father, a Saxon state minister, dying while Zinzendorf was a child, the latter was educated by his grandmother, a learned and pious lady, the Baroness von Gersdorf. ",
  "Comment": "",
  "License": "Public Domain in the USA",
  "SourceURL": "https://oldpedia.org/article/ccrk/Zinzendorf",
  "SourceFileURL": "https://archive.org/details/concisecyclopedi00sanf",
  "LocalFileURL": "https://oldpedia.org/pdf/ccrk/concisecyclopedi00sanf.pdf",
  "ShortTitle": "",
  "BookTitle": "A Concise Cyclopedia of Religious Knowledge",
  "BookTitleLong": "A Concise Cyclopedia of Religious Knowledge: Biblical, Biographical, Geographical, Historical, Practical and Theological",
  "BookEdition": "",
  "BookEditors": [
    "Elias Benjamin Sanford"
  ],
  "BookVolumeNumber": "",
  "BookPublisher": "Funk & Wagnall Company",
  "BookCopyrightDate": "1890",
  "BookPrintingDate": "1895",
  "PublicationDate": "1895",
  "CreatorNames": [
    "Elias Benjamin Sanford"
  ],
  "ContributorNames": [],
  "Rating": []
}