{
  "ZWIversion": 1.4,
  "GeneratorName": "AutoZWI",
  "Title": "Jehu",
  "Lang": "en",
  "Content": {
    "article.html": "c8e66f83b90f251fac0361486e38e8065c19d97b",
    "article.txt": "d95a25bc44fc6c7da6785943fbe9a1b88a8ba268"
  },
  "Primary": "article.html",
  "Publisher": "ccrk",
  "LastModified": "1708959422",
  "TimeCreated": "1708959422",
  "Categories": [
    "Religion",
    "Christianity"
  ],
  "Topics": [],
  "Description": "Je'hu, anointed king of Israel (2 Kings ix. 6) by a messenger sent by Elisha, in accord with directions previously given by Elijah; he was the divinely used instrument in the destruction of the house of Ahab. Setting out in his chariot for Jezreel he was met by messengers from Joram, sent to ascertain his designs. ",
  "Comment": "",
  "License": "Public Domain in the USA",
  "SourceURL": "https://oldpedia.org/article/ccrk/Jehu",
  "SourceFileURL": "https://archive.org/details/concisecyclopedi00sanf",
  "LocalFileURL": "https://oldpedia.org/pdf/ccrk/concisecyclopedi00sanf.pdf",
  "ShortTitle": "",
  "BookTitle": "A Concise Cyclopedia of Religious Knowledge",
  "BookTitleLong": "A Concise Cyclopedia of Religious Knowledge: Biblical, Biographical, Geographical, Historical, Practical and Theological",
  "BookEdition": "",
  "BookEditors": [
    "Elias Benjamin Sanford"
  ],
  "BookVolumeNumber": "",
  "BookPublisher": "Funk & Wagnall Company",
  "BookCopyrightDate": "1890",
  "BookPrintingDate": "1895",
  "PublicationDate": "1895",
  "CreatorNames": [
    "Elias Benjamin Sanford"
  ],
  "ContributorNames": [],
  "Rating": []
}