{
  "ZWIversion": 1.4,
  "GeneratorName": "AutoZWI",
  "Title": "Writing",
  "Lang": "en",
  "Content": {
    "article.html": "8a113d9eb2ce88f17a223d48db307362c06fb062",
    "article.txt": "f60f8308569d4e57b902e1c5e558f65040852efe"
  },
  "Primary": "article.html",
  "Publisher": "ccrk",
  "LastModified": "1708959430",
  "TimeCreated": "1708959430",
  "Categories": [
    "Religion",
    "Christianity"
  ],
  "Topics": [],
  "Description": "Writing among the Hebrews. “Not only did the Israelites learn from Egypt the art of writing, but also borrowed thence, as it would seem, nearly all the requisites for its practice. There are two expressions in the Bible for pen, both of which carry etymologically the idea of a graving-in-strument. (Ex. xxxii. 4; Isa. viii. ",
  "Comment": "",
  "License": "Public Domain in the USA",
  "SourceURL": "https://oldpedia.org/article/ccrk/Writing",
  "SourceFileURL": "https://archive.org/details/concisecyclopedi00sanf",
  "LocalFileURL": "https://oldpedia.org/pdf/ccrk/concisecyclopedi00sanf.pdf",
  "ShortTitle": "",
  "BookTitle": "A Concise Cyclopedia of Religious Knowledge",
  "BookTitleLong": "A Concise Cyclopedia of Religious Knowledge: Biblical, Biographical, Geographical, Historical, Practical and Theological",
  "BookEdition": "",
  "BookEditors": [
    "Elias Benjamin Sanford"
  ],
  "BookVolumeNumber": "",
  "BookPublisher": "Funk & Wagnall Company",
  "BookCopyrightDate": "1890",
  "BookPrintingDate": "1895",
  "PublicationDate": "1895",
  "CreatorNames": [
    "Elias Benjamin Sanford"
  ],
  "ContributorNames": [],
  "Rating": []
}