{
  "ZWIversion": 1.4,
  "GeneratorName": "AutoZWI",
  "Title": "Lanfranc, archbishop of Canterbury",
  "Lang": "en",
  "Content": {
    "article.html": "60d46e38076ba23b36cc0a9be7ec34f138b07ec1",
    "article.txt": "7f06c8064569daf45c3ad13706af70e12d43ad96"
  },
  "Primary": "article.html",
  "Publisher": "ccrk",
  "LastModified": "1708959423",
  "TimeCreated": "1708959423",
  "Categories": [
    "Religion",
    "Christianity"
  ],
  "Topics": [],
  "Description": "Lanfranc, archbishop of Canterbury; b. at Pavia, in Italy, 1005; d. at Canterbury, May 28, 1089. He was Prior of the Abbey of Bec, and afterwards of Caen in Normandy, and came to England with William the Conqueror, by whom he was appointed archbishop. Canterbury Cathedral was rebuilt through his efforts and he was very active in founding hospitals a",
  "Comment": "",
  "License": "Public Domain in the USA",
  "SourceURL": "https://oldpedia.org/article/ccrk/Lanfranc, archbishop of Canterbury",
  "SourceFileURL": "https://archive.org/details/concisecyclopedi00sanf",
  "LocalFileURL": "https://oldpedia.org/pdf/ccrk/concisecyclopedi00sanf.pdf",
  "ShortTitle": "",
  "BookTitle": "A Concise Cyclopedia of Religious Knowledge",
  "BookTitleLong": "A Concise Cyclopedia of Religious Knowledge: Biblical, Biographical, Geographical, Historical, Practical and Theological",
  "BookEdition": "",
  "BookEditors": [
    "Elias Benjamin Sanford"
  ],
  "BookVolumeNumber": "",
  "BookPublisher": "Funk & Wagnall Company",
  "BookCopyrightDate": "1890",
  "BookPrintingDate": "1895",
  "PublicationDate": "1895",
  "CreatorNames": [
    "Elias Benjamin Sanford"
  ],
  "ContributorNames": [],
  "Rating": []
}