{
  "ZWIversion": 1.4,
  "GeneratorName": "AutoZWI",
  "Title": "Manton, Thomas",
  "Lang": "en",
  "Content": {
    "article.html": "3eebaae11e83662d3f0d2f8ec85bc966bc3b46fd",
    "article.txt": "6c110b4bc5401cc0d4dd778edfd49175de8d203f"
  },
  "Primary": "article.html",
  "Publisher": "ccrk",
  "LastModified": "1708959424",
  "TimeCreated": "1708959424",
  "Categories": [
    "Religion",
    "Christianity"
  ],
  "Topics": [],
  "Description": "Manton, Thomas, a distinguished Nonconformist; b. in Somersetshire, 1620; d. in London, Oct. 18, 1677. He was educated at Oxford, and was first settled at Stoke Newington, near London. He was one of Cromwell’s chaplains, and preached frequently before the Parliament. Favoring the Restoration he became one of Charles II.’s chaplains, and took part in",
  "Comment": "",
  "License": "Public Domain in the USA",
  "SourceURL": "https://oldpedia.org/article/ccrk/Manton, Thomas",
  "SourceFileURL": "https://archive.org/details/concisecyclopedi00sanf",
  "LocalFileURL": "https://oldpedia.org/pdf/ccrk/concisecyclopedi00sanf.pdf",
  "ShortTitle": "",
  "BookTitle": "A Concise Cyclopedia of Religious Knowledge",
  "BookTitleLong": "A Concise Cyclopedia of Religious Knowledge: Biblical, Biographical, Geographical, Historical, Practical and Theological",
  "BookEdition": "",
  "BookEditors": [
    "Elias Benjamin Sanford"
  ],
  "BookVolumeNumber": "",
  "BookPublisher": "Funk & Wagnall Company",
  "BookCopyrightDate": "1890",
  "BookPrintingDate": "1895",
  "PublicationDate": "1895",
  "CreatorNames": [
    "Elias Benjamin Sanford"
  ],
  "ContributorNames": [],
  "Rating": []
}