{
  "ZWIversion": 1.4,
  "GeneratorName": "AutoZWI",
  "Title": "Immanuel",
  "Lang": "en",
  "Content": {
    "article.html": "f45ab11196cabda62a12ab16589c382b9a28ce56",
    "article.txt": "b1d63084c90bde601e8270eb152558bcbf1751a3"
  },
  "Primary": "article.html",
  "Publisher": "ccrk",
  "LastModified": "1708959422",
  "TimeCreated": "1708959422",
  "Categories": [
    "Religion",
    "Christianity"
  ],
  "Topics": [],
  "Description": "Imman'uel, a Hebrew word signifying God with as. It is used as a distinctive title of the Messiah. (Isa. vii. 14; Matt. i. 23.) See Christ.",
  "Comment": "",
  "License": "Public Domain in the USA",
  "SourceURL": "https://oldpedia.org/article/ccrk/Immanuel",
  "SourceFileURL": "https://archive.org/details/concisecyclopedi00sanf",
  "LocalFileURL": "https://oldpedia.org/pdf/ccrk/concisecyclopedi00sanf.pdf",
  "ShortTitle": "",
  "BookTitle": "A Concise Cyclopedia of Religious Knowledge",
  "BookTitleLong": "A Concise Cyclopedia of Religious Knowledge: Biblical, Biographical, Geographical, Historical, Practical and Theological",
  "BookEdition": "",
  "BookEditors": [
    "Elias Benjamin Sanford"
  ],
  "BookVolumeNumber": "",
  "BookPublisher": "Funk & Wagnall Company",
  "BookCopyrightDate": "1890",
  "BookPrintingDate": "1895",
  "PublicationDate": "1895",
  "CreatorNames": [
    "Elias Benjamin Sanford"
  ],
  "ContributorNames": [],
  "Rating": []
}