{
  "ZWIversion": 1.4,
  "GeneratorName": "AutoZWI",
  "Title": "Columba",
  "Lang": "en",
  "Content": {
    "article.html": "fc9bd542e5d9fe48fd7dbca1dad2064918f0836b",
    "article.txt": "783b9ae25a502ee267c6d1cf09712787ef6d926f"
  },
  "Primary": "article.html",
  "Publisher": "ccrk",
  "LastModified": "1708959417",
  "TimeCreated": "1708959417",
  "Categories": [
    "Religion",
    "Christianity"
  ],
  "Topics": [],
  "Description": "Columba, St., a remarkable Irish missionary; b. in County Donegal, 521; d. at Iona, 597. He is best known as “The Apostle of the Picts, or the Western Isles.” With almost incredible zeal he prosecuted his work of propagating the Christian faith in Ireland and Caledonia, and made converts in great numbers. He founded many religious houses that were s",
  "Comment": "",
  "License": "Public Domain in the USA",
  "SourceURL": "https://oldpedia.org/article/ccrk/Columba",
  "SourceFileURL": "https://archive.org/details/concisecyclopedi00sanf",
  "LocalFileURL": "https://oldpedia.org/pdf/ccrk/concisecyclopedi00sanf.pdf",
  "ShortTitle": "",
  "BookTitle": "A Concise Cyclopedia of Religious Knowledge",
  "BookTitleLong": "A Concise Cyclopedia of Religious Knowledge: Biblical, Biographical, Geographical, Historical, Practical and Theological",
  "BookEdition": "",
  "BookEditors": [
    "Elias Benjamin Sanford"
  ],
  "BookVolumeNumber": "",
  "BookPublisher": "Funk & Wagnall Company",
  "BookCopyrightDate": "1890",
  "BookPrintingDate": "1895",
  "PublicationDate": "1895",
  "CreatorNames": [
    "Elias Benjamin Sanford"
  ],
  "ContributorNames": [],
  "Rating": []
}