{
  "ZWIversion": 1.4,
  "GeneratorName": "AutoZWI",
  "Title": "Easter",
  "Lang": "en",
  "Content": {
    "article.html": "6bb1194abfc81da4d15d09b1896e0003915920c2",
    "article.txt": "c37ed0186528ba8e8c437c669e3ce68bf5c57e04"
  },
  "Primary": "article.html",
  "Publisher": "ccrk",
  "LastModified": "1708959418",
  "TimeCreated": "1708959418",
  "Categories": [
    "Religion",
    "Christianity"
  ],
  "Topics": [],
  "Description": "Easter, the greatest festival of Christendom, observed in commemoration of the Resurrection of our Lord Jesus Christ. According to Bede, the name is derived from Eostre, a Saxon goddess, whose festival was celebrated in the spring, from whence April was called Eostur-monath. Its ancient name was Pascha (i. e., Passover), the “Pascha of the Resurrect",
  "Comment": "",
  "License": "Public Domain in the USA",
  "SourceURL": "https://oldpedia.org/article/ccrk/Easter",
  "SourceFileURL": "https://archive.org/details/concisecyclopedi00sanf",
  "LocalFileURL": "https://oldpedia.org/pdf/ccrk/concisecyclopedi00sanf.pdf",
  "ShortTitle": "",
  "BookTitle": "A Concise Cyclopedia of Religious Knowledge",
  "BookTitleLong": "A Concise Cyclopedia of Religious Knowledge: Biblical, Biographical, Geographical, Historical, Practical and Theological",
  "BookEdition": "",
  "BookEditors": [
    "Elias Benjamin Sanford"
  ],
  "BookVolumeNumber": "",
  "BookPublisher": "Funk & Wagnall Company",
  "BookCopyrightDate": "1890",
  "BookPrintingDate": "1895",
  "PublicationDate": "1895",
  "CreatorNames": [
    "Elias Benjamin Sanford"
  ],
  "ContributorNames": [],
  "Rating": []
}