{
  "ZWIversion": 1.4,
  "GeneratorName": "AutoZWI",
  "Title": "Titus",
  "Lang": "en",
  "Content": {
    "article.html": "e8f40191011a7b0d9c716b5ce4c4273e766c9392",
    "article.txt": "2aa9e96aeabff9d8bcd44d63b2d9075240590c5a"
  },
  "Primary": "article.html",
  "Publisher": "ccrk",
  "LastModified": "1708959429",
  "TimeCreated": "1708959429",
  "Categories": [
    "Religion",
    "Christianity"
  ],
  "Topics": [],
  "Description": "Ti'tus, the “fellow-helper” of Paul, a Gentile (Gal. ii. 3), was probably one of Paul’s converts (Tit. i. 4), but was never circumcised. (Gal. ii. 3.) Titus was the companion of Paul in many of his missionary journeys (2 Cor. viii. 6, 16, 23), and was with him in his second Roman imprisonment. (2 Tim. iv. 10.) According to tradition Titus died as bi",
  "Comment": "",
  "License": "Public Domain in the USA",
  "SourceURL": "https://oldpedia.org/article/ccrk/Titus",
  "SourceFileURL": "https://archive.org/details/concisecyclopedi00sanf",
  "LocalFileURL": "https://oldpedia.org/pdf/ccrk/concisecyclopedi00sanf.pdf",
  "ShortTitle": "",
  "BookTitle": "A Concise Cyclopedia of Religious Knowledge",
  "BookTitleLong": "A Concise Cyclopedia of Religious Knowledge: Biblical, Biographical, Geographical, Historical, Practical and Theological",
  "BookEdition": "",
  "BookEditors": [
    "Elias Benjamin Sanford"
  ],
  "BookVolumeNumber": "",
  "BookPublisher": "Funk & Wagnall Company",
  "BookCopyrightDate": "1890",
  "BookPrintingDate": "1895",
  "PublicationDate": "1895",
  "CreatorNames": [
    "Elias Benjamin Sanford"
  ],
  "ContributorNames": [],
  "Rating": []
}