{
  "ZWIversion": 1.4,
  "GeneratorName": "AutoZWI",
  "Title": "John, the First Epistle General of",
  "Lang": "en",
  "Content": {
    "article.html": "e8c066e289dbf425e35a31275cf53b484f3ca0f1",
    "article.txt": "208a4f08be3bea10af1efcfd39241f16ada57aa9"
  },
  "Primary": "article.html",
  "Publisher": "ccrk",
  "LastModified": "1708959422",
  "TimeCreated": "1708959422",
  "Categories": [
    "Religion",
    "Christianity"
  ],
  "Topics": [],
  "Description": "John, the First Epistle General of. “Its Authenticity.—The external evidence is of the most satisfactory nature. Eusebius places it in his list of ‘ acknowledged ’ books, and we have ample proof that it was received as the production of the apostle John in the writings of Polycarp, Papias, Irenaeus, Origen, Clement of Alexandria, Tertullian, Cyprian",
  "Comment": "",
  "License": "Public Domain in the USA",
  "SourceURL": "https://oldpedia.org/article/ccrk/John, the First Epistle General of",
  "SourceFileURL": "https://archive.org/details/concisecyclopedi00sanf",
  "LocalFileURL": "https://oldpedia.org/pdf/ccrk/concisecyclopedi00sanf.pdf",
  "ShortTitle": "",
  "BookTitle": "A Concise Cyclopedia of Religious Knowledge",
  "BookTitleLong": "A Concise Cyclopedia of Religious Knowledge: Biblical, Biographical, Geographical, Historical, Practical and Theological",
  "BookEdition": "",
  "BookEditors": [
    "Elias Benjamin Sanford"
  ],
  "BookVolumeNumber": "",
  "BookPublisher": "Funk & Wagnall Company",
  "BookCopyrightDate": "1890",
  "BookPrintingDate": "1895",
  "PublicationDate": "1895",
  "CreatorNames": [
    "Elias Benjamin Sanford"
  ],
  "ContributorNames": [],
  "Rating": []
}