{
  "ZWIversion": 1.4,
  "GeneratorName": "AutoZWI",
  "Title": "Jewish",
  "Lang": "en",
  "Content": {
    "article.html": "6f39e18d62dd7529e2e2b0f05e1504bb16a296ce",
    "article.txt": "a4a5f69aa7837ef2c8906743b13945e76eef8fca"
  },
  "Primary": "article.html",
  "Publisher": "ccrk",
  "LastModified": "1708959422",
  "TimeCreated": "1708959422",
  "Categories": [
    "Religion",
    "Christianity"
  ],
  "Topics": [],
  "Description": "Jewish Christians, Judaizers. When Gentile Christian churches were organized, the hatred of the unconverted Israelites increased, and the question of the real relation of Judaism to Christianity claimed discussion. This caused a split among the Jewish Christians. Some of them maintained that the whole Law was binding upon the converted heathen; ",
  "Comment": "",
  "License": "Public Domain in the USA",
  "SourceURL": "https://oldpedia.org/article/ccrk/Jewish",
  "SourceFileURL": "https://archive.org/details/concisecyclopedi00sanf",
  "LocalFileURL": "https://oldpedia.org/pdf/ccrk/concisecyclopedi00sanf.pdf",
  "ShortTitle": "",
  "BookTitle": "A Concise Cyclopedia of Religious Knowledge",
  "BookTitleLong": "A Concise Cyclopedia of Religious Knowledge: Biblical, Biographical, Geographical, Historical, Practical and Theological",
  "BookEdition": "",
  "BookEditors": [
    "Elias Benjamin Sanford"
  ],
  "BookVolumeNumber": "",
  "BookPublisher": "Funk & Wagnall Company",
  "BookCopyrightDate": "1890",
  "BookPrintingDate": "1895",
  "PublicationDate": "1895",
  "CreatorNames": [
    "Elias Benjamin Sanford"
  ],
  "ContributorNames": [],
  "Rating": []
}