{
  "ZWIversion": 1.4,
  "GeneratorName": "AutoZWI",
  "Title": "Bacon, Roger",
  "Lang": "en",
  "Content": {
    "article.html": "442811ca4bae9e4a6dd0d71ccd55da22a86693ff",
    "article.txt": "ed8ba52cd805022c74ae99559c2398526d10cd56"
  },
  "Primary": "article.html",
  "Publisher": "ccrk",
  "LastModified": "1708959414",
  "TimeCreated": "1708959414",
  "Categories": [
    "Religion",
    "Christianity"
  ],
  "Topics": [],
  "Description": "Bacon, Roger, an English monk, whose marvelous discoveries in several sciences added much to the then scanty knowledge of nature; b. in Somersetshire, in 1214; d. at Oxford, 1294. His great knowledge and inventive genius aroused the jealousy and hate of his brother monks, and he suffered persecution and imprisonment. ",
  "Comment": "",
  "License": "Public Domain in the USA",
  "SourceURL": "https://oldpedia.org/article/ccrk/Bacon, Roger",
  "SourceFileURL": "https://archive.org/details/concisecyclopedi00sanf",
  "LocalFileURL": "https://oldpedia.org/pdf/ccrk/concisecyclopedi00sanf.pdf",
  "ShortTitle": "",
  "BookTitle": "A Concise Cyclopedia of Religious Knowledge",
  "BookTitleLong": "A Concise Cyclopedia of Religious Knowledge: Biblical, Biographical, Geographical, Historical, Practical and Theological",
  "BookEdition": "",
  "BookEditors": [
    "Elias Benjamin Sanford"
  ],
  "BookVolumeNumber": "",
  "BookPublisher": "Funk & Wagnall Company",
  "BookCopyrightDate": "1890",
  "BookPrintingDate": "1895",
  "PublicationDate": "1895",
  "CreatorNames": [
    "Elias Benjamin Sanford"
  ],
  "ContributorNames": [],
  "Rating": []
}