{
  "ZWIversion": 1.4,
  "GeneratorName": "AutoZWI",
  "Title": "Retreats",
  "Lang": "en",
  "Content": {
    "article.html": "6689ef0ead77108a36a0d8877c02ac43d527f711",
    "article.txt": "469ccfa871f0cc73aa68d49e80f201a657ac92f7"
  },
  "Primary": "article.html",
  "Publisher": "ccrk",
  "LastModified": "1708959427",
  "TimeCreated": "1708959427",
  "Categories": [
    "Religion",
    "Christianity"
  ],
  "Topics": [],
  "Description": "Retreats is a term denoting the time in which members in the Roman and Anglican Churches seek special retirement for spiritual meditation and prayer. For a long period it has been customary for members of religious communities in the Roman Church to go into retreat some time each year, and a series of “Exercises” for use on such occasions were prepa",
  "Comment": "",
  "License": "Public Domain in the USA",
  "SourceURL": "https://oldpedia.org/article/ccrk/Retreats",
  "SourceFileURL": "https://archive.org/details/concisecyclopedi00sanf",
  "LocalFileURL": "https://oldpedia.org/pdf/ccrk/concisecyclopedi00sanf.pdf",
  "ShortTitle": "",
  "BookTitle": "A Concise Cyclopedia of Religious Knowledge",
  "BookTitleLong": "A Concise Cyclopedia of Religious Knowledge: Biblical, Biographical, Geographical, Historical, Practical and Theological",
  "BookEdition": "",
  "BookEditors": [
    "Elias Benjamin Sanford"
  ],
  "BookVolumeNumber": "",
  "BookPublisher": "Funk & Wagnall Company",
  "BookCopyrightDate": "1890",
  "BookPrintingDate": "1895",
  "PublicationDate": "1895",
  "CreatorNames": [
    "Elias Benjamin Sanford"
  ],
  "ContributorNames": [],
  "Rating": []
}