{
  "ZWIversion": 1.4,
  "GeneratorName": "AutoZWI",
  "Title": "Tunkers",
  "Lang": "en",
  "Content": {
    "article.html": "f67be9c877fc377376e82f183aaf8970d6b28b8c",
    "article.txt": "128fecd49af898a5fde605509db4f8f8fddc6331"
  },
  "Primary": "article.html",
  "Publisher": "ccrk",
  "LastModified": "1708959429",
  "TimeCreated": "1708959429",
  "Categories": [
    "Religion",
    "Christianity"
  ],
  "Topics": [],
  "Description": "Tunkers. See Dunkers.",
  "Comment": "",
  "License": "Public Domain in the USA",
  "SourceURL": "https://oldpedia.org/article/ccrk/Tunkers",
  "SourceFileURL": "https://archive.org/details/concisecyclopedi00sanf",
  "LocalFileURL": "https://oldpedia.org/pdf/ccrk/concisecyclopedi00sanf.pdf",
  "ShortTitle": "",
  "BookTitle": "A Concise Cyclopedia of Religious Knowledge",
  "BookTitleLong": "A Concise Cyclopedia of Religious Knowledge: Biblical, Biographical, Geographical, Historical, Practical and Theological",
  "BookEdition": "",
  "BookEditors": [
    "Elias Benjamin Sanford"
  ],
  "BookVolumeNumber": "",
  "BookPublisher": "Funk & Wagnall Company",
  "BookCopyrightDate": "1890",
  "BookPrintingDate": "1895",
  "PublicationDate": "1895",
  "CreatorNames": [
    "Elias Benjamin Sanford"
  ],
  "ContributorNames": [],
  "Rating": []
}