{
  "ZWIversion": 1.4,
  "GeneratorName": "AutoZWI",
  "Title": "Fish. The Fish",
  "Lang": "en",
  "Content": {
    "article.html": "ed166bafde6e8058054ed2387b39a8c69e92693e",
    "article.txt": "22d7aed6fc68bb6bd97100481bf2ab6045192b3e"
  },
  "Primary": "article.html",
  "Publisher": "ccrk",
  "LastModified": "1708959419",
  "TimeCreated": "1708959419",
  "Categories": [
    "Religion",
    "Christianity"
  ],
  "Topics": [],
  "Description": "Fish. The Fish is a symbol of almost universal occurrence in the painting and sculpture of the primitive Church. Like the Dove or the Lamb, it is used in more than one sense; and its non-scriptural or an-agrammatic meaning is, perhaps, the most popular at the present day. The Greek ichthys, “a fish,” is formed from the initials of the words, lesus C",
  "Comment": "",
  "License": "Public Domain in the USA",
  "SourceURL": "https://oldpedia.org/article/ccrk/Fish. The Fish",
  "SourceFileURL": "https://archive.org/details/concisecyclopedi00sanf",
  "LocalFileURL": "https://oldpedia.org/pdf/ccrk/concisecyclopedi00sanf.pdf",
  "ShortTitle": "",
  "BookTitle": "A Concise Cyclopedia of Religious Knowledge",
  "BookTitleLong": "A Concise Cyclopedia of Religious Knowledge: Biblical, Biographical, Geographical, Historical, Practical and Theological",
  "BookEdition": "",
  "BookEditors": [
    "Elias Benjamin Sanford"
  ],
  "BookVolumeNumber": "",
  "BookPublisher": "Funk & Wagnall Company",
  "BookCopyrightDate": "1890",
  "BookPrintingDate": "1895",
  "PublicationDate": "1895",
  "CreatorNames": [
    "Elias Benjamin Sanford"
  ],
  "ContributorNames": [],
  "Rating": []
}