{
  "ZWIversion": 1.4,
  "GeneratorName": "AutoZWI",
  "Title": "Evangelical Union",
  "Lang": "en",
  "Content": {
    "article.html": "49b633e06a1ac462897b06939b0b70174f3ba1dd",
    "article.txt": "5c9c9dd9bcc68d423e0b9dc94c68d3cacbf64c7a"
  },
  "Primary": "article.html",
  "Publisher": "ccrk",
  "LastModified": "1708959419",
  "TimeCreated": "1708959419",
  "Categories": [
    "Religion",
    "Christianity"
  ],
  "Topics": [],
  "Description": "Evangelical Union. In 1841, the Rev. James Morison, a minister of the United Secession Church, was deposed for holding an-ti-Calvinistic views regarding faith, the work of the Holy Spirit in salvation, and the extent of the atonement. His father and two other ministers having been deposed for holding similar views, they formed the Evangelical Union.",
  "Comment": "",
  "License": "Public Domain in the USA",
  "SourceURL": "https://oldpedia.org/article/ccrk/Evangelical Union",
  "SourceFileURL": "https://archive.org/details/concisecyclopedi00sanf",
  "LocalFileURL": "https://oldpedia.org/pdf/ccrk/concisecyclopedi00sanf.pdf",
  "ShortTitle": "",
  "BookTitle": "A Concise Cyclopedia of Religious Knowledge",
  "BookTitleLong": "A Concise Cyclopedia of Religious Knowledge: Biblical, Biographical, Geographical, Historical, Practical and Theological",
  "BookEdition": "",
  "BookEditors": [
    "Elias Benjamin Sanford"
  ],
  "BookVolumeNumber": "",
  "BookPublisher": "Funk & Wagnall Company",
  "BookCopyrightDate": "1890",
  "BookPrintingDate": "1895",
  "PublicationDate": "1895",
  "CreatorNames": [
    "Elias Benjamin Sanford"
  ],
  "ContributorNames": [],
  "Rating": []
}