{
  "ZWIversion": 1.4,
  "GeneratorName": "AutoZWI",
  "Title": "Hamath",
  "Lang": "en",
  "Content": {
    "article.html": "786e9eb46bf759af74a40f734c83e0c38e1e6b76",
    "article.txt": "25d153dd2586f55822ffa1bc520b726fb16b8aa1"
  },
  "Primary": "article.html",
  "Publisher": "ccrk",
  "LastModified": "1708959420",
  "TimeCreated": "1708959420",
  "Categories": [
    "Religion",
    "Christianity"
  ],
  "Topics": [],
  "Description": "Ha'math (fortress), a city and province of Upper Syria. It was originally a Canaanite colony (Gen. x. iS), but was afterward taken by the Syrians. In the time of Hezekiah it was captured by the Assyrians (2 Kings xiv. 25-28), and “men from Hamath” -were settled there in place of the Israelites. During the Middle Ages it was the capital of an indepen",
  "Comment": "",
  "License": "Public Domain in the USA",
  "SourceURL": "https://oldpedia.org/article/ccrk/Hamath",
  "SourceFileURL": "https://archive.org/details/concisecyclopedi00sanf",
  "LocalFileURL": "https://oldpedia.org/pdf/ccrk/concisecyclopedi00sanf.pdf",
  "ShortTitle": "",
  "BookTitle": "A Concise Cyclopedia of Religious Knowledge",
  "BookTitleLong": "A Concise Cyclopedia of Religious Knowledge: Biblical, Biographical, Geographical, Historical, Practical and Theological",
  "BookEdition": "",
  "BookEditors": [
    "Elias Benjamin Sanford"
  ],
  "BookVolumeNumber": "",
  "BookPublisher": "Funk & Wagnall Company",
  "BookCopyrightDate": "1890",
  "BookPrintingDate": "1895",
  "PublicationDate": "1895",
  "CreatorNames": [
    "Elias Benjamin Sanford"
  ],
  "ContributorNames": [],
  "Rating": []
}