{
  "ZWIversion": 1.4,
  "GeneratorName": "AutoZWI",
  "Title": "Paine, Robert",
  "Lang": "en",
  "Content": {
    "article.html": "ac9f0060aed72c80d0aba1f261f70b6f68228bfd",
    "article.txt": "c76595ca7a65522f83eacefda1e09f26d2ea76ad"
  },
  "Primary": "article.html",
  "Publisher": "ccrk",
  "LastModified": "1708959425",
  "TimeCreated": "1708959425",
  "Categories": [
    "Religion",
    "Christianity"
  ],
  "Topics": [],
  "Description": "Paine, Robert, D. D., a distinguished bishop of the Methodist Episcopal Church, South; b. in Person County, N. C., Nov. 12, 1799; d. at Aberdeen, Miss., Oct. 19, 1882. Making the best use of limited educational advantages, he was licensed to preach soon after his conversion, in 1817. He was admitted into the Tennessee Conference in 1818, and continu",
  "Comment": "",
  "License": "Public Domain in the USA",
  "SourceURL": "https://oldpedia.org/article/ccrk/Paine, Robert",
  "SourceFileURL": "https://archive.org/details/concisecyclopedi00sanf",
  "LocalFileURL": "https://oldpedia.org/pdf/ccrk/concisecyclopedi00sanf.pdf",
  "ShortTitle": "",
  "BookTitle": "A Concise Cyclopedia of Religious Knowledge",
  "BookTitleLong": "A Concise Cyclopedia of Religious Knowledge: Biblical, Biographical, Geographical, Historical, Practical and Theological",
  "BookEdition": "",
  "BookEditors": [
    "Elias Benjamin Sanford"
  ],
  "BookVolumeNumber": "",
  "BookPublisher": "Funk & Wagnall Company",
  "BookCopyrightDate": "1890",
  "BookPrintingDate": "1895",
  "PublicationDate": "1895",
  "CreatorNames": [
    "Elias Benjamin Sanford"
  ],
  "ContributorNames": [],
  "Rating": []
}