{
  "ZWIversion": 1.4,
  "GeneratorName": "AutoZWI",
  "Title": "Ambrosian Chant",
  "Lang": "en",
  "Content": {
    "article.html": "426ec0ebf8ee9b460a9e32b429e5244a8309d962",
    "article.txt": "34ad05b119f6afdccf1e077e02750c3796a5a049"
  },
  "Primary": "article.html",
  "Publisher": "ccrk",
  "LastModified": "1708959413",
  "TimeCreated": "1708959413",
  "Categories": [
    "Religion",
    "Christianity"
  ],
  "Topics": [],
  "Description": "Ambrosian Chant denotes the mode of church singing introduced into the Western Church by St. Ambrose. Just what the form was is now unknown, but it is thought that it was a modification of a more simple mode of chanting. The Ambrosian chant was further developed into the elaborate Gregorian system. St. Augustine says it was first introduced into the",
  "Comment": "",
  "License": "Public Domain in the USA",
  "SourceURL": "https://oldpedia.org/article/ccrk/Ambrosian Chant",
  "SourceFileURL": "https://archive.org/details/concisecyclopedi00sanf",
  "LocalFileURL": "https://oldpedia.org/pdf/ccrk/concisecyclopedi00sanf.pdf",
  "ShortTitle": "",
  "BookTitle": "A Concise Cyclopedia of Religious Knowledge",
  "BookTitleLong": "A Concise Cyclopedia of Religious Knowledge: Biblical, Biographical, Geographical, Historical, Practical and Theological",
  "BookEdition": "",
  "BookEditors": [
    "Elias Benjamin Sanford"
  ],
  "BookVolumeNumber": "",
  "BookPublisher": "Funk & Wagnall Company",
  "BookCopyrightDate": "1890",
  "BookPrintingDate": "1895",
  "PublicationDate": "1895",
  "CreatorNames": [
    "Elias Benjamin Sanford"
  ],
  "ContributorNames": [],
  "Rating": []
}