{
  "ZWIversion": 1.4,
  "GeneratorName": "AutoZWI",
  "Title": "Spring, Samuel",
  "Lang": "en",
  "Content": {
    "article.html": "75435f4e9d45a42e959d38d7564cd060352578f8",
    "article.txt": "41cc3247abaf2469bba1ee8f097713242cee77fb"
  },
  "Primary": "article.html",
  "Publisher": "ccrk",
  "LastModified": "1708959428",
  "TimeCreated": "1708959428",
  "Categories": [
    "Religion",
    "Christianity"
  ],
  "Topics": [],
  "Description": "Spring, Samuel, D. D., b. in Northbridge, Mass., Feb. 27, 1746; d. in Newburyport, Mass., March 4, 1819. A graduate of Princeton College in 1771, he studied theology first with Dr. John Witherspoon, and then with Drs. Bellamy, West, and Hopkins. In 1775 he was a chaplain in the Continental army, and in 1777 became pastor of the Second Congregational",
  "Comment": "",
  "License": "Public Domain in the USA",
  "SourceURL": "https://oldpedia.org/article/ccrk/Spring, Samuel",
  "SourceFileURL": "https://archive.org/details/concisecyclopedi00sanf",
  "LocalFileURL": "https://oldpedia.org/pdf/ccrk/concisecyclopedi00sanf.pdf",
  "ShortTitle": "",
  "BookTitle": "A Concise Cyclopedia of Religious Knowledge",
  "BookTitleLong": "A Concise Cyclopedia of Religious Knowledge: Biblical, Biographical, Geographical, Historical, Practical and Theological",
  "BookEdition": "",
  "BookEditors": [
    "Elias Benjamin Sanford"
  ],
  "BookVolumeNumber": "",
  "BookPublisher": "Funk & Wagnall Company",
  "BookCopyrightDate": "1890",
  "BookPrintingDate": "1895",
  "PublicationDate": "1895",
  "CreatorNames": [
    "Elias Benjamin Sanford"
  ],
  "ContributorNames": [],
  "Rating": []
}