{
  "ZWIversion": 1.4,
  "GeneratorName": "AutoZWI",
  "Title": "Rings",
  "Lang": "en",
  "Content": {
    "article.html": "48ab81a909717c934401e0fd06f7db1d37fbcdba",
    "article.txt": "185b7a8641fe11fd26a2c277419b50afec6621e0"
  },
  "Primary": "article.html",
  "Publisher": "ccrk",
  "LastModified": "1708959427",
  "TimeCreated": "1708959427",
  "Categories": [
    "Religion",
    "Christianity"
  ],
  "Topics": [],
  "Description": "Rings were used as ornaments not only on the fingers, but in the ears and nose and about the wrists and ankles. (Isa. iii. 20, 21; Luke xv. 22; James ii. 2.) The ring when used as a seal was an emblem of authority, and the giving of a ring the imparting of authority. (Gen. xii. 42; Esth. iii. 10, 12; Dan. vi. 17.) The custom of placing a ring on the",
  "Comment": "",
  "License": "Public Domain in the USA",
  "SourceURL": "https://oldpedia.org/article/ccrk/Rings",
  "SourceFileURL": "https://archive.org/details/concisecyclopedi00sanf",
  "LocalFileURL": "https://oldpedia.org/pdf/ccrk/concisecyclopedi00sanf.pdf",
  "ShortTitle": "",
  "BookTitle": "A Concise Cyclopedia of Religious Knowledge",
  "BookTitleLong": "A Concise Cyclopedia of Religious Knowledge: Biblical, Biographical, Geographical, Historical, Practical and Theological",
  "BookEdition": "",
  "BookEditors": [
    "Elias Benjamin Sanford"
  ],
  "BookVolumeNumber": "",
  "BookPublisher": "Funk & Wagnall Company",
  "BookCopyrightDate": "1890",
  "BookPrintingDate": "1895",
  "PublicationDate": "1895",
  "CreatorNames": [
    "Elias Benjamin Sanford"
  ],
  "ContributorNames": [],
  "Rating": []
}