{
  "ZWIversion": 1.4,
  "GeneratorName": "AutoZWI",
  "Title": "Constance, The Council ok",
  "Lang": "en",
  "Content": {
    "article.html": "71f487375c1775a1dc835546890e2f6502c62039",
    "article.txt": "c2f456074b8cae6e9a484f4006ac0dba5f035642"
  },
  "Primary": "article.html",
  "Publisher": "ccrk",
  "LastModified": "1708959417",
  "TimeCreated": "1708959417",
  "Categories": [
    "Religion",
    "Christianity"
  ],
  "Topics": [],
  "Description": "Constance, The Council ok, held in the city of Constance from 1414 to 1418, constituted itself the highest authority in the Church; condemned to death the reformers Huss and Jerome, of Prague, expelled the three rival popes, John XXII., Gregory XII., and Benedict XIII., and elected Martin V. as the legitimate successor of St. Peter. See Hefele: ",
  "Comment": "",
  "License": "Public Domain in the USA",
  "SourceURL": "https://oldpedia.org/article/ccrk/Constance, The Council ok",
  "SourceFileURL": "https://archive.org/details/concisecyclopedi00sanf",
  "LocalFileURL": "https://oldpedia.org/pdf/ccrk/concisecyclopedi00sanf.pdf",
  "ShortTitle": "",
  "BookTitle": "A Concise Cyclopedia of Religious Knowledge",
  "BookTitleLong": "A Concise Cyclopedia of Religious Knowledge: Biblical, Biographical, Geographical, Historical, Practical and Theological",
  "BookEdition": "",
  "BookEditors": [
    "Elias Benjamin Sanford"
  ],
  "BookVolumeNumber": "",
  "BookPublisher": "Funk & Wagnall Company",
  "BookCopyrightDate": "1890",
  "BookPrintingDate": "1895",
  "PublicationDate": "1895",
  "CreatorNames": [
    "Elias Benjamin Sanford"
  ],
  "ContributorNames": [],
  "Rating": []
}