{
  "ZWIversion": 1.4,
  "GeneratorName": "AutoZWI",
  "Title": "Hallel",
  "Lang": "en",
  "Content": {
    "article.html": "4efcd87c13f8ac778cf2223ff2ffa2121b62a10d",
    "article.txt": "e3a8bec50fee5a5d4ee90c1e5cd2995edbb224f0"
  },
  "Primary": "article.html",
  "Publisher": "ccrk",
  "LastModified": "1708959421",
  "TimeCreated": "1708959421",
  "Categories": [
    "Religion",
    "Christianity"
  ],
  "Topics": [],
  "Description": "Hallel {praise'}. Psalms cxiii.-cxviii. were so called because each of them begins with Hallelujah. They were sung in the temple on the first of the month, and at the feasts of Dedication, Tabernacles, Weeks, and the Passover. The “hymn” sung by our Lord and his disciples at the close of the Last Supper was the second part of the Hallel (Psa. ",
  "Comment": "",
  "License": "Public Domain in the USA",
  "SourceURL": "https://oldpedia.org/article/ccrk/Hallel",
  "SourceFileURL": "https://archive.org/details/concisecyclopedi00sanf",
  "LocalFileURL": "https://oldpedia.org/pdf/ccrk/concisecyclopedi00sanf.pdf",
  "ShortTitle": "",
  "BookTitle": "A Concise Cyclopedia of Religious Knowledge",
  "BookTitleLong": "A Concise Cyclopedia of Religious Knowledge: Biblical, Biographical, Geographical, Historical, Practical and Theological",
  "BookEdition": "",
  "BookEditors": [
    "Elias Benjamin Sanford"
  ],
  "BookVolumeNumber": "",
  "BookPublisher": "Funk & Wagnall Company",
  "BookCopyrightDate": "1890",
  "BookPrintingDate": "1895",
  "PublicationDate": "1895",
  "CreatorNames": [
    "Elias Benjamin Sanford"
  ],
  "ContributorNames": [],
  "Rating": []
}