{
  "ZWIversion": 1.4,
  "GeneratorName": "AutoZWI",
  "Title": "Sodo",
  "Lang": "en",
  "Content": {
    "article.html": "c871ad13231429dfeaa8dc98afda5f751b416e66",
    "article.txt": "e5618faa1f42ee727f1b024d30f32f58a307dcb4"
  },
  "Primary": "article.html",
  "Publisher": "ccrk",
  "LastModified": "1708959428",
  "TimeCreated": "1708959428",
  "Categories": [
    "Religion",
    "Christianity"
  ],
  "Topics": [],
  "Description": "Sod'om, the most important of the four cities (Gomorrah, Admah, Zeboiim, and Sodom) that were destroyed on account of the great wickedness of their inhabitants. (Gen. xiii. 12; xix. 2.) Lot chose Sodom, with the fertile country about it, as his home. It was plundered by Chedorlaomer and his allies, but Abraham recovered the captives and spoils. ",
  "Comment": "",
  "License": "Public Domain in the USA",
  "SourceURL": "https://oldpedia.org/article/ccrk/Sodo",
  "SourceFileURL": "https://archive.org/details/concisecyclopedi00sanf",
  "LocalFileURL": "https://oldpedia.org/pdf/ccrk/concisecyclopedi00sanf.pdf",
  "ShortTitle": "",
  "BookTitle": "A Concise Cyclopedia of Religious Knowledge",
  "BookTitleLong": "A Concise Cyclopedia of Religious Knowledge: Biblical, Biographical, Geographical, Historical, Practical and Theological",
  "BookEdition": "",
  "BookEditors": [
    "Elias Benjamin Sanford"
  ],
  "BookVolumeNumber": "",
  "BookPublisher": "Funk & Wagnall Company",
  "BookCopyrightDate": "1890",
  "BookPrintingDate": "1895",
  "PublicationDate": "1895",
  "CreatorNames": [
    "Elias Benjamin Sanford"
  ],
  "ContributorNames": [],
  "Rating": []
}