{
  "ZWIversion": 1.4,
  "GeneratorName": "AutoZWI",
  "Title": "Church History",
  "Lang": "en",
  "Content": {
    "article.html": "d6d2e1788be0e1470fe03f4899ab628913dff586",
    "article.txt": "1bf68cb218f5d0426259e78e301416bac66d4723"
  },
  "Primary": "article.html",
  "Publisher": "ccrk",
  "LastModified": "1708959416",
  "TimeCreated": "1708959416",
  "Categories": [
    "Religion",
    "Christianity"
  ],
  "Topics": [],
  "Description": "Church History. The lines of Church history run so close to the lines of general history that they often intertwine inseparably. Christianity has for many centuries been the most powerful agent in the civilized world, and the course of political events has been, in large measure, determined by the diffusion and development of its ideas. ",
  "Comment": "",
  "License": "Public Domain in the USA",
  "SourceURL": "https://oldpedia.org/article/ccrk/Church History",
  "SourceFileURL": "https://archive.org/details/concisecyclopedi00sanf",
  "LocalFileURL": "https://oldpedia.org/pdf/ccrk/concisecyclopedi00sanf.pdf",
  "ShortTitle": "",
  "BookTitle": "A Concise Cyclopedia of Religious Knowledge",
  "BookTitleLong": "A Concise Cyclopedia of Religious Knowledge: Biblical, Biographical, Geographical, Historical, Practical and Theological",
  "BookEdition": "",
  "BookEditors": [
    "Elias Benjamin Sanford"
  ],
  "BookVolumeNumber": "",
  "BookPublisher": "Funk & Wagnall Company",
  "BookCopyrightDate": "1890",
  "BookPrintingDate": "1895",
  "PublicationDate": "1895",
  "CreatorNames": [
    "Elias Benjamin Sanford"
  ],
  "ContributorNames": [],
  "Rating": []
}