{
  "ZWIversion": 1.4,
  "GeneratorName": "AutoZWI",
  "Title": "Dionysius the Areopagite, an Athenian eminent for his lite",
  "Lang": "en",
  "Content": {
    "article.html": "73f6b6849973bf772afbb31737489cfbfa4f2543",
    "article.txt": "8f0553ce1f8f7c01b10895a92b77f716ff1c35d1"
  },
  "Primary": "article.html",
  "Publisher": "ccrk",
  "LastModified": "1708959418",
  "TimeCreated": "1708959418",
  "Categories": [
    "Religion",
    "Christianity"
  ],
  "Topics": [],
  "Description": "Diony'sius the Areopagite, an Athenian eminent for his literary attainments, and a member of the Areopagus. Converted to Christianity (Acts xvii. 34), according to Eusebius, he was the first bishop of Athens, and tradition says that he suffered martyrdom there. His name has prominence in history because of the attempt of a writer in later times to p",
  "Comment": "",
  "License": "Public Domain in the USA",
  "SourceURL": "https://oldpedia.org/article/ccrk/Dionysius the Areopagite, an Athenian eminent for his lite",
  "SourceFileURL": "https://archive.org/details/concisecyclopedi00sanf",
  "LocalFileURL": "https://oldpedia.org/pdf/ccrk/concisecyclopedi00sanf.pdf",
  "ShortTitle": "",
  "BookTitle": "A Concise Cyclopedia of Religious Knowledge",
  "BookTitleLong": "A Concise Cyclopedia of Religious Knowledge: Biblical, Biographical, Geographical, Historical, Practical and Theological",
  "BookEdition": "",
  "BookEditors": [
    "Elias Benjamin Sanford"
  ],
  "BookVolumeNumber": "",
  "BookPublisher": "Funk & Wagnall Company",
  "BookCopyrightDate": "1890",
  "BookPrintingDate": "1895",
  "PublicationDate": "1895",
  "CreatorNames": [
    "Elias Benjamin Sanford"
  ],
  "ContributorNames": [],
  "Rating": []
}