{
  "ZWIversion": 1.4,
  "GeneratorName": "AutoZWI",
  "Title": "Donation of Constantine",
  "Lang": "en",
  "Content": {
    "article.html": "e940cd47b180be1fd87a4a136f872298c1ee620d",
    "article.txt": "455a8b9d6a6f219fc9c672e6669f9b10efd272f3"
  },
  "Primary": "article.html",
  "Publisher": "ccrk",
  "LastModified": "1708959418",
  "TimeCreated": "1708959418",
  "Categories": [
    "Religion",
    "Christianity"
  ],
  "Topics": [],
  "Description": "Donation of Constantine, an alleged imperial edict, by which Constantine the Great is said to bestow Rome and Italy on the Papacy. The forgery, which for a long time was accepted as true, was committed about the middle of the eighth century. It was fully exposed by Laurentius Valla (1440).",
  "Comment": "",
  "License": "Public Domain in the USA",
  "SourceURL": "https://oldpedia.org/article/ccrk/Donation of Constantine",
  "SourceFileURL": "https://archive.org/details/concisecyclopedi00sanf",
  "LocalFileURL": "https://oldpedia.org/pdf/ccrk/concisecyclopedi00sanf.pdf",
  "ShortTitle": "",
  "BookTitle": "A Concise Cyclopedia of Religious Knowledge",
  "BookTitleLong": "A Concise Cyclopedia of Religious Knowledge: Biblical, Biographical, Geographical, Historical, Practical and Theological",
  "BookEdition": "",
  "BookEditors": [
    "Elias Benjamin Sanford"
  ],
  "BookVolumeNumber": "",
  "BookPublisher": "Funk & Wagnall Company",
  "BookCopyrightDate": "1890",
  "BookPrintingDate": "1895",
  "PublicationDate": "1895",
  "CreatorNames": [
    "Elias Benjamin Sanford"
  ],
  "ContributorNames": [],
  "Rating": []
}