{
  "ZWIversion": 1.4,
  "GeneratorName": "AutoZWI",
  "Title": "Lucifer",
  "Lang": "en",
  "Content": {
    "article.html": "881eafe845d80a3ca881793669a45dedf5d89f6d",
    "article.txt": "4a60b41d4d9e76b225b8d021d5aa4e53665f7752"
  },
  "Primary": "article.html",
  "Publisher": "ccrk",
  "LastModified": "1708959423",
  "TimeCreated": "1708959423",
  "Categories": [
    "Religion",
    "Christianity"
  ],
  "Topics": [],
  "Description": "Lucifer fight-bringePy a term used by Isaiah to designate the king of Babylon. (Isa. xiv. 12.) The title was given by Tertullian and others to Satan, and it is now applied to him with little thought of the original significance of the word.",
  "Comment": "",
  "License": "Public Domain in the USA",
  "SourceURL": "https://oldpedia.org/article/ccrk/Lucifer",
  "SourceFileURL": "https://archive.org/details/concisecyclopedi00sanf",
  "LocalFileURL": "https://oldpedia.org/pdf/ccrk/concisecyclopedi00sanf.pdf",
  "ShortTitle": "",
  "BookTitle": "A Concise Cyclopedia of Religious Knowledge",
  "BookTitleLong": "A Concise Cyclopedia of Religious Knowledge: Biblical, Biographical, Geographical, Historical, Practical and Theological",
  "BookEdition": "",
  "BookEditors": [
    "Elias Benjamin Sanford"
  ],
  "BookVolumeNumber": "",
  "BookPublisher": "Funk & Wagnall Company",
  "BookCopyrightDate": "1890",
  "BookPrintingDate": "1895",
  "PublicationDate": "1895",
  "CreatorNames": [
    "Elias Benjamin Sanford"
  ],
  "ContributorNames": [],
  "Rating": []
}