{
  "ZWIversion": 1.4,
  "GeneratorName": "AutoZWI",
  "Title": "Sunday",
  "Lang": "en",
  "Content": {
    "article.html": "e30964d306f128301a04f46ab59721b75af706eb",
    "article.txt": "23eda2bdaa4b9c8555990c7e374488fc4a447945"
  },
  "Primary": "article.html",
  "Publisher": "ccrk",
  "LastModified": "1708959429",
  "TimeCreated": "1708959429",
  "Categories": [
    "Religion",
    "Christianity"
  ],
  "Topics": [],
  "Description": "Sunday laws are not “religious legislation” because they come from the Bible, any more than the laws against adultery, which are as distinctly a part of biblical morality in distinction from heathen morality, as Sabbath laws. Both the Bible and the codes of the most advanced governments forbid murder, theft, adultery, false witness, and work on the",
  "Comment": "",
  "License": "Public Domain in the USA",
  "SourceURL": "https://oldpedia.org/article/ccrk/Sunday",
  "SourceFileURL": "https://archive.org/details/concisecyclopedi00sanf",
  "LocalFileURL": "https://oldpedia.org/pdf/ccrk/concisecyclopedi00sanf.pdf",
  "ShortTitle": "",
  "BookTitle": "A Concise Cyclopedia of Religious Knowledge",
  "BookTitleLong": "A Concise Cyclopedia of Religious Knowledge: Biblical, Biographical, Geographical, Historical, Practical and Theological",
  "BookEdition": "",
  "BookEditors": [
    "Elias Benjamin Sanford"
  ],
  "BookVolumeNumber": "",
  "BookPublisher": "Funk & Wagnall Company",
  "BookCopyrightDate": "1890",
  "BookPrintingDate": "1895",
  "PublicationDate": "1895",
  "CreatorNames": [
    "Elias Benjamin Sanford"
  ],
  "ContributorNames": [],
  "Rating": []
}