{
  "ZWIversion": 1.4,
  "GeneratorName": "AutoZWI",
  "Title": "Malcom, Howard",
  "Lang": "en",
  "Content": {
    "article.html": "2231b7998991c13bb2ef00f8c5f47e5fbde4372e",
    "article.txt": "b93112368c7e84a4221bdcd0763ea5f44680ae88"
  },
  "Primary": "article.html",
  "Publisher": "ccrk",
  "LastModified": "1708959423",
  "TimeCreated": "1708959423",
  "Categories": [
    "Religion",
    "Christianity"
  ],
  "Topics": [],
  "Description": "Malcom, Howard, D. D., b. in Philadelphia, Jan. 19, 1799; d. there, Marches, 1S79. He was graduated at Dickinson College, Penn., and Princeton Seminary. After laboring as a pastor of- Baptist churches in Hudson, X. Y., Boston, and Philadelphia, he was president of Georgetown (Ky.) College, 1840-49, and of Lewisburg (Penn.) University, 1851-57, when",
  "Comment": "",
  "License": "Public Domain in the USA",
  "SourceURL": "https://oldpedia.org/article/ccrk/Malcom, Howard",
  "SourceFileURL": "https://archive.org/details/concisecyclopedi00sanf",
  "LocalFileURL": "https://oldpedia.org/pdf/ccrk/concisecyclopedi00sanf.pdf",
  "ShortTitle": "",
  "BookTitle": "A Concise Cyclopedia of Religious Knowledge",
  "BookTitleLong": "A Concise Cyclopedia of Religious Knowledge: Biblical, Biographical, Geographical, Historical, Practical and Theological",
  "BookEdition": "",
  "BookEditors": [
    "Elias Benjamin Sanford"
  ],
  "BookVolumeNumber": "",
  "BookPublisher": "Funk & Wagnall Company",
  "BookCopyrightDate": "1890",
  "BookPrintingDate": "1895",
  "PublicationDate": "1895",
  "CreatorNames": [
    "Elias Benjamin Sanford"
  ],
  "ContributorNames": [],
  "Rating": []
}