{
  "ZWIversion": 1.4,
  "GeneratorName": "AutoZWI",
  "Title": "Lay Baptism. See Baptism",
  "Lang": "en",
  "Content": {
    "article.html": "38580a137a4b76477f8fb215ccb85ca061f7c090",
    "article.txt": "e06f25af53eea98280299f1525434709c8f2a71b"
  },
  "Primary": "article.html",
  "Publisher": "ccrk",
  "LastModified": "1708959423",
  "TimeCreated": "1708959423",
  "Categories": [
    "Religion",
    "Christianity"
  ],
  "Topics": [],
  "Description": "Lay Baptism. See Baptism.",
  "Comment": "",
  "License": "Public Domain in the USA",
  "SourceURL": "https://oldpedia.org/article/ccrk/Lay Baptism. See Baptism",
  "SourceFileURL": "https://archive.org/details/concisecyclopedi00sanf",
  "LocalFileURL": "https://oldpedia.org/pdf/ccrk/concisecyclopedi00sanf.pdf",
  "ShortTitle": "",
  "BookTitle": "A Concise Cyclopedia of Religious Knowledge",
  "BookTitleLong": "A Concise Cyclopedia of Religious Knowledge: Biblical, Biographical, Geographical, Historical, Practical and Theological",
  "BookEdition": "",
  "BookEditors": [
    "Elias Benjamin Sanford"
  ],
  "BookVolumeNumber": "",
  "BookPublisher": "Funk & Wagnall Company",
  "BookCopyrightDate": "1890",
  "BookPrintingDate": "1895",
  "PublicationDate": "1895",
  "CreatorNames": [
    "Elias Benjamin Sanford"
  ],
  "ContributorNames": [],
  "Rating": []
}