{
  "ZWIversion": 1.4,
  "GeneratorName": "AutoZWI",
  "Title": "Deborah",
  "Lang": "en",
  "Content": {
    "article.html": "1d3d94ef051ec861fc52545c4011e513d37167f7",
    "article.txt": "a0564adf29ce771ba281be51efbdb0b33757eb3f"
  },
  "Primary": "article.html",
  "Publisher": "ccrk",
  "LastModified": "1708959418",
  "TimeCreated": "1708959418",
  "Categories": [
    "Religion",
    "Christianity"
  ],
  "Topics": [],
  "Description": "Deb'orah, (1) the nurse of Rebekah. (Gen. xxxv. 8.) (2) A judge and prophetess. Through her influence Barak led Israel into battle against the Canaanites, and completely routed them. The triumphal song, in which Deborah celebrates the victory, is remarkable for its beauty and sublimity. All that we know of this heroic woman is found in Judges iv. ",
  "Comment": "",
  "License": "Public Domain in the USA",
  "SourceURL": "https://oldpedia.org/article/ccrk/Deborah",
  "SourceFileURL": "https://archive.org/details/concisecyclopedi00sanf",
  "LocalFileURL": "https://oldpedia.org/pdf/ccrk/concisecyclopedi00sanf.pdf",
  "ShortTitle": "",
  "BookTitle": "A Concise Cyclopedia of Religious Knowledge",
  "BookTitleLong": "A Concise Cyclopedia of Religious Knowledge: Biblical, Biographical, Geographical, Historical, Practical and Theological",
  "BookEdition": "",
  "BookEditors": [
    "Elias Benjamin Sanford"
  ],
  "BookVolumeNumber": "",
  "BookPublisher": "Funk & Wagnall Company",
  "BookCopyrightDate": "1890",
  "BookPrintingDate": "1895",
  "PublicationDate": "1895",
  "CreatorNames": [
    "Elias Benjamin Sanford"
  ],
  "ContributorNames": [],
  "Rating": []
}