{
  "ZWIversion": 1.4,
  "GeneratorName": "AutoZWI",
  "Title": "Ass",
  "Lang": "en",
  "Content": {
    "article.html": "e7335cafd433344f2c5d43fab54e1b237ac2e843",
    "article.txt": "8a8cfefd969496e6be4f55155948d1f79f265057"
  },
  "Primary": "article.html",
  "Publisher": "ccrk",
  "LastModified": "1708959414",
  "TimeCreated": "1708959414",
  "Categories": [
    "Religion",
    "Christianity"
  ],
  "Topics": [],
  "Description": "Ass, the favorite domestic animal of the East. After Solomon’s time they do not appear to have been used by the Hebrews for warlike purposes, and the Messiah (Zech. ix. 9), as the Prince of Peace, is represented as riding upon an ass. (Matt, xxi. 2.)",
  "Comment": "",
  "License": "Public Domain in the USA",
  "SourceURL": "https://oldpedia.org/article/ccrk/Ass",
  "SourceFileURL": "https://archive.org/details/concisecyclopedi00sanf",
  "LocalFileURL": "https://oldpedia.org/pdf/ccrk/concisecyclopedi00sanf.pdf",
  "ShortTitle": "",
  "BookTitle": "A Concise Cyclopedia of Religious Knowledge",
  "BookTitleLong": "A Concise Cyclopedia of Religious Knowledge: Biblical, Biographical, Geographical, Historical, Practical and Theological",
  "BookEdition": "",
  "BookEditors": [
    "Elias Benjamin Sanford"
  ],
  "BookVolumeNumber": "",
  "BookPublisher": "Funk & Wagnall Company",
  "BookCopyrightDate": "1890",
  "BookPrintingDate": "1895",
  "PublicationDate": "1895",
  "CreatorNames": [
    "Elias Benjamin Sanford"
  ],
  "ContributorNames": [],
  "Rating": []
}