{
  "ZWIversion": 1.4,
  "GeneratorName": "AutoZWI",
  "Title": "Plagues of Egypt, The",
  "Lang": "en",
  "Content": {
    "article.html": "6f253b280603026b128a3f8eb4e03576914b6f1d",
    "article.txt": "dfe0811b9103a8d85edb6237fe885fd8f6225776"
  },
  "Primary": "article.html",
  "Publisher": "ccrk",
  "LastModified": "1708959426",
  "TimeCreated": "1708959426",
  "Categories": [
    "Religion",
    "Christianity"
  ],
  "Topics": [],
  "Description": "Plagues of Egypt, The, were ten in number. (1) The waters of the Nile were changed into blood. (Ex. vii. 14-25.) (2) The plague of frogs. (Ex. viii. I—Ig.) (3) The plague of lice. (Ex. viii. 16-19.) (4) Swarms of venomous flies. (Ex. viii. 2032.) (5) A grievous murrain that destroyed the cattle of the Egyptians. (Ex. ix. 17.) (6) Malignant boils. ",
  "Comment": "",
  "License": "Public Domain in the USA",
  "SourceURL": "https://oldpedia.org/article/ccrk/Plagues of Egypt, The",
  "SourceFileURL": "https://archive.org/details/concisecyclopedi00sanf",
  "LocalFileURL": "https://oldpedia.org/pdf/ccrk/concisecyclopedi00sanf.pdf",
  "ShortTitle": "",
  "BookTitle": "A Concise Cyclopedia of Religious Knowledge",
  "BookTitleLong": "A Concise Cyclopedia of Religious Knowledge: Biblical, Biographical, Geographical, Historical, Practical and Theological",
  "BookEdition": "",
  "BookEditors": [
    "Elias Benjamin Sanford"
  ],
  "BookVolumeNumber": "",
  "BookPublisher": "Funk & Wagnall Company",
  "BookCopyrightDate": "1890",
  "BookPrintingDate": "1895",
  "PublicationDate": "1895",
  "CreatorNames": [
    "Elias Benjamin Sanford"
  ],
  "ContributorNames": [],
  "Rating": []
}