{
  "ZWIversion": 1.4,
  "GeneratorName": "AutoZWI",
  "Title": "Ximenes",
  "Lang": "en",
  "Content": {
    "article.html": "0e2b7b760bb1bc55a3dd26bfd63459676771492f",
    "article.txt": "073a1f462c46ddca91942a1fda229c28891c7b5a"
  },
  "Primary": "article.html",
  "Publisher": "ccrk",
  "LastModified": "1708959430",
  "TimeCreated": "1708959430",
  "Categories": [
    "Religion",
    "Christianity"
  ],
  "Topics": [],
  "Description": "Ximenes (zi-mee'neez), DeCisneros, Francisco, b. at Torrelaguna, in Castile, in 1436; d. at Roa, Nov. 8, 1517. His family belonged to the nobility, but were without wealth or position. He was educated at Alcala and Salamanca, and after entering the priesthood he visited Rome, and received from the pope the benefice of Uze-da. ",
  "Comment": "",
  "License": "Public Domain in the USA",
  "SourceURL": "https://oldpedia.org/article/ccrk/Ximenes",
  "SourceFileURL": "https://archive.org/details/concisecyclopedi00sanf",
  "LocalFileURL": "https://oldpedia.org/pdf/ccrk/concisecyclopedi00sanf.pdf",
  "ShortTitle": "",
  "BookTitle": "A Concise Cyclopedia of Religious Knowledge",
  "BookTitleLong": "A Concise Cyclopedia of Religious Knowledge: Biblical, Biographical, Geographical, Historical, Practical and Theological",
  "BookEdition": "",
  "BookEditors": [
    "Elias Benjamin Sanford"
  ],
  "BookVolumeNumber": "",
  "BookPublisher": "Funk & Wagnall Company",
  "BookCopyrightDate": "1890",
  "BookPrintingDate": "1895",
  "PublicationDate": "1895",
  "CreatorNames": [
    "Elias Benjamin Sanford"
  ],
  "ContributorNames": [],
  "Rating": []
}