{
  "ZWIversion": 1.4,
  "GeneratorName": "AutoZWI",
  "Title": "Bambino",
  "Lang": "en",
  "Content": {
    "article.html": "58816f14355231bb00df0ec5cfabf13d5aa9f819",
    "article.txt": "16b46a673653cb4b192c62a7f00a4661e4b53646"
  },
  "Primary": "article.html",
  "Publisher": "ccrk",
  "LastModified": "1708959414",
  "TimeCreated": "1708959414",
  "Categories": [
    "Religion",
    "Christianity"
  ],
  "Topics": [],
  "Description": "Bambino, an Italian word, which means, literally, a little boy. It is the special designation of a small figure of the Holy Child Jesus, which is publicly exhibited in Roman Catholic churches at Christmas time.",
  "Comment": "",
  "License": "Public Domain in the USA",
  "SourceURL": "https://oldpedia.org/article/ccrk/Bambino",
  "SourceFileURL": "https://archive.org/details/concisecyclopedi00sanf",
  "LocalFileURL": "https://oldpedia.org/pdf/ccrk/concisecyclopedi00sanf.pdf",
  "ShortTitle": "",
  "BookTitle": "A Concise Cyclopedia of Religious Knowledge",
  "BookTitleLong": "A Concise Cyclopedia of Religious Knowledge: Biblical, Biographical, Geographical, Historical, Practical and Theological",
  "BookEdition": "",
  "BookEditors": [
    "Elias Benjamin Sanford"
  ],
  "BookVolumeNumber": "",
  "BookPublisher": "Funk & Wagnall Company",
  "BookCopyrightDate": "1890",
  "BookPrintingDate": "1895",
  "PublicationDate": "1895",
  "CreatorNames": [
    "Elias Benjamin Sanford"
  ],
  "ContributorNames": [],
  "Rating": []
}