{
  "ZWIversion": 1.4,
  "GeneratorName": "AutoZWI",
  "Title": "Lutheran Church, The Evangelical",
  "Lang": "en",
  "Content": {
    "article.html": "846cbac6e3a93a0de0dff596da9d660b24343ffa",
    "article.txt": "5b4b6177326721791faeef61705ee56ec555b9b1"
  },
  "Primary": "article.html",
  "Publisher": "ccrk",
  "LastModified": "1708959423",
  "TimeCreated": "1708959423",
  "Categories": [
    "Religion",
    "Christianity"
  ],
  "Topics": [],
  "Description": "Lutheran Church, The Evangelical, in the United States. The Lutheran communion holds the fourth rank in numbers among the Evangelical churches. Its growth has of late been phenomenal, the increase resulting both from the ordinary conditions of religious progress, and from the large influx of Lutherans from the Old World. ",
  "Comment": "",
  "License": "Public Domain in the USA",
  "SourceURL": "https://oldpedia.org/article/ccrk/Lutheran Church, The Evangelical",
  "SourceFileURL": "https://archive.org/details/concisecyclopedi00sanf",
  "LocalFileURL": "https://oldpedia.org/pdf/ccrk/concisecyclopedi00sanf.pdf",
  "ShortTitle": "",
  "BookTitle": "A Concise Cyclopedia of Religious Knowledge",
  "BookTitleLong": "A Concise Cyclopedia of Religious Knowledge: Biblical, Biographical, Geographical, Historical, Practical and Theological",
  "BookEdition": "",
  "BookEditors": [
    "Elias Benjamin Sanford"
  ],
  "BookVolumeNumber": "",
  "BookPublisher": "Funk & Wagnall Company",
  "BookCopyrightDate": "1890",
  "BookPrintingDate": "1895",
  "PublicationDate": "1895",
  "CreatorNames": [
    "Elias Benjamin Sanford"
  ],
  "ContributorNames": [],
  "Rating": []
}