{
  "ZWIversion": 1.4,
  "GeneratorName": "AutoZWI",
  "Title": "Johnson, Samuel",
  "Lang": "en",
  "Content": {
    "article.html": "e50c69bedf511eb0ddb4724f6bff064821ca2e0f",
    "article.txt": "ad14b1c2b99193973b46c61b697221adedd9d6cd"
  },
  "Primary": "article.html",
  "Publisher": "ccrk",
  "LastModified": "1708959422",
  "TimeCreated": "1708959422",
  "Categories": [
    "Religion",
    "Christianity"
  ],
  "Topics": [],
  "Description": "Johnson, Samuel, b. in Salem, Mass., Oct. 10, 1822; d. at North Andover, Mass., Feb. 19, 1882. He was graduated at Harvard College, 1S42, and the Divinity School, 1843. In 1853 he became pastor of an Independent Church in Lynn, Mass., when he labored for twenty years. He was never connected with any religious denomination. ",
  "Comment": "",
  "License": "Public Domain in the USA",
  "SourceURL": "https://oldpedia.org/article/ccrk/Johnson, Samuel",
  "SourceFileURL": "https://archive.org/details/concisecyclopedi00sanf",
  "LocalFileURL": "https://oldpedia.org/pdf/ccrk/concisecyclopedi00sanf.pdf",
  "ShortTitle": "",
  "BookTitle": "A Concise Cyclopedia of Religious Knowledge",
  "BookTitleLong": "A Concise Cyclopedia of Religious Knowledge: Biblical, Biographical, Geographical, Historical, Practical and Theological",
  "BookEdition": "",
  "BookEditors": [
    "Elias Benjamin Sanford"
  ],
  "BookVolumeNumber": "",
  "BookPublisher": "Funk & Wagnall Company",
  "BookCopyrightDate": "1890",
  "BookPrintingDate": "1895",
  "PublicationDate": "1895",
  "CreatorNames": [
    "Elias Benjamin Sanford"
  ],
  "ContributorNames": [],
  "Rating": []
}