{
  "ZWIversion": 1.4,
  "GeneratorName": "AutoZWI",
  "Title": "Suffragan",
  "Lang": "en",
  "Content": {
    "article.html": "17c46bd4639c7ce4e2336b18885d60fcffdd3791",
    "article.txt": "4aaecd29e4eb840076202ad359f749bd30519ee4"
  },
  "Primary": "article.html",
  "Publisher": "ccrk",
  "LastModified": "1708959429",
  "TimeCreated": "1708959429",
  "Categories": [
    "Religion",
    "Christianity"
  ],
  "Topics": [],
  "Description": "Suffragan at one time designated any ecclesiastic whose duty it was to assist the bishop, but the term was more especially applied to bishops in partibus infidelium, who assisted regular diocesan bishops, and also to designate the relation of the latter to their Metropolitans.",
  "Comment": "",
  "License": "Public Domain in the USA",
  "SourceURL": "https://oldpedia.org/article/ccrk/Suffragan",
  "SourceFileURL": "https://archive.org/details/concisecyclopedi00sanf",
  "LocalFileURL": "https://oldpedia.org/pdf/ccrk/concisecyclopedi00sanf.pdf",
  "ShortTitle": "",
  "BookTitle": "A Concise Cyclopedia of Religious Knowledge",
  "BookTitleLong": "A Concise Cyclopedia of Religious Knowledge: Biblical, Biographical, Geographical, Historical, Practical and Theological",
  "BookEdition": "",
  "BookEditors": [
    "Elias Benjamin Sanford"
  ],
  "BookVolumeNumber": "",
  "BookPublisher": "Funk & Wagnall Company",
  "BookCopyrightDate": "1890",
  "BookPrintingDate": "1895",
  "PublicationDate": "1895",
  "CreatorNames": [
    "Elias Benjamin Sanford"
  ],
  "ContributorNames": [],
  "Rating": []
}