{
  "ZWIversion": 1.4,
  "GeneratorName": "AutoZWI",
  "Title": "Malay Archipelago, or Indian Archipelago",
  "Lang": "en",
  "Content": {
    "article.html": "ee831f3b693146749218ef8f3141391a9f39ef92",
    "article.txt": "f2a2dd30fdce37d9abf269f7e7b5a3c308af66b5"
  },
  "Primary": "article.html",
  "Publisher": "ccrk",
  "LastModified": "1708959423",
  "TimeCreated": "1708959423",
  "Categories": [
    "Religion",
    "Christianity"
  ],
  "Topics": [],
  "Description": "Malay Archipelago, or Indian Archipelago. Besides the native religions, which hold to a rude sort of nature-worship, Mohammedanism and Buddhism have many adherents. Early in the seventeenth century these islands came under the control of the Dutch, who still hold them. Almost coercive attempts were early made by them to secure converts to the Reform",
  "Comment": "",
  "License": "Public Domain in the USA",
  "SourceURL": "https://oldpedia.org/article/ccrk/Malay Archipelago, or Indian Archipelago",
  "SourceFileURL": "https://archive.org/details/concisecyclopedi00sanf",
  "LocalFileURL": "https://oldpedia.org/pdf/ccrk/concisecyclopedi00sanf.pdf",
  "ShortTitle": "",
  "BookTitle": "A Concise Cyclopedia of Religious Knowledge",
  "BookTitleLong": "A Concise Cyclopedia of Religious Knowledge: Biblical, Biographical, Geographical, Historical, Practical and Theological",
  "BookEdition": "",
  "BookEditors": [
    "Elias Benjamin Sanford"
  ],
  "BookVolumeNumber": "",
  "BookPublisher": "Funk & Wagnall Company",
  "BookCopyrightDate": "1890",
  "BookPrintingDate": "1895",
  "PublicationDate": "1895",
  "CreatorNames": [
    "Elias Benjamin Sanford"
  ],
  "ContributorNames": [],
  "Rating": []
}