{
  "ZWIversion": 1.4,
  "GeneratorName": "AutoZWI",
  "Title": "Agrippa, (1) Herod Agrippa",
  "Lang": "en",
  "Content": {
    "article.html": "852e55753b36d0e856a7d118f00c495722f65fd7",
    "article.txt": "eed81786cc98ae75900e424c3eb5ac9315ba2faa"
  },
  "Primary": "article.html",
  "Publisher": "ccrk",
  "LastModified": "1708959413",
  "TimeCreated": "1708959413",
  "Categories": [
    "Religion",
    "Christianity"
  ],
  "Topics": [],
  "Description": "Agrip'pa, (1) Herod Agrippa L, the grandson of Herod the Great. He was educated at Rome, and there imprisoned by Tiberius. Having gained the good-will of Caligula he wras made king. Identifying himself with the Pharisees, in order to please the Jews, he persecuted the apostles. By his orders James was beheaded, and Peter cast into prison. ",
  "Comment": "",
  "License": "Public Domain in the USA",
  "SourceURL": "https://oldpedia.org/article/ccrk/Agrippa, (1) Herod Agrippa",
  "SourceFileURL": "https://archive.org/details/concisecyclopedi00sanf",
  "LocalFileURL": "https://oldpedia.org/pdf/ccrk/concisecyclopedi00sanf.pdf",
  "ShortTitle": "",
  "BookTitle": "A Concise Cyclopedia of Religious Knowledge",
  "BookTitleLong": "A Concise Cyclopedia of Religious Knowledge: Biblical, Biographical, Geographical, Historical, Practical and Theological",
  "BookEdition": "",
  "BookEditors": [
    "Elias Benjamin Sanford"
  ],
  "BookVolumeNumber": "",
  "BookPublisher": "Funk & Wagnall Company",
  "BookCopyrightDate": "1890",
  "BookPrintingDate": "1895",
  "PublicationDate": "1895",
  "CreatorNames": [
    "Elias Benjamin Sanford"
  ],
  "ContributorNames": [],
  "Rating": []
}