{
  "ZWIversion": 1.4,
  "GeneratorName": "AutoZWI",
  "Title": "Hupfeld, Hermann",
  "Lang": "en",
  "Content": {
    "article.html": "e301ad7705a0a503a6a25bbc5e3425c5e32313fb",
    "article.txt": "a9ab8b716a42778b0f11c7d20e427e2dce46760a"
  },
  "Primary": "article.html",
  "Publisher": "ccrk",
  "LastModified": "1708959421",
  "TimeCreated": "1708959421",
  "Categories": [
    "Religion",
    "Christianity"
  ],
  "Topics": [],
  "Description": "Hupfeld, Hermann, a great German ex-egete; b. at Marburg, 1796; d. at Halle, 1866. In 1843 he became the successor of Gesenius at Halle. “He did not belong to the strict evangelical school, but he was the friend of a living biblical Christianity, the foe of all impiety, and a strict lover of truth and justice. ",
  "Comment": "",
  "License": "Public Domain in the USA",
  "SourceURL": "https://oldpedia.org/article/ccrk/Hupfeld, Hermann",
  "SourceFileURL": "https://archive.org/details/concisecyclopedi00sanf",
  "LocalFileURL": "https://oldpedia.org/pdf/ccrk/concisecyclopedi00sanf.pdf",
  "ShortTitle": "",
  "BookTitle": "A Concise Cyclopedia of Religious Knowledge",
  "BookTitleLong": "A Concise Cyclopedia of Religious Knowledge: Biblical, Biographical, Geographical, Historical, Practical and Theological",
  "BookEdition": "",
  "BookEditors": [
    "Elias Benjamin Sanford"
  ],
  "BookVolumeNumber": "",
  "BookPublisher": "Funk & Wagnall Company",
  "BookCopyrightDate": "1890",
  "BookPrintingDate": "1895",
  "PublicationDate": "1895",
  "CreatorNames": [
    "Elias Benjamin Sanford"
  ],
  "ContributorNames": [],
  "Rating": []
}