{
  "ZWIversion": 1.4,
  "GeneratorName": "AutoZWI",
  "Title": "Sabbath laws are constitutional",
  "Lang": "en",
  "Content": {
    "article.html": "780cf85b2f3bab76e2db37490a9beea8db48cbaf",
    "article.txt": "780dc65ecbdba908b9eff990dd4c80fde2eef17b"
  },
  "Primary": "article.html",
  "Publisher": "ccrk",
  "LastModified": "1708959427",
  "TimeCreated": "1708959427",
  "Categories": [
    "Religion",
    "Christianity"
  ],
  "Topics": [],
  "Description": "Sabbath laws are constitutional. The Supreme Courts of the twenty-five States in which the matter has been tested have so declared. This is one of the rare instances in which the final decisions in all the highest courts are all on one side. One of these decisions, that of Judge Thurman, of Ohio, was, in part, as follows: ",
  "Comment": "",
  "License": "Public Domain in the USA",
  "SourceURL": "https://oldpedia.org/article/ccrk/Sabbath laws are constitutional",
  "SourceFileURL": "https://archive.org/details/concisecyclopedi00sanf",
  "LocalFileURL": "https://oldpedia.org/pdf/ccrk/concisecyclopedi00sanf.pdf",
  "ShortTitle": "",
  "BookTitle": "A Concise Cyclopedia of Religious Knowledge",
  "BookTitleLong": "A Concise Cyclopedia of Religious Knowledge: Biblical, Biographical, Geographical, Historical, Practical and Theological",
  "BookEdition": "",
  "BookEditors": [
    "Elias Benjamin Sanford"
  ],
  "BookVolumeNumber": "",
  "BookPublisher": "Funk & Wagnall Company",
  "BookCopyrightDate": "1890",
  "BookPrintingDate": "1895",
  "PublicationDate": "1895",
  "CreatorNames": [
    "Elias Benjamin Sanford"
  ],
  "ContributorNames": [],
  "Rating": []
}