{
  "ZWIversion": 1.4,
  "GeneratorName": "AutoZWI",
  "Title": "Exercises, Spiritual",
  "Lang": "en",
  "Content": {
    "article.html": "162f5b4e736088fac2457114df46a589317e9070",
    "article.txt": "cf281063f1c56a780a2b802cc792ea2c4a8dc7a3"
  },
  "Primary": "article.html",
  "Publisher": "ccrk",
  "LastModified": "1708959419",
  "TimeCreated": "1708959419",
  "Categories": [
    "Religion",
    "Christianity"
  ],
  "Topics": [],
  "Description": "Exercises, Spiritual, a term used by Roman Catholics to denote certain exercises in meditation and mortification, partly as a penance, partly as a preparation for the Lord’s Supper, ordination, etc. It is practiced both by priests and laymen, generally under the direction of a confessor.",
  "Comment": "",
  "License": "Public Domain in the USA",
  "SourceURL": "https://oldpedia.org/article/ccrk/Exercises, Spiritual",
  "SourceFileURL": "https://archive.org/details/concisecyclopedi00sanf",
  "LocalFileURL": "https://oldpedia.org/pdf/ccrk/concisecyclopedi00sanf.pdf",
  "ShortTitle": "",
  "BookTitle": "A Concise Cyclopedia of Religious Knowledge",
  "BookTitleLong": "A Concise Cyclopedia of Religious Knowledge: Biblical, Biographical, Geographical, Historical, Practical and Theological",
  "BookEdition": "",
  "BookEditors": [
    "Elias Benjamin Sanford"
  ],
  "BookVolumeNumber": "",
  "BookPublisher": "Funk & Wagnall Company",
  "BookCopyrightDate": "1890",
  "BookPrintingDate": "1895",
  "PublicationDate": "1895",
  "CreatorNames": [
    "Elias Benjamin Sanford"
  ],
  "ContributorNames": [],
  "Rating": []
}