{
  "ZWIversion": 1.4,
  "GeneratorName": "AutoZWI",
  "Title": "Quinquagesima",
  "Lang": "en",
  "Content": {
    "article.html": "a88a2a20c715953ca54c68dd0dad4b16202c27ca",
    "article.txt": "9f7b3380a3ed21f6ff8b300b0cc924c76e8e2de1"
  },
  "Primary": "article.html",
  "Publisher": "ccrk",
  "LastModified": "1708959427",
  "TimeCreated": "1708959427",
  "Categories": [
    "Religion",
    "Christianity"
  ],
  "Topics": [],
  "Description": "Quinquagesima, the Sunday before Ash Wednesday. It was so named from the fact that it is fifty days before Easter.",
  "Comment": "",
  "License": "Public Domain in the USA",
  "SourceURL": "https://oldpedia.org/article/ccrk/Quinquagesima",
  "SourceFileURL": "https://archive.org/details/concisecyclopedi00sanf",
  "LocalFileURL": "https://oldpedia.org/pdf/ccrk/concisecyclopedi00sanf.pdf",
  "ShortTitle": "",
  "BookTitle": "A Concise Cyclopedia of Religious Knowledge",
  "BookTitleLong": "A Concise Cyclopedia of Religious Knowledge: Biblical, Biographical, Geographical, Historical, Practical and Theological",
  "BookEdition": "",
  "BookEditors": [
    "Elias Benjamin Sanford"
  ],
  "BookVolumeNumber": "",
  "BookPublisher": "Funk & Wagnall Company",
  "BookCopyrightDate": "1890",
  "BookPrintingDate": "1895",
  "PublicationDate": "1895",
  "CreatorNames": [
    "Elias Benjamin Sanford"
  ],
  "ContributorNames": [],
  "Rating": []
}