{
  "ZWIversion": 1.4,
  "GeneratorName": "AutoZWI",
  "Title": "Pisidi",
  "Lang": "en",
  "Content": {
    "article.html": "d2d2a6f96af042dda7ad357fb649d881d080e1d4",
    "article.txt": "a218d17d56376161ddf3a8dad5497b081451a8f0"
  },
  "Primary": "article.html",
  "Publisher": "ccrk",
  "LastModified": "1708959426",
  "TimeCreated": "1708959426",
  "Categories": [
    "Religion",
    "Christianity"
  ],
  "Topics": [],
  "Description": "Pisid'ia (fitehy), a district of Asia Minor north of Pamphylia, and south of Phrygia, The Taurus mountains run through it, cut by narrow defiles, with rushing torrents. This wild region was infested with robbertribes, and it may have been here that Paul was in perils of waters, in perils of robbers-(2 Cor. xi. ",
  "Comment": "",
  "License": "Public Domain in the USA",
  "SourceURL": "https://oldpedia.org/article/ccrk/Pisidi",
  "SourceFileURL": "https://archive.org/details/concisecyclopedi00sanf",
  "LocalFileURL": "https://oldpedia.org/pdf/ccrk/concisecyclopedi00sanf.pdf",
  "ShortTitle": "",
  "BookTitle": "A Concise Cyclopedia of Religious Knowledge",
  "BookTitleLong": "A Concise Cyclopedia of Religious Knowledge: Biblical, Biographical, Geographical, Historical, Practical and Theological",
  "BookEdition": "",
  "BookEditors": [
    "Elias Benjamin Sanford"
  ],
  "BookVolumeNumber": "",
  "BookPublisher": "Funk & Wagnall Company",
  "BookCopyrightDate": "1890",
  "BookPrintingDate": "1895",
  "PublicationDate": "1895",
  "CreatorNames": [
    "Elias Benjamin Sanford"
  ],
  "ContributorNames": [],
  "Rating": []
}