{
  "ZWIversion": 1.4,
  "GeneratorName": "AutoZWI",
  "Title": "Catharine",
  "Lang": "en",
  "Content": {
    "article.html": "9b75b3043a77944c22dcc89354ddf6cbe4524ecb",
    "article.txt": "51b64a0bbc9dc387a5636ad48c9d41c16785abdd"
  },
  "Primary": "article.html",
  "Publisher": "ccrk",
  "LastModified": "1708959416",
  "TimeCreated": "1708959416",
  "Categories": [
    "Religion",
    "Christianity"
  ],
  "Topics": [],
  "Description": "Cath'arine “is the name of several saints of the Roman Catholic Church. The simple designation of Saint Catharine, however, is given to a virgin, said to have been of royal descent in Alexandria, who, publicly confessing the gospel at a sacrificial feast appointed by the emperor Maximinus, was put to death in 307 A. ",
  "Comment": "",
  "License": "Public Domain in the USA",
  "SourceURL": "https://oldpedia.org/article/ccrk/Catharine",
  "SourceFileURL": "https://archive.org/details/concisecyclopedi00sanf",
  "LocalFileURL": "https://oldpedia.org/pdf/ccrk/concisecyclopedi00sanf.pdf",
  "ShortTitle": "",
  "BookTitle": "A Concise Cyclopedia of Religious Knowledge",
  "BookTitleLong": "A Concise Cyclopedia of Religious Knowledge: Biblical, Biographical, Geographical, Historical, Practical and Theological",
  "BookEdition": "",
  "BookEditors": [
    "Elias Benjamin Sanford"
  ],
  "BookVolumeNumber": "",
  "BookPublisher": "Funk & Wagnall Company",
  "BookCopyrightDate": "1890",
  "BookPrintingDate": "1895",
  "PublicationDate": "1895",
  "CreatorNames": [
    "Elias Benjamin Sanford"
  ],
  "ContributorNames": [],
  "Rating": []
}