{
  "ZWIversion": 1.4,
  "GeneratorName": "AutoZWI",
  "Title": "Apocrypha",
  "Lang": "en",
  "Content": {
    "article.html": "31e532f71be2b5fba1653e693ebf8640328a1460",
    "article.txt": "eea34097d05e724f096c465f38041aa0506cab82"
  },
  "Primary": "article.html",
  "Publisher": "ccrk",
  "LastModified": "1708959414",
  "TimeCreated": "1708959414",
  "Categories": [
    "Religion",
    "Christianity"
  ],
  "Topics": [],
  "Description": "Apocrypha and Pseudepigrapha of the Old Testament. After a careful examination of the scope of the biblical canon, the ancient church divided the mass of biblical literature, in the widest sense of the word, into three classes: (1) the canonical and inspired; (2) the non-canonical, but, on account of their long use, worthy of being read in the churc",
  "Comment": "",
  "License": "Public Domain in the USA",
  "SourceURL": "https://oldpedia.org/article/ccrk/Apocrypha",
  "SourceFileURL": "https://archive.org/details/concisecyclopedi00sanf",
  "LocalFileURL": "https://oldpedia.org/pdf/ccrk/concisecyclopedi00sanf.pdf",
  "ShortTitle": "",
  "BookTitle": "A Concise Cyclopedia of Religious Knowledge",
  "BookTitleLong": "A Concise Cyclopedia of Religious Knowledge: Biblical, Biographical, Geographical, Historical, Practical and Theological",
  "BookEdition": "",
  "BookEditors": [
    "Elias Benjamin Sanford"
  ],
  "BookVolumeNumber": "",
  "BookPublisher": "Funk & Wagnall Company",
  "BookCopyrightDate": "1890",
  "BookPrintingDate": "1895",
  "PublicationDate": "1895",
  "CreatorNames": [
    "Elias Benjamin Sanford"
  ],
  "ContributorNames": [],
  "Rating": []
}