{
  "ZWIversion": 1.4,
  "GeneratorName": "AutoZWI",
  "Title": "Boyle Lectures",
  "Lang": "en",
  "Content": {
    "article.html": "9bfa57bafea1362520ac66da293dbff8cdf18136",
    "article.txt": "fb52d703a2c7c3064e761a93911f12e28ae8c514"
  },
  "Primary": "article.html",
  "Publisher": "ccrk",
  "LastModified": "1708959415",
  "TimeCreated": "1708959415",
  "Categories": [
    "Religion",
    "Christianity"
  ],
  "Topics": [],
  "Description": "Boyle Lectures, founded and endowed by Robert Boyle (b. 1627; d. 1691), for the purpose of demonstrating “the truth of the Christian religion against atheists, theists, pagans, Jews, and Mahometans.” The course consists of eight sermons to be preached within the period of three years in the Chapel Royal, Whitehall. ",
  "Comment": "",
  "License": "Public Domain in the USA",
  "SourceURL": "https://oldpedia.org/article/ccrk/Boyle Lectures",
  "SourceFileURL": "https://archive.org/details/concisecyclopedi00sanf",
  "LocalFileURL": "https://oldpedia.org/pdf/ccrk/concisecyclopedi00sanf.pdf",
  "ShortTitle": "",
  "BookTitle": "A Concise Cyclopedia of Religious Knowledge",
  "BookTitleLong": "A Concise Cyclopedia of Religious Knowledge: Biblical, Biographical, Geographical, Historical, Practical and Theological",
  "BookEdition": "",
  "BookEditors": [
    "Elias Benjamin Sanford"
  ],
  "BookVolumeNumber": "",
  "BookPublisher": "Funk & Wagnall Company",
  "BookCopyrightDate": "1890",
  "BookPrintingDate": "1895",
  "PublicationDate": "1895",
  "CreatorNames": [
    "Elias Benjamin Sanford"
  ],
  "ContributorNames": [],
  "Rating": []
}