{
  "ZWIversion": 1.4,
  "GeneratorName": "AutoZWI",
  "Title": "Berquin (ber-han), Louis de",
  "Lang": "en",
  "Content": {
    "article.html": "522d6016b8f31b4191c47be045a3f364e47d935b",
    "article.txt": "e8c000c9f09112db502715787aa615e9b368c751"
  },
  "Primary": "article.html",
  "Publisher": "ccrk",
  "LastModified": "1708959415",
  "TimeCreated": "1708959415",
  "Categories": [
    "Religion",
    "Christianity"
  ],
  "Topics": [],
  "Description": "Berquin (ber-han), Louis de, b. at Passy about 1490; d. in Paris, April 17, 1529. After close investigation he became a convert to the doctrines of Luther. He was twice imprisoned on a charge of heresy, but, through the intercession of the king, was released the second time. Having openly attacked the Sorbonne, he was sentenced to have his tongue pi",
  "Comment": "",
  "License": "Public Domain in the USA",
  "SourceURL": "https://oldpedia.org/article/ccrk/Berquin (ber-han), Louis de",
  "SourceFileURL": "https://archive.org/details/concisecyclopedi00sanf",
  "LocalFileURL": "https://oldpedia.org/pdf/ccrk/concisecyclopedi00sanf.pdf",
  "ShortTitle": "",
  "BookTitle": "A Concise Cyclopedia of Religious Knowledge",
  "BookTitleLong": "A Concise Cyclopedia of Religious Knowledge: Biblical, Biographical, Geographical, Historical, Practical and Theological",
  "BookEdition": "",
  "BookEditors": [
    "Elias Benjamin Sanford"
  ],
  "BookVolumeNumber": "",
  "BookPublisher": "Funk & Wagnall Company",
  "BookCopyrightDate": "1890",
  "BookPrintingDate": "1895",
  "PublicationDate": "1895",
  "CreatorNames": [
    "Elias Benjamin Sanford"
  ],
  "ContributorNames": [],
  "Rating": []
}