{
  "ZWIversion": 1.4,
  "GeneratorName": "AutoZWI",
  "Title": "Religion comes from the Latin",
  "Lang": "en",
  "Content": {
    "article.html": "4a94971e4a1bc38ad4186d9a8268dce2df441b0f",
    "article.txt": "4e080e58f7433fd980fe6e0b33300beea8acf755"
  },
  "Primary": "article.html",
  "Publisher": "ccrk",
  "LastModified": "1708959427",
  "TimeCreated": "1708959427",
  "Categories": [
    "Religion",
    "Christianity"
  ],
  "Topics": [],
  "Description": "Religion comes from the Latin, either, according to Cicero, from relegere, “to reconsider” or “read over;” or, according to Lactantius and others (which seems the more probable derivation), from religare “to bind fast.” The word is sometimes used as synonymous with “sect;” but in a practical sense it is generally considered as the same with “godline",
  "Comment": "",
  "License": "Public Domain in the USA",
  "SourceURL": "https://oldpedia.org/article/ccrk/Religion comes from the Latin",
  "SourceFileURL": "https://archive.org/details/concisecyclopedi00sanf",
  "LocalFileURL": "https://oldpedia.org/pdf/ccrk/concisecyclopedi00sanf.pdf",
  "ShortTitle": "",
  "BookTitle": "A Concise Cyclopedia of Religious Knowledge",
  "BookTitleLong": "A Concise Cyclopedia of Religious Knowledge: Biblical, Biographical, Geographical, Historical, Practical and Theological",
  "BookEdition": "",
  "BookEditors": [
    "Elias Benjamin Sanford"
  ],
  "BookVolumeNumber": "",
  "BookPublisher": "Funk & Wagnall Company",
  "BookCopyrightDate": "1890",
  "BookPrintingDate": "1895",
  "PublicationDate": "1895",
  "CreatorNames": [
    "Elias Benjamin Sanford"
  ],
  "ContributorNames": [],
  "Rating": []
}