{
  "ZWIversion": 1.4,
  "GeneratorName": "AutoZWI",
  "Title": "Money",
  "Lang": "en",
  "Content": {
    "article.html": "d53809a6230b393d261ff3fb9aa2898f24ef705c",
    "article.txt": "5e566f8f8fef788a4eaec3be33ec6e4954420cc8"
  },
  "Primary": "article.html",
  "Publisher": "ccrk",
  "LastModified": "1708959424",
  "TimeCreated": "1708959424",
  "Categories": [
    "Religion",
    "Christianity"
  ],
  "Topics": [],
  "Description": "Money, Jewish. The following table gives the value of the Hebrew money-system in American money: Jewish. American. “A gerah (Exod. xxx. 13).........= o 2.73 logerahs = 1 bekah (Exod. xxxviii. 26) = o 27.37 2bekahs= 1 shekel (Exod. xxx. 13; Isa. vii. 23).....................= o 54.74 50shekels = 1 maneb..................... ",
  "Comment": "",
  "License": "Public Domain in the USA",
  "SourceURL": "https://oldpedia.org/article/ccrk/Money",
  "SourceFileURL": "https://archive.org/details/concisecyclopedi00sanf",
  "LocalFileURL": "https://oldpedia.org/pdf/ccrk/concisecyclopedi00sanf.pdf",
  "ShortTitle": "",
  "BookTitle": "A Concise Cyclopedia of Religious Knowledge",
  "BookTitleLong": "A Concise Cyclopedia of Religious Knowledge: Biblical, Biographical, Geographical, Historical, Practical and Theological",
  "BookEdition": "",
  "BookEditors": [
    "Elias Benjamin Sanford"
  ],
  "BookVolumeNumber": "",
  "BookPublisher": "Funk & Wagnall Company",
  "BookCopyrightDate": "1890",
  "BookPrintingDate": "1895",
  "PublicationDate": "1895",
  "CreatorNames": [
    "Elias Benjamin Sanford"
  ],
  "ContributorNames": [],
  "Rating": []
}