{
  "ZWIversion": 1.4,
  "GeneratorName": "AutoZWI",
  "Title": "Salt",
  "Lang": "en",
  "Content": {
    "article.html": "49d924a7c62c7e3b800b235825ce352e1d71a955",
    "article.txt": "fc0f6ace68a7d0d4b0f63c221ab91823829a05bf"
  },
  "Primary": "article.html",
  "Publisher": "ccrk",
  "LastModified": "1708959427",
  "TimeCreated": "1708959427",
  "Categories": [
    "Religion",
    "Christianity"
  ],
  "Topics": [],
  "Description": "Salt. “Indispensable as salt is to ourselves, it was even more so to the Hebrews, being to them not only an appetizing condiment in the food both of man (Job. vi. 6) and beast (Isa. xxx. 24, see margin), and a most valuable antidote to the effects of the heat of the climate on animal food, but also entering largely into their religious services as a",
  "Comment": "",
  "License": "Public Domain in the USA",
  "SourceURL": "https://oldpedia.org/article/ccrk/Salt",
  "SourceFileURL": "https://archive.org/details/concisecyclopedi00sanf",
  "LocalFileURL": "https://oldpedia.org/pdf/ccrk/concisecyclopedi00sanf.pdf",
  "ShortTitle": "",
  "BookTitle": "A Concise Cyclopedia of Religious Knowledge",
  "BookTitleLong": "A Concise Cyclopedia of Religious Knowledge: Biblical, Biographical, Geographical, Historical, Practical and Theological",
  "BookEdition": "",
  "BookEditors": [
    "Elias Benjamin Sanford"
  ],
  "BookVolumeNumber": "",
  "BookPublisher": "Funk & Wagnall Company",
  "BookCopyrightDate": "1890",
  "BookPrintingDate": "1895",
  "PublicationDate": "1895",
  "CreatorNames": [
    "Elias Benjamin Sanford"
  ],
  "ContributorNames": [],
  "Rating": []
}