{
  "ZWIversion": 1.4,
  "GeneratorName": "AutoZWI",
  "Title": "Christians of St. Thomas",
  "Lang": "en",
  "Content": {
    "article.html": "72aaab8cce135ebe87a03a38691c4840c0e125ea",
    "article.txt": "3b029c158fd1bdcf44717879c9a556fe9f066967"
  },
  "Primary": "article.html",
  "Publisher": "ccrk",
  "LastModified": "1708959416",
  "TimeCreated": "1708959416",
  "Categories": [
    "Religion",
    "Christianity"
  ],
  "Topics": [],
  "Description": "Christians of St. Thomas, the name of a Christian sect living on the Malabar coast. They claim to be descendants of converts made by St. Thomas on his visit to India. Probably they are of Nestorian origin. When the Portuguese conquered the country, efforts were made to convert them to the Roman Church, but they have kept a separate existence, althou",
  "Comment": "",
  "License": "Public Domain in the USA",
  "SourceURL": "https://oldpedia.org/article/ccrk/Christians of St. Thomas",
  "SourceFileURL": "https://archive.org/details/concisecyclopedi00sanf",
  "LocalFileURL": "https://oldpedia.org/pdf/ccrk/concisecyclopedi00sanf.pdf",
  "ShortTitle": "",
  "BookTitle": "A Concise Cyclopedia of Religious Knowledge",
  "BookTitleLong": "A Concise Cyclopedia of Religious Knowledge: Biblical, Biographical, Geographical, Historical, Practical and Theological",
  "BookEdition": "",
  "BookEditors": [
    "Elias Benjamin Sanford"
  ],
  "BookVolumeNumber": "",
  "BookPublisher": "Funk & Wagnall Company",
  "BookCopyrightDate": "1890",
  "BookPrintingDate": "1895",
  "PublicationDate": "1895",
  "CreatorNames": [
    "Elias Benjamin Sanford"
  ],
  "ContributorNames": [],
  "Rating": []
}