{
  "ZWIversion": 1.4,
  "GeneratorName": "AutoZWI",
  "Title": "Onkelos",
  "Lang": "en",
  "Content": {
    "article.html": "0e26c2da041884de3041509e9400815a69ccc332",
    "article.txt": "c7c08a916ad04b874fa5e9c2e50f121824903d27"
  },
  "Primary": "article.html",
  "Publisher": "ccrk",
  "LastModified": "1708959425",
  "TimeCreated": "1708959425",
  "Categories": [
    "Religion",
    "Christianity"
  ],
  "Topics": [],
  "Description": "Onkelos, the supposed author of an Aramaic version (Targum) of the Pentateuch, and other books of the Old Testament. He was a pupil of Gamaliel, and, as the Talmud informs us, a fellow-scholar with Paul. His Targum is a faithful translation. It may be found in the Bibles of Bomberg and Buxtorf, and in Walton’s Polyglot.",
  "Comment": "",
  "License": "Public Domain in the USA",
  "SourceURL": "https://oldpedia.org/article/ccrk/Onkelos",
  "SourceFileURL": "https://archive.org/details/concisecyclopedi00sanf",
  "LocalFileURL": "https://oldpedia.org/pdf/ccrk/concisecyclopedi00sanf.pdf",
  "ShortTitle": "",
  "BookTitle": "A Concise Cyclopedia of Religious Knowledge",
  "BookTitleLong": "A Concise Cyclopedia of Religious Knowledge: Biblical, Biographical, Geographical, Historical, Practical and Theological",
  "BookEdition": "",
  "BookEditors": [
    "Elias Benjamin Sanford"
  ],
  "BookVolumeNumber": "",
  "BookPublisher": "Funk & Wagnall Company",
  "BookCopyrightDate": "1890",
  "BookPrintingDate": "1895",
  "PublicationDate": "1895",
  "CreatorNames": [
    "Elias Benjamin Sanford"
  ],
  "ContributorNames": [],
  "Rating": []
}