{
  "ZWIversion": 1.4,
  "GeneratorName": "AutoZWI",
  "Title": "Socialism",
  "Lang": "en",
  "Content": {
    "article.html": "138e1796da04b239ce937227f525793033a0c8f5",
    "article.txt": "ed87859a41191b46d4d6713728a6f5daa766fe4d"
  },
  "Primary": "article.html",
  "Publisher": "ccrk",
  "LastModified": "1708959428",
  "TimeCreated": "1708959428",
  "Categories": [
    "Religion",
    "Christianity"
  ],
  "Topics": [],
  "Description": "Socialism. English socialism is defined by its founder, Robert Owen (1771—1858), as the Seienee of Happiness. Its object is to promote the well-being of man in soeiety first of all, his well-being as an individual necessarily following. Socialism is undeveloped positivism or Comtism (Positivism), and in this it is now for the most part merged. ",
  "Comment": "",
  "License": "Public Domain in the USA",
  "SourceURL": "https://oldpedia.org/article/ccrk/Socialism",
  "SourceFileURL": "https://archive.org/details/concisecyclopedi00sanf",
  "LocalFileURL": "https://oldpedia.org/pdf/ccrk/concisecyclopedi00sanf.pdf",
  "ShortTitle": "",
  "BookTitle": "A Concise Cyclopedia of Religious Knowledge",
  "BookTitleLong": "A Concise Cyclopedia of Religious Knowledge: Biblical, Biographical, Geographical, Historical, Practical and Theological",
  "BookEdition": "",
  "BookEditors": [
    "Elias Benjamin Sanford"
  ],
  "BookVolumeNumber": "",
  "BookPublisher": "Funk & Wagnall Company",
  "BookCopyrightDate": "1890",
  "BookPrintingDate": "1895",
  "PublicationDate": "1895",
  "CreatorNames": [
    "Elias Benjamin Sanford"
  ],
  "ContributorNames": [],
  "Rating": []
}