{
  "ZWIversion": 1.4,
  "GeneratorName": "AutoZWI",
  "Title": "Churching of Women",
  "Lang": "en",
  "Content": {
    "article.html": "c8e24989a849d25eab17403bad665d0608dc7292",
    "article.txt": "190b47fa19bad0fd1638f72e6143727192cb506a"
  },
  "Primary": "article.html",
  "Publisher": "ccrk",
  "LastModified": "1708959416",
  "TimeCreated": "1708959416",
  "Categories": [
    "Religion",
    "Christianity"
  ],
  "Topics": [],
  "Description": "Churching of Women, a religious usage prevailing in the Christian Church from an early period, of women, on their recovery after child-bearing, going to church to give thanks. It appears to have been borrowed from the Jewish law. (Lev. xii. 6.) In the Church of the early ages, it was accompanied with various rites; ",
  "Comment": "",
  "License": "Public Domain in the USA",
  "SourceURL": "https://oldpedia.org/article/ccrk/Churching of Women",
  "SourceFileURL": "https://archive.org/details/concisecyclopedi00sanf",
  "LocalFileURL": "https://oldpedia.org/pdf/ccrk/concisecyclopedi00sanf.pdf",
  "ShortTitle": "",
  "BookTitle": "A Concise Cyclopedia of Religious Knowledge",
  "BookTitleLong": "A Concise Cyclopedia of Religious Knowledge: Biblical, Biographical, Geographical, Historical, Practical and Theological",
  "BookEdition": "",
  "BookEditors": [
    "Elias Benjamin Sanford"
  ],
  "BookVolumeNumber": "",
  "BookPublisher": "Funk & Wagnall Company",
  "BookCopyrightDate": "1890",
  "BookPrintingDate": "1895",
  "PublicationDate": "1895",
  "CreatorNames": [
    "Elias Benjamin Sanford"
  ],
  "ContributorNames": [],
  "Rating": []
}