{
  "ZWIversion": 1.4,
  "GeneratorName": "AutoZWI",
  "Title": "Kempis, Thomas A",
  "Lang": "en",
  "Content": {
    "article.html": "19917546dfa6daea85269d945df9b127c1b5e050",
    "article.txt": "13c4f3b762275fe6b0e3b5024ea366acea909277"
  },
  "Primary": "article.html",
  "Publisher": "ccrk",
  "LastModified": "1708959422",
  "TimeCreated": "1708959422",
  "Categories": [
    "Religion",
    "Christianity"
  ],
  "Topics": [],
  "Description": "Kempis, Thomas A, the author of the Be Imitatione Christi (“The Imitation of Christ”); b. in 1379 or 1380, at Kempen, forty miles north of Cologne; d. July 26, 1471, at Zwolle, in the Netherlands. He was educated at a famous school in Deventer. In 1400 he entered the Augustine convent at Mount St. Agnes, near Zwolle; ",
  "Comment": "",
  "License": "Public Domain in the USA",
  "SourceURL": "https://oldpedia.org/article/ccrk/Kempis, Thomas A",
  "SourceFileURL": "https://archive.org/details/concisecyclopedi00sanf",
  "LocalFileURL": "https://oldpedia.org/pdf/ccrk/concisecyclopedi00sanf.pdf",
  "ShortTitle": "",
  "BookTitle": "A Concise Cyclopedia of Religious Knowledge",
  "BookTitleLong": "A Concise Cyclopedia of Religious Knowledge: Biblical, Biographical, Geographical, Historical, Practical and Theological",
  "BookEdition": "",
  "BookEditors": [
    "Elias Benjamin Sanford"
  ],
  "BookVolumeNumber": "",
  "BookPublisher": "Funk & Wagnall Company",
  "BookCopyrightDate": "1890",
  "BookPrintingDate": "1895",
  "PublicationDate": "1895",
  "CreatorNames": [
    "Elias Benjamin Sanford"
  ],
  "ContributorNames": [],
  "Rating": []
}