{
  "ZWIversion": 1.4,
  "GeneratorName": "AutoZWI",
  "Title": "Beghards and Beguines",
  "Lang": "en",
  "Content": {
    "article.html": "6d33533e47c79117bd79b30e7ca03ade6470121e",
    "article.txt": "c82e67db2fe72c5d4bc06b65044338e481262c46"
  },
  "Primary": "article.html",
  "Publisher": "ccrk",
  "LastModified": "1708959414",
  "TimeCreated": "1708959414",
  "Categories": [
    "Religion",
    "Christianity"
  ],
  "Topics": [],
  "Description": "Beghards and Beguines. Toward the end of the twelfth century, companies of women in several of the towns of the Netherlands banded together, under a simple rule, for the purpose of taking care of the sick, and for other charitable objects. They were generally widows and maidens of high rank. Some years later, companies of men were formed in a simila",
  "Comment": "",
  "License": "Public Domain in the USA",
  "SourceURL": "https://oldpedia.org/article/ccrk/Beghards and Beguines",
  "SourceFileURL": "https://archive.org/details/concisecyclopedi00sanf",
  "LocalFileURL": "https://oldpedia.org/pdf/ccrk/concisecyclopedi00sanf.pdf",
  "ShortTitle": "",
  "BookTitle": "A Concise Cyclopedia of Religious Knowledge",
  "BookTitleLong": "A Concise Cyclopedia of Religious Knowledge: Biblical, Biographical, Geographical, Historical, Practical and Theological",
  "BookEdition": "",
  "BookEditors": [
    "Elias Benjamin Sanford"
  ],
  "BookVolumeNumber": "",
  "BookPublisher": "Funk & Wagnall Company",
  "BookCopyrightDate": "1890",
  "BookPrintingDate": "1895",
  "PublicationDate": "1895",
  "CreatorNames": [
    "Elias Benjamin Sanford"
  ],
  "ContributorNames": [],
  "Rating": []
}