{
  "ZWIversion": 1.4,
  "GeneratorName": "AutoZWI",
  "Title": "Lachish",
  "Lang": "en",
  "Content": {
    "article.html": "6e386a90b736e8a41cd15bd38e09c058cb91fbec",
    "article.txt": "325b94051ed96a67e70ce63f2d5761e6589c7831"
  },
  "Primary": "article.html",
  "Publisher": "ccrk",
  "LastModified": "1708959423",
  "TimeCreated": "1708959423",
  "Categories": [
    "Religion",
    "Christianity"
  ],
  "Topics": [],
  "Description": "La'chish, a city of the Amorites, conquered by Joshua and allotted to Judah. It was fortified by Rehoboam after the revolt of the northern J, kingdom. (2 Chron. xi. 9.) Sennacherib besieged it when on his way from Phoenicia to Egypt. (2 Kings xviii. 13; Isa. xxxvi. 1.) This siege is considered by Layard and Hincks to be depicted on the slabs found b",
  "Comment": "",
  "License": "Public Domain in the USA",
  "SourceURL": "https://oldpedia.org/article/ccrk/Lachish",
  "SourceFileURL": "https://archive.org/details/concisecyclopedi00sanf",
  "LocalFileURL": "https://oldpedia.org/pdf/ccrk/concisecyclopedi00sanf.pdf",
  "ShortTitle": "",
  "BookTitle": "A Concise Cyclopedia of Religious Knowledge",
  "BookTitleLong": "A Concise Cyclopedia of Religious Knowledge: Biblical, Biographical, Geographical, Historical, Practical and Theological",
  "BookEdition": "",
  "BookEditors": [
    "Elias Benjamin Sanford"
  ],
  "BookVolumeNumber": "",
  "BookPublisher": "Funk & Wagnall Company",
  "BookCopyrightDate": "1890",
  "BookPrintingDate": "1895",
  "PublicationDate": "1895",
  "CreatorNames": [
    "Elias Benjamin Sanford"
  ],
  "ContributorNames": [],
  "Rating": []
}