{
  "ZWIversion": 1.4,
  "GeneratorName": "AutoZWI",
  "Title": "Gallaudet, Thomas H",
  "Lang": "en",
  "Content": {
    "article.html": "bad34f41d97cc717b4a644d444b38ab86aedcf9d",
    "article.txt": "5e5318588fe5a68aefaef34bc6a31da9b72abe7d"
  },
  "Primary": "article.html",
  "Publisher": "ccrk",
  "LastModified": "1708959420",
  "TimeCreated": "1708959420",
  "Categories": [
    "Religion",
    "Christianity"
  ],
  "Topics": [],
  "Description": "Gallaudet, Thomas H., b. at Philadelphia, Dec. 10, 1787; d. at Hartford, Sept. 9, 1851. After graduating at Yale College and Andover Seminary he became interested in the subject of deaf-mute instruction, and interested others in laying the foundation of an institution in Hartford. He visited Europe and studied the methods there in use. ",
  "Comment": "",
  "License": "Public Domain in the USA",
  "SourceURL": "https://oldpedia.org/article/ccrk/Gallaudet, Thomas H",
  "SourceFileURL": "https://archive.org/details/concisecyclopedi00sanf",
  "LocalFileURL": "https://oldpedia.org/pdf/ccrk/concisecyclopedi00sanf.pdf",
  "ShortTitle": "",
  "BookTitle": "A Concise Cyclopedia of Religious Knowledge",
  "BookTitleLong": "A Concise Cyclopedia of Religious Knowledge: Biblical, Biographical, Geographical, Historical, Practical and Theological",
  "BookEdition": "",
  "BookEditors": [
    "Elias Benjamin Sanford"
  ],
  "BookVolumeNumber": "",
  "BookPublisher": "Funk & Wagnall Company",
  "BookCopyrightDate": "1890",
  "BookPrintingDate": "1895",
  "PublicationDate": "1895",
  "CreatorNames": [
    "Elias Benjamin Sanford"
  ],
  "ContributorNames": [],
  "Rating": []
}