{
  "ZWIversion": 1.4,
  "GeneratorName": "AutoZWI",
  "Title": "Knox, John",
  "Lang": "en",
  "Content": {
    "article.html": "8ec86c031f2c14919e40c19bf33b7c3ece5e0133",
    "article.txt": "fec703dea3591555f18b0cc167c810d9e9a51128"
  },
  "Primary": "article.html",
  "Publisher": "ccrk",
  "LastModified": "1708959422",
  "TimeCreated": "1708959422",
  "Categories": [
    "Religion",
    "Christianity"
  ],
  "Topics": [],
  "Description": "Knox, John, b. at Haddington, in East Lothian, 1505; d, at Edinburgh, Nov. 24, 1572. He was the son of a small landowner, and was educated at the grammar school of Haddington, whence he proceeded to Glasgow University, and is mentioned among the Incorporati in 1522. There is no mention of his taking any degree, nor does he appear to have made any ma",
  "Comment": "",
  "License": "Public Domain in the USA",
  "SourceURL": "https://oldpedia.org/article/ccrk/Knox, John",
  "SourceFileURL": "https://archive.org/details/concisecyclopedi00sanf",
  "LocalFileURL": "https://oldpedia.org/pdf/ccrk/concisecyclopedi00sanf.pdf",
  "ShortTitle": "",
  "BookTitle": "A Concise Cyclopedia of Religious Knowledge",
  "BookTitleLong": "A Concise Cyclopedia of Religious Knowledge: Biblical, Biographical, Geographical, Historical, Practical and Theological",
  "BookEdition": "",
  "BookEditors": [
    "Elias Benjamin Sanford"
  ],
  "BookVolumeNumber": "",
  "BookPublisher": "Funk & Wagnall Company",
  "BookCopyrightDate": "1890",
  "BookPrintingDate": "1895",
  "PublicationDate": "1895",
  "CreatorNames": [
    "Elias Benjamin Sanford"
  ],
  "ContributorNames": [],
  "Rating": []
}