{
  "ZWIversion": 1.4,
  "GeneratorName": "AutoZWI",
  "Title": "Chrysostom",
  "Lang": "en",
  "Content": {
    "article.html": "6de7012044a5cc32f2daf661e7ce51cab6eeb559",
    "article.txt": "15fda9d5ba74d62e12a73151f5fbd7c7b598dca2"
  },
  "Primary": "article.html",
  "Publisher": "ccrk",
  "LastModified": "1708959416",
  "TimeCreated": "1708959416",
  "Categories": [
    "Religion",
    "Christianity"
  ],
  "Topics": [],
  "Description": "Chrys'ostom, John (Gr. Chrysostomos, golden-mouth; so named from the splendor of his eloquence), “was b. at Antioch, in 347 A. D. His mother, Anthusa, was a pious woman, wholly devoted to her son, who grew up, under her loving instructions, into an earnest, gentle, and serious youth, passing through, as Neander significantly observes, none of those",
  "Comment": "",
  "License": "Public Domain in the USA",
  "SourceURL": "https://oldpedia.org/article/ccrk/Chrysostom",
  "SourceFileURL": "https://archive.org/details/concisecyclopedi00sanf",
  "LocalFileURL": "https://oldpedia.org/pdf/ccrk/concisecyclopedi00sanf.pdf",
  "ShortTitle": "",
  "BookTitle": "A Concise Cyclopedia of Religious Knowledge",
  "BookTitleLong": "A Concise Cyclopedia of Religious Knowledge: Biblical, Biographical, Geographical, Historical, Practical and Theological",
  "BookEdition": "",
  "BookEditors": [
    "Elias Benjamin Sanford"
  ],
  "BookVolumeNumber": "",
  "BookPublisher": "Funk & Wagnall Company",
  "BookCopyrightDate": "1890",
  "BookPrintingDate": "1895",
  "PublicationDate": "1895",
  "CreatorNames": [
    "Elias Benjamin Sanford"
  ],
  "ContributorNames": [],
  "Rating": []
}