{
  "ZWIversion": 1.4,
  "GeneratorName": "AutoZWI",
  "Title": "Justification",
  "Lang": "en",
  "Content": {
    "article.html": "34a9d0e20125054ac90d636af9ca5ade0fe768e2",
    "article.txt": "3ba34828ea6262e0fe871f01003268cb04e4fc24"
  },
  "Primary": "article.html",
  "Publisher": "ccrk",
  "LastModified": "1708959422",
  "TimeCreated": "1708959422",
  "Categories": [
    "Religion",
    "Christianity"
  ],
  "Topics": [],
  "Description": "Justification. The exact signification of the words justification and justified, which occur repeatedly in St. Paul’s Epistles, has been the subject of prolonged controversy. That they imply a state in which the sinner, by reason of the redemption effected by Christ, is become acceptable to God, is not disputed; ",
  "Comment": "",
  "License": "Public Domain in the USA",
  "SourceURL": "https://oldpedia.org/article/ccrk/Justification",
  "SourceFileURL": "https://archive.org/details/concisecyclopedi00sanf",
  "LocalFileURL": "https://oldpedia.org/pdf/ccrk/concisecyclopedi00sanf.pdf",
  "ShortTitle": "",
  "BookTitle": "A Concise Cyclopedia of Religious Knowledge",
  "BookTitleLong": "A Concise Cyclopedia of Religious Knowledge: Biblical, Biographical, Geographical, Historical, Practical and Theological",
  "BookEdition": "",
  "BookEditors": [
    "Elias Benjamin Sanford"
  ],
  "BookVolumeNumber": "",
  "BookPublisher": "Funk & Wagnall Company",
  "BookCopyrightDate": "1890",
  "BookPrintingDate": "1895",
  "PublicationDate": "1895",
  "CreatorNames": [
    "Elias Benjamin Sanford"
  ],
  "ContributorNames": [],
  "Rating": []
}