{
  "ZWIversion": 1.4,
  "GeneratorName": "AutoZWI",
  "Title": "Punishment Among the Hebrews",
  "Lang": "en",
  "Content": {
    "article.html": "ace3052da3d11fe5fd1d2a9bf72afb49d47bdb27",
    "article.txt": "fd667ccf98ce0a1c8df8b6db869ed5acad61a724"
  },
  "Primary": "article.html",
  "Publisher": "ccrk",
  "LastModified": "1708959427",
  "TimeCreated": "1708959427",
  "Categories": [
    "Religion",
    "Christianity"
  ],
  "Topics": [],
  "Description": "Punishment Among the Hebrews. “Death was the punishment of striking or even reviling a parent (Exod. xxi. 15, 17): blasphemy (Lev. xxiv. 14, 16, 23); Sabbathbreaking (Num. xv. 32-36); witchcraft (Exod. xxii. 18); adultery (Lev. xx. 10); rape (Deut. xxii. 25); incestuous and unnatural connection (Lev. xx. 11. 14, 16); man-stealing (Exod. xxi. 16); ",
  "Comment": "",
  "License": "Public Domain in the USA",
  "SourceURL": "https://oldpedia.org/article/ccrk/Punishment Among the Hebrews",
  "SourceFileURL": "https://archive.org/details/concisecyclopedi00sanf",
  "LocalFileURL": "https://oldpedia.org/pdf/ccrk/concisecyclopedi00sanf.pdf",
  "ShortTitle": "",
  "BookTitle": "A Concise Cyclopedia of Religious Knowledge",
  "BookTitleLong": "A Concise Cyclopedia of Religious Knowledge: Biblical, Biographical, Geographical, Historical, Practical and Theological",
  "BookEdition": "",
  "BookEditors": [
    "Elias Benjamin Sanford"
  ],
  "BookVolumeNumber": "",
  "BookPublisher": "Funk & Wagnall Company",
  "BookCopyrightDate": "1890",
  "BookPrintingDate": "1895",
  "PublicationDate": "1895",
  "CreatorNames": [
    "Elias Benjamin Sanford"
  ],
  "ContributorNames": [],
  "Rating": []
}