{
  "ZWIversion": 1.4,
  "GeneratorName": "AutoZWI",
  "Title": "Neap",
  "Lang": "en",
  "Content": {
    "article.html": "1ddcbf119c225817b0ccc9aede95cee841318da3",
    "article.txt": "034352078e9ad6deba9912dd6a9dcba3393b509e"
  },
  "Primary": "article.html",
  "Publisher": "ccrk",
  "LastModified": "1708959425",
  "TimeCreated": "1708959425",
  "Categories": [
    "Religion",
    "Christianity"
  ],
  "Topics": [],
  "Description": "Neap olis (new city), memorable as the first place in Europe visited by Paul. (Acts xvi. 11.) He probably landed here on his second missionary tour, and it was from here he embarked on his last journey to Jerusalem. (Acts xx. 1, 6.) The town is eight or ten miles from Philippi in Northern Greece. It is now known as Ad-ralla, and numerous ruins are i",
  "Comment": "",
  "License": "Public Domain in the USA",
  "SourceURL": "https://oldpedia.org/article/ccrk/Neap",
  "SourceFileURL": "https://archive.org/details/concisecyclopedi00sanf",
  "LocalFileURL": "https://oldpedia.org/pdf/ccrk/concisecyclopedi00sanf.pdf",
  "ShortTitle": "",
  "BookTitle": "A Concise Cyclopedia of Religious Knowledge",
  "BookTitleLong": "A Concise Cyclopedia of Religious Knowledge: Biblical, Biographical, Geographical, Historical, Practical and Theological",
  "BookEdition": "",
  "BookEditors": [
    "Elias Benjamin Sanford"
  ],
  "BookVolumeNumber": "",
  "BookPublisher": "Funk & Wagnall Company",
  "BookCopyrightDate": "1890",
  "BookPrintingDate": "1895",
  "PublicationDate": "1895",
  "CreatorNames": [
    "Elias Benjamin Sanford"
  ],
  "ContributorNames": [],
  "Rating": []
}