{
  "ZWIversion": 1.4,
  "GeneratorName": "AutoZWI",
  "Title": "Judgment",
  "Lang": "en",
  "Content": {
    "article.html": "e73aa8bb3fded797d9e6708a99f289b992198148",
    "article.txt": "40b2a64af4db5655893995ba90ffd0f7230ade83"
  },
  "Primary": "article.html",
  "Publisher": "ccrk",
  "LastModified": "1708959422",
  "TimeCreated": "1708959422",
  "Categories": [
    "Religion",
    "Christianity"
  ],
  "Topics": [],
  "Description": "Judgment, Day of. The Old Testament is full of declarations of coming judgments of God, sometimes executed by virtue of prerogative as King, sometimes as one of the works of the promised Messiah. When our Lord declared his kingdom he spoke emphatically of this judgment, and connected it, not with ideas of abstract justice and retribution, but with h",
  "Comment": "",
  "License": "Public Domain in the USA",
  "SourceURL": "https://oldpedia.org/article/ccrk/Judgment",
  "SourceFileURL": "https://archive.org/details/concisecyclopedi00sanf",
  "LocalFileURL": "https://oldpedia.org/pdf/ccrk/concisecyclopedi00sanf.pdf",
  "ShortTitle": "",
  "BookTitle": "A Concise Cyclopedia of Religious Knowledge",
  "BookTitleLong": "A Concise Cyclopedia of Religious Knowledge: Biblical, Biographical, Geographical, Historical, Practical and Theological",
  "BookEdition": "",
  "BookEditors": [
    "Elias Benjamin Sanford"
  ],
  "BookVolumeNumber": "",
  "BookPublisher": "Funk & Wagnall Company",
  "BookCopyrightDate": "1890",
  "BookPrintingDate": "1895",
  "PublicationDate": "1895",
  "CreatorNames": [
    "Elias Benjamin Sanford"
  ],
  "ContributorNames": [],
  "Rating": []
}