{
  "ZWIversion": 1.4,
  "GeneratorName": "AutoZWI",
  "Title": "Fuller, Thomas",
  "Lang": "en",
  "Content": {
    "article.html": "2e6ab6304511b21b3ea70f69071f132a0e91c4bf",
    "article.txt": "5cfde8b8931f37683a8abc87260e56411a45a81c"
  },
  "Primary": "article.html",
  "Publisher": "ccrk",
  "LastModified": "1708959419",
  "TimeCreated": "1708959419",
  "Categories": [
    "Religion",
    "Christianity"
  ],
  "Topics": [],
  "Description": "Fuller, Thomas, the Church historian, was born in 1608, at Aldwinckle, in Northamptonshire, of which place his father was the clergyman. He went in 1620 to Queen’s College, Cambridge, and became M. A. in 1628. He was ordained, and in 1638 became prebendary of Salisbury. Here he wrote his first literary work, a poem which is now forgotten. ",
  "Comment": "",
  "License": "Public Domain in the USA",
  "SourceURL": "https://oldpedia.org/article/ccrk/Fuller, Thomas",
  "SourceFileURL": "https://archive.org/details/concisecyclopedi00sanf",
  "LocalFileURL": "https://oldpedia.org/pdf/ccrk/concisecyclopedi00sanf.pdf",
  "ShortTitle": "",
  "BookTitle": "A Concise Cyclopedia of Religious Knowledge",
  "BookTitleLong": "A Concise Cyclopedia of Religious Knowledge: Biblical, Biographical, Geographical, Historical, Practical and Theological",
  "BookEdition": "",
  "BookEditors": [
    "Elias Benjamin Sanford"
  ],
  "BookVolumeNumber": "",
  "BookPublisher": "Funk & Wagnall Company",
  "BookCopyrightDate": "1890",
  "BookPrintingDate": "1895",
  "PublicationDate": "1895",
  "CreatorNames": [
    "Elias Benjamin Sanford"
  ],
  "ContributorNames": [],
  "Rating": []
}