{
  "ZWIversion": 1.4,
  "GeneratorName": "AutoZWI",
  "Title": "Abbott, Jacob",
  "Lang": "en",
  "Content": {
    "article.html": "bcf7d3d26bc9b7da6a249ebf7b3668b1b129c1df",
    "article.txt": "9f1909f8d9579277abb918d8505ed08768f6c933"
  },
  "Primary": "article.html",
  "Publisher": "ccrk",
  "LastModified": "1708959413",
  "TimeCreated": "1708959413",
  "Categories": [
    "Religion",
    "Christianity"
  ],
  "Topics": [],
  "Description": "Abbott, Jacob, a popular writer for the young; b. at Hallowell, Me., Nov. 14, 1803; d. at Farmington, Me., Oct., 31, 1879. After he was graduated at Bowdoin College in 1820, he taught for many years, but during this time his pen was busy, and he finally devoted himself to literary work. He acquired great popularity as an author of books adapted to i",
  "Comment": "",
  "License": "Public Domain in the USA",
  "SourceURL": "https://oldpedia.org/article/ccrk/Abbott, Jacob",
  "SourceFileURL": "https://archive.org/details/concisecyclopedi00sanf",
  "LocalFileURL": "https://oldpedia.org/pdf/ccrk/concisecyclopedi00sanf.pdf",
  "ShortTitle": "",
  "BookTitle": "A Concise Cyclopedia of Religious Knowledge",
  "BookTitleLong": "A Concise Cyclopedia of Religious Knowledge: Biblical, Biographical, Geographical, Historical, Practical and Theological",
  "BookEdition": "",
  "BookEditors": [
    "Elias Benjamin Sanford"
  ],
  "BookVolumeNumber": "",
  "BookPublisher": "Funk & Wagnall Company",
  "BookCopyrightDate": "1890",
  "BookPrintingDate": "1895",
  "PublicationDate": "1895",
  "CreatorNames": [
    "Elias Benjamin Sanford"
  ],
  "ContributorNames": [],
  "Rating": []
}