{
  "ZWIversion": 1.4,
  "GeneratorName": "AutoZWI",
  "Title": "Devay, Matyas Biro",
  "Lang": "en",
  "Content": {
    "article.html": "3616d0df87ccbcef3576946e913a1a388ac682d6",
    "article.txt": "aeafda9e3c6573e2774fcf7cc3dccf762146e31a"
  },
  "Primary": "article.html",
  "Publisher": "ccrk",
  "LastModified": "1708959418",
  "TimeCreated": "1708959418",
  "Categories": [
    "Religion",
    "Christianity"
  ],
  "Topics": [],
  "Description": "Devay, Matyas Biro, a Hungarian reformer; d. about 1547. In 1529 he went to Wittenberg, and was with Luther for a year and a half. Upon returning home, he preached and wrote in favor of the doctrines of the Reformation. He was twice imprisoned. The last time he was kept in prison for nearly three years (1531 to 1534). ",
  "Comment": "",
  "License": "Public Domain in the USA",
  "SourceURL": "https://oldpedia.org/article/ccrk/Devay, Matyas Biro",
  "SourceFileURL": "https://archive.org/details/concisecyclopedi00sanf",
  "LocalFileURL": "https://oldpedia.org/pdf/ccrk/concisecyclopedi00sanf.pdf",
  "ShortTitle": "",
  "BookTitle": "A Concise Cyclopedia of Religious Knowledge",
  "BookTitleLong": "A Concise Cyclopedia of Religious Knowledge: Biblical, Biographical, Geographical, Historical, Practical and Theological",
  "BookEdition": "",
  "BookEditors": [
    "Elias Benjamin Sanford"
  ],
  "BookVolumeNumber": "",
  "BookPublisher": "Funk & Wagnall Company",
  "BookCopyrightDate": "1890",
  "BookPrintingDate": "1895",
  "PublicationDate": "1895",
  "CreatorNames": [
    "Elias Benjamin Sanford"
  ],
  "ContributorNames": [],
  "Rating": []
}