{
  "ZWIversion": 1.4,
  "GeneratorName": "AutoZWI",
  "Title": "Monothelites",
  "Lang": "en",
  "Content": {
    "article.html": "883450602f83a76cd32d138042441ce0886d9355",
    "article.txt": "82227281f0b39d967c11ee5c7e3f21352c526f3a"
  },
  "Primary": "article.html",
  "Publisher": "ccrk",
  "LastModified": "1708959424",
  "TimeCreated": "1708959424",
  "Categories": [
    "Religion",
    "Christianity"
  ],
  "Topics": [],
  "Description": "Monothelites. This heretical sect arose in the Eastern Church in the seventh century, through a desire to bring the doctrines of the Monophysites (y. v.) into harmony with the orthodox doctrines of the Church. The Emperor Heraclius was assured by one Paul, a man of great influence among the Armenian Monophysites, that the peace of the Church might b",
  "Comment": "",
  "License": "Public Domain in the USA",
  "SourceURL": "https://oldpedia.org/article/ccrk/Monothelites",
  "SourceFileURL": "https://archive.org/details/concisecyclopedi00sanf",
  "LocalFileURL": "https://oldpedia.org/pdf/ccrk/concisecyclopedi00sanf.pdf",
  "ShortTitle": "",
  "BookTitle": "A Concise Cyclopedia of Religious Knowledge",
  "BookTitleLong": "A Concise Cyclopedia of Religious Knowledge: Biblical, Biographical, Geographical, Historical, Practical and Theological",
  "BookEdition": "",
  "BookEditors": [
    "Elias Benjamin Sanford"
  ],
  "BookVolumeNumber": "",
  "BookPublisher": "Funk & Wagnall Company",
  "BookCopyrightDate": "1890",
  "BookPrintingDate": "1895",
  "PublicationDate": "1895",
  "CreatorNames": [
    "Elias Benjamin Sanford"
  ],
  "ContributorNames": [],
  "Rating": []
}