{
  "ZWIversion": 1.4,
  "GeneratorName": "AutoZWI",
  "Title": "Hicksites",
  "Lang": "en",
  "Content": {
    "article.html": "8f8a766344c1641dacfb22b771a0dad3047c7268",
    "article.txt": "f8f73a0be050552f63627eb23f7d4e8d2bb680b6"
  },
  "Primary": "article.html",
  "Publisher": "ccrk",
  "LastModified": "1708959421",
  "TimeCreated": "1708959421",
  "Categories": [
    "Religion",
    "Christianity"
  ],
  "Topics": [],
  "Description": "Hicksites. See Hicks and Friends.",
  "Comment": "",
  "License": "Public Domain in the USA",
  "SourceURL": "https://oldpedia.org/article/ccrk/Hicksites",
  "SourceFileURL": "https://archive.org/details/concisecyclopedi00sanf",
  "LocalFileURL": "https://oldpedia.org/pdf/ccrk/concisecyclopedi00sanf.pdf",
  "ShortTitle": "",
  "BookTitle": "A Concise Cyclopedia of Religious Knowledge",
  "BookTitleLong": "A Concise Cyclopedia of Religious Knowledge: Biblical, Biographical, Geographical, Historical, Practical and Theological",
  "BookEdition": "",
  "BookEditors": [
    "Elias Benjamin Sanford"
  ],
  "BookVolumeNumber": "",
  "BookPublisher": "Funk & Wagnall Company",
  "BookCopyrightDate": "1890",
  "BookPrintingDate": "1895",
  "PublicationDate": "1895",
  "CreatorNames": [
    "Elias Benjamin Sanford"
  ],
  "ContributorNames": [],
  "Rating": []
}