{
  "ZWIversion": 1.4,
  "GeneratorName": "AutoZWI",
  "Title": "Religious Dramas",
  "Lang": "en",
  "Content": {
    "article.html": "755ae149b849f9e5c9506925b1491bc66292eff5",
    "article.txt": "8e041e1af269954c1645021e416645554dddc5df"
  },
  "Primary": "article.html",
  "Publisher": "ccrk",
  "LastModified": "1708959427",
  "TimeCreated": "1708959427",
  "Categories": [
    "Religion",
    "Christianity"
  ],
  "Topics": [],
  "Description": "Religious Dramas. At a very early period the dramatic element began to develop in connection with Christian services. The keeping of festivals like Easter were accompanied by recitations that were cast in the form of rhymed dialogues, and costumes were added to represent the angels, the soldiers keeping watch, etc. ",
  "Comment": "",
  "License": "Public Domain in the USA",
  "SourceURL": "https://oldpedia.org/article/ccrk/Religious Dramas",
  "SourceFileURL": "https://archive.org/details/concisecyclopedi00sanf",
  "LocalFileURL": "https://oldpedia.org/pdf/ccrk/concisecyclopedi00sanf.pdf",
  "ShortTitle": "",
  "BookTitle": "A Concise Cyclopedia of Religious Knowledge",
  "BookTitleLong": "A Concise Cyclopedia of Religious Knowledge: Biblical, Biographical, Geographical, Historical, Practical and Theological",
  "BookEdition": "",
  "BookEditors": [
    "Elias Benjamin Sanford"
  ],
  "BookVolumeNumber": "",
  "BookPublisher": "Funk & Wagnall Company",
  "BookCopyrightDate": "1890",
  "BookPrintingDate": "1895",
  "PublicationDate": "1895",
  "CreatorNames": [
    "Elias Benjamin Sanford"
  ],
  "ContributorNames": [],
  "Rating": []
}