{
  "ZWIversion": 1.4,
  "GeneratorName": "AutoZWI",
  "Title": "Abstinence",
  "Lang": "en",
  "Content": {
    "article.html": "f211414d6eba37bb699be836c153118db952b893",
    "article.txt": "2876204a72fcf2afc8f41322b9d5ac22b929f7a0"
  },
  "Primary": "article.html",
  "Publisher": "ccrk",
  "LastModified": "1708959413",
  "TimeCreated": "1708959413",
  "Categories": [
    "Religion",
    "Christianity"
  ],
  "Topics": [],
  "Description": "Abstinence is that form of fasting in which the eating of certain kinds of foods, especially meat, is abstained from. Eggs, cheese, and butter are not included under the designation of animal food. See Fasting.",
  "Comment": "",
  "License": "Public Domain in the USA",
  "SourceURL": "https://oldpedia.org/article/ccrk/Abstinence",
  "SourceFileURL": "https://archive.org/details/concisecyclopedi00sanf",
  "LocalFileURL": "https://oldpedia.org/pdf/ccrk/concisecyclopedi00sanf.pdf",
  "ShortTitle": "",
  "BookTitle": "A Concise Cyclopedia of Religious Knowledge",
  "BookTitleLong": "A Concise Cyclopedia of Religious Knowledge: Biblical, Biographical, Geographical, Historical, Practical and Theological",
  "BookEdition": "",
  "BookEditors": [
    "Elias Benjamin Sanford"
  ],
  "BookVolumeNumber": "",
  "BookPublisher": "Funk & Wagnall Company",
  "BookCopyrightDate": "1890",
  "BookPrintingDate": "1895",
  "PublicationDate": "1895",
  "CreatorNames": [
    "Elias Benjamin Sanford"
  ],
  "ContributorNames": [],
  "Rating": []
}