{
  "ZWIversion": 1.4,
  "GeneratorName": "AutoZWI",
  "Title": "Gouge, William",
  "Lang": "en",
  "Content": {
    "article.html": "aecee8ba80b29f28533ae7e1a7c13ce3578b7662",
    "article.txt": "317b71a86a0e2adeb4d4af19e410219bb044789f"
  },
  "Primary": "article.html",
  "Publisher": "ccrk",
  "LastModified": "1708959420",
  "TimeCreated": "1708959420",
  "Categories": [
    "Religion",
    "Christianity"
  ],
  "Topics": [],
  "Description": "Gouge, William, an eminent Puritan divine; b. in Stratford Bow, Eng., 1575; d. in London, 1653. He was a graduate of Cambridge and a fellow of King’s College, where for some time he was lecturer on logic and philosophy. He was ordained in 1608 and was minister of St. Ann’s, Blackfriars, London, for forty-five years. ",
  "Comment": "",
  "License": "Public Domain in the USA",
  "SourceURL": "https://oldpedia.org/article/ccrk/Gouge, William",
  "SourceFileURL": "https://archive.org/details/concisecyclopedi00sanf",
  "LocalFileURL": "https://oldpedia.org/pdf/ccrk/concisecyclopedi00sanf.pdf",
  "ShortTitle": "",
  "BookTitle": "A Concise Cyclopedia of Religious Knowledge",
  "BookTitleLong": "A Concise Cyclopedia of Religious Knowledge: Biblical, Biographical, Geographical, Historical, Practical and Theological",
  "BookEdition": "",
  "BookEditors": [
    "Elias Benjamin Sanford"
  ],
  "BookVolumeNumber": "",
  "BookPublisher": "Funk & Wagnall Company",
  "BookCopyrightDate": "1890",
  "BookPrintingDate": "1895",
  "PublicationDate": "1895",
  "CreatorNames": [
    "Elias Benjamin Sanford"
  ],
  "ContributorNames": [],
  "Rating": []
}