{
  "ZWIversion": 1.4,
  "GeneratorName": "AutoZWI",
  "Title": "Calvin",
  "Lang": "en",
  "Content": {
    "article.html": "f93ce1fc667d5b4dfca192ff978c0f8e6638a9c6",
    "article.txt": "298e6e0fdcdfebeb80cdacfdf0a29cb5a6b67c83"
  },
  "Primary": "article.html",
  "Publisher": "ccrk",
  "LastModified": "1708959415",
  "TimeCreated": "1708959415",
  "Categories": [
    "Religion",
    "Christianity"
  ],
  "Topics": [],
  "Description": "Calvin was a man of indefatigable industry and very considerable learning, had a good memory, and was a brilliant writer. His earnestness on behalf of his opinions has, perhaps, never been surpassed; even Maimbourg and Moreri allowed him to be a person of wisdom and learning, of a very regular and sober life, and so far from covetousness that he die",
  "Comment": "",
  "License": "Public Domain in the USA",
  "SourceURL": "https://oldpedia.org/article/ccrk/Calvin",
  "SourceFileURL": "https://archive.org/details/concisecyclopedi00sanf",
  "LocalFileURL": "https://oldpedia.org/pdf/ccrk/concisecyclopedi00sanf.pdf",
  "ShortTitle": "",
  "BookTitle": "A Concise Cyclopedia of Religious Knowledge",
  "BookTitleLong": "A Concise Cyclopedia of Religious Knowledge: Biblical, Biographical, Geographical, Historical, Practical and Theological",
  "BookEdition": "",
  "BookEditors": [
    "Elias Benjamin Sanford"
  ],
  "BookVolumeNumber": "",
  "BookPublisher": "Funk & Wagnall Company",
  "BookCopyrightDate": "1890",
  "BookPrintingDate": "1895",
  "PublicationDate": "1895",
  "CreatorNames": [
    "Elias Benjamin Sanford"
  ],
  "ContributorNames": [],
  "Rating": []
}