{
  "ZWIversion": 1.4,
  "GeneratorName": "AutoZWI",
  "Title": "Gallicanism",
  "Lang": "en",
  "Content": {
    "article.html": "12ebef635bb07b3a02d0444f31a76cacd436ecd4",
    "article.txt": "b528ed992bead5430dc7b1359f57689b27b454be"
  },
  "Primary": "article.html",
  "Publisher": "ccrk",
  "LastModified": "1708959420",
  "TimeCreated": "1708959420",
  "Categories": [
    "Religion",
    "Christianity"
  ],
  "Topics": [],
  "Description": "Gallicanism denotes that spirit of nationality, which, within the Church of France, developed a peculiar set of customs, privileges, maxims, and views, especially with respect to her relations to Rome.—Mather. * Each arrondissement is divided into cantons, containing from ten to twenty communes.",
  "Comment": "",
  "License": "Public Domain in the USA",
  "SourceURL": "https://oldpedia.org/article/ccrk/Gallicanism",
  "SourceFileURL": "https://archive.org/details/concisecyclopedi00sanf",
  "LocalFileURL": "https://oldpedia.org/pdf/ccrk/concisecyclopedi00sanf.pdf",
  "ShortTitle": "",
  "BookTitle": "A Concise Cyclopedia of Religious Knowledge",
  "BookTitleLong": "A Concise Cyclopedia of Religious Knowledge: Biblical, Biographical, Geographical, Historical, Practical and Theological",
  "BookEdition": "",
  "BookEditors": [
    "Elias Benjamin Sanford"
  ],
  "BookVolumeNumber": "",
  "BookPublisher": "Funk & Wagnall Company",
  "BookCopyrightDate": "1890",
  "BookPrintingDate": "1895",
  "PublicationDate": "1895",
  "CreatorNames": [
    "Elias Benjamin Sanford"
  ],
  "ContributorNames": [],
  "Rating": []
}