{
  "ZWIversion": 1.4,
  "GeneratorName": "AutoZWI",
  "Title": "Arndt (arnt), Johann, German Lutheran",
  "Lang": "en",
  "Content": {
    "article.html": "fffddedf48759d14ad24e0e9790cc6a13f3377c1",
    "article.txt": "8ff4dd762a0369d8e11fe69cd71819c9ae82aafb"
  },
  "Primary": "article.html",
  "Publisher": "ccrk",
  "LastModified": "1708959414",
  "TimeCreated": "1708959414",
  "Categories": [
    "Religion",
    "Christianity"
  ],
  "Topics": [],
  "Description": "Arndt (arnt), Johann, German Lutheran; b. at Ballenstedt, Anhalt, Dec. 27, 1555; d. at Celle, Hanover, May 11, 1621; studied theology at Helmstedt, Wittenberg, Strasburg, and Basel; pastor at Badeborn, 1581; at Quedlinburg, 1590; at Braunschweig, 1599; at Eisleben, 1608; at Celle, 1611. His fame rests upon his mystical and devotional writings, which",
  "Comment": "",
  "License": "Public Domain in the USA",
  "SourceURL": "https://oldpedia.org/article/ccrk/Arndt (arnt), Johann, German Lutheran",
  "SourceFileURL": "https://archive.org/details/concisecyclopedi00sanf",
  "LocalFileURL": "https://oldpedia.org/pdf/ccrk/concisecyclopedi00sanf.pdf",
  "ShortTitle": "",
  "BookTitle": "A Concise Cyclopedia of Religious Knowledge",
  "BookTitleLong": "A Concise Cyclopedia of Religious Knowledge: Biblical, Biographical, Geographical, Historical, Practical and Theological",
  "BookEdition": "",
  "BookEditors": [
    "Elias Benjamin Sanford"
  ],
  "BookVolumeNumber": "",
  "BookPublisher": "Funk & Wagnall Company",
  "BookCopyrightDate": "1890",
  "BookPrintingDate": "1895",
  "PublicationDate": "1895",
  "CreatorNames": [
    "Elias Benjamin Sanford"
  ],
  "ContributorNames": [],
  "Rating": []
}