{
  "ZWIversion": 1.4,
  "GeneratorName": "AutoZWI",
  "Title": "Troa",
  "Lang": "en",
  "Content": {
    "article.html": "c8136db8b98b294ed9107ec57aec373f7a7aa51a",
    "article.txt": "d4526075031f52dede094bdd1195fd32945781f5"
  },
  "Primary": "article.html",
  "Publisher": "ccrk",
  "LastModified": "1708959429",
  "TimeCreated": "1708959429",
  "Categories": [
    "Religion",
    "Christianity"
  ],
  "Topics": [],
  "Description": "Tro'as, a city of Lesser Mysia in Asia Minor, on the sea-coast, six miles south of the entrance to the Hellespont. It was founded by Alexander the Great. A Roman colony was placed there during the reign of Augustus, and it became a place of great commercial importance. Paul visited Troas twice, and perhaps three times. (Acts xvi. 8—11; xx. 5, 6; ",
  "Comment": "",
  "License": "Public Domain in the USA",
  "SourceURL": "https://oldpedia.org/article/ccrk/Troa",
  "SourceFileURL": "https://archive.org/details/concisecyclopedi00sanf",
  "LocalFileURL": "https://oldpedia.org/pdf/ccrk/concisecyclopedi00sanf.pdf",
  "ShortTitle": "",
  "BookTitle": "A Concise Cyclopedia of Religious Knowledge",
  "BookTitleLong": "A Concise Cyclopedia of Religious Knowledge: Biblical, Biographical, Geographical, Historical, Practical and Theological",
  "BookEdition": "",
  "BookEditors": [
    "Elias Benjamin Sanford"
  ],
  "BookVolumeNumber": "",
  "BookPublisher": "Funk & Wagnall Company",
  "BookCopyrightDate": "1890",
  "BookPrintingDate": "1895",
  "PublicationDate": "1895",
  "CreatorNames": [
    "Elias Benjamin Sanford"
  ],
  "ContributorNames": [],
  "Rating": []
}