{
  "ZWIversion": 1.4,
  "GeneratorName": "AutoZWI",
  "Title": "Norway",
  "Lang": "en",
  "Content": {
    "article.html": "c912cda8eaa5d738c6cd1627117ffc73a06b2327",
    "article.txt": "20e8208953aee8d48ae27ecf7331d997970d7d55"
  },
  "Primary": "article.html",
  "Publisher": "ccrk",
  "LastModified": "1708959425",
  "TimeCreated": "1708959425",
  "Categories": [
    "Religion",
    "Christianity"
  ],
  "Topics": [],
  "Description": "Norway. Out of a population of 1, 802, 172 the Lutheran Church claims 1, 794, 934 adherents. Christianity was introduced into the country by Olaf Trygvason (9951000) and St. Olaf (1014-31), in the tenth and eleventh centuries. From 1387 to 1814 Norway, in its connection with Denmark, has a church history in common with the latter country. ",
  "Comment": "",
  "License": "Public Domain in the USA",
  "SourceURL": "https://oldpedia.org/article/ccrk/Norway",
  "SourceFileURL": "https://archive.org/details/concisecyclopedi00sanf",
  "LocalFileURL": "https://oldpedia.org/pdf/ccrk/concisecyclopedi00sanf.pdf",
  "ShortTitle": "",
  "BookTitle": "A Concise Cyclopedia of Religious Knowledge",
  "BookTitleLong": "A Concise Cyclopedia of Religious Knowledge: Biblical, Biographical, Geographical, Historical, Practical and Theological",
  "BookEdition": "",
  "BookEditors": [
    "Elias Benjamin Sanford"
  ],
  "BookVolumeNumber": "",
  "BookPublisher": "Funk & Wagnall Company",
  "BookCopyrightDate": "1890",
  "BookPrintingDate": "1895",
  "PublicationDate": "1895",
  "CreatorNames": [
    "Elias Benjamin Sanford"
  ],
  "ContributorNames": [],
  "Rating": []
}