{
  "ZWIversion": 1.4,
  "GeneratorName": "AutoZWI",
  "Title": "Mosque",
  "Lang": "en",
  "Content": {
    "article.html": "2c69f0cc14c189f3bc5cf48feaeac7d1128f351e",
    "article.txt": "09a5685b79ef0a7ca20af6e51cbc6158c3fd4d1b"
  },
  "Primary": "article.html",
  "Publisher": "ccrk",
  "LastModified": "1708959424",
  "TimeCreated": "1708959424",
  "Categories": [
    "Religion",
    "Christianity"
  ],
  "Topics": [],
  "Description": "Mosque, a Mohammedan place of worship. The word is derived, through the Italian?noschea, from the Arabic mesjid, a place of prayer. The form of the oldest mosques in Jerusalem and Cairo is evidently derived from that of the Christian basilica, the narthex being the origin of the court with its arcade, and the eastern apses representing the principal",
  "Comment": "",
  "License": "Public Domain in the USA",
  "SourceURL": "https://oldpedia.org/article/ccrk/Mosque",
  "SourceFileURL": "https://archive.org/details/concisecyclopedi00sanf",
  "LocalFileURL": "https://oldpedia.org/pdf/ccrk/concisecyclopedi00sanf.pdf",
  "ShortTitle": "",
  "BookTitle": "A Concise Cyclopedia of Religious Knowledge",
  "BookTitleLong": "A Concise Cyclopedia of Religious Knowledge: Biblical, Biographical, Geographical, Historical, Practical and Theological",
  "BookEdition": "",
  "BookEditors": [
    "Elias Benjamin Sanford"
  ],
  "BookVolumeNumber": "",
  "BookPublisher": "Funk & Wagnall Company",
  "BookCopyrightDate": "1890",
  "BookPrintingDate": "1895",
  "PublicationDate": "1895",
  "CreatorNames": [
    "Elias Benjamin Sanford"
  ],
  "ContributorNames": [],
  "Rating": []
}