{
  "ZWIversion": 1.4,
  "GeneratorName": "AutoZWI",
  "Title": "Ben",
  "Lang": "en",
  "Content": {
    "article.html": "624c7cb62ce22f9caf4e370dc368f54022e8d8a4",
    "article.txt": "ce6b8d1bb180ebd5fc5df19e8e65d03f69a394d7"
  },
  "Primary": "article.html",
  "Publisher": "ccrk",
  "LastModified": "1708959414",
  "TimeCreated": "1708959414",
  "Categories": [
    "Religion",
    "Christianity"
  ],
  "Topics": [],
  "Description": "Ben - ha'dad (son, i. e., worshiper of Hadad), the name of three Syrian kings. (1) The son of Tabrimon, who came to the relief of Asa, king of Judah, against Baa-sha, king of Israel. (1 Kings xvi. 18.) (2) A son of the preceding, who made war against Ahab and Jehoram. He was once defeated, but escaped by stratagem. ",
  "Comment": "",
  "License": "Public Domain in the USA",
  "SourceURL": "https://oldpedia.org/article/ccrk/Ben",
  "SourceFileURL": "https://archive.org/details/concisecyclopedi00sanf",
  "LocalFileURL": "https://oldpedia.org/pdf/ccrk/concisecyclopedi00sanf.pdf",
  "ShortTitle": "",
  "BookTitle": "A Concise Cyclopedia of Religious Knowledge",
  "BookTitleLong": "A Concise Cyclopedia of Religious Knowledge: Biblical, Biographical, Geographical, Historical, Practical and Theological",
  "BookEdition": "",
  "BookEditors": [
    "Elias Benjamin Sanford"
  ],
  "BookVolumeNumber": "",
  "BookPublisher": "Funk & Wagnall Company",
  "BookCopyrightDate": "1890",
  "BookPrintingDate": "1895",
  "PublicationDate": "1895",
  "CreatorNames": [
    "Elias Benjamin Sanford"
  ],
  "ContributorNames": [],
  "Rating": []
}