{
  "ZWIversion": 1.4,
  "GeneratorName": "AutoZWI",
  "Title": "Concord, Formula of",
  "Lang": "en",
  "Content": {
    "article.html": "89ce259974e2e5f658e270705379abbe82d3aa2f",
    "article.txt": "f1db8d4a46e05c54ecd1c71e056d69221f3f7085"
  },
  "Primary": "article.html",
  "Publisher": "ccrk",
  "LastModified": "1708959417",
  "TimeCreated": "1708959417",
  "Categories": [
    "Religion",
    "Christianity"
  ],
  "Topics": [],
  "Description": "Concord, Formula of, the last of the six symbolical books of the Lutheran Church, adopted in 1580. It consists of two parts, the Dpitome, and the Solid Repetition and Declaration, each containing twelve articles. See Schaff: Creeds of Christendom, vol. i., 258-340.",
  "Comment": "",
  "License": "Public Domain in the USA",
  "SourceURL": "https://oldpedia.org/article/ccrk/Concord, Formula of",
  "SourceFileURL": "https://archive.org/details/concisecyclopedi00sanf",
  "LocalFileURL": "https://oldpedia.org/pdf/ccrk/concisecyclopedi00sanf.pdf",
  "ShortTitle": "",
  "BookTitle": "A Concise Cyclopedia of Religious Knowledge",
  "BookTitleLong": "A Concise Cyclopedia of Religious Knowledge: Biblical, Biographical, Geographical, Historical, Practical and Theological",
  "BookEdition": "",
  "BookEditors": [
    "Elias Benjamin Sanford"
  ],
  "BookVolumeNumber": "",
  "BookPublisher": "Funk & Wagnall Company",
  "BookCopyrightDate": "1890",
  "BookPrintingDate": "1895",
  "PublicationDate": "1895",
  "CreatorNames": [
    "Elias Benjamin Sanford"
  ],
  "ContributorNames": [],
  "Rating": []
}