{
  "ZWIversion": 1.4,
  "GeneratorName": "AutoZWI",
  "Title": "Morse, Jedediah",
  "Lang": "en",
  "Content": {
    "article.html": "5b4c48a4586fadb858723832bf1bef96702f97a4",
    "article.txt": "49f8f38d5e61ca96cbb070146552e0566b6927d6"
  },
  "Primary": "article.html",
  "Publisher": "ccrk",
  "LastModified": "1708959424",
  "TimeCreated": "1708959424",
  "Categories": [
    "Religion",
    "Christianity"
  ],
  "Topics": [],
  "Description": "Morse, Jedediah, D. D., b. at Woodstock, Conn., Aug. 23, 1761; d. in New Haven, June 9, 1826. After graduating at Yale College, 1783, where he remained as tutor for a time, he was called to the pastorate of the First Congregational Church of Charlestown, Mass., where he remained from 1789 to 1820. He took a prominent part in the Unitarian controvers",
  "Comment": "",
  "License": "Public Domain in the USA",
  "SourceURL": "https://oldpedia.org/article/ccrk/Morse, Jedediah",
  "SourceFileURL": "https://archive.org/details/concisecyclopedi00sanf",
  "LocalFileURL": "https://oldpedia.org/pdf/ccrk/concisecyclopedi00sanf.pdf",
  "ShortTitle": "",
  "BookTitle": "A Concise Cyclopedia of Religious Knowledge",
  "BookTitleLong": "A Concise Cyclopedia of Religious Knowledge: Biblical, Biographical, Geographical, Historical, Practical and Theological",
  "BookEdition": "",
  "BookEditors": [
    "Elias Benjamin Sanford"
  ],
  "BookVolumeNumber": "",
  "BookPublisher": "Funk & Wagnall Company",
  "BookCopyrightDate": "1890",
  "BookPrintingDate": "1895",
  "PublicationDate": "1895",
  "CreatorNames": [
    "Elias Benjamin Sanford"
  ],
  "ContributorNames": [],
  "Rating": []
}