{
  "ZWIversion": 1.4,
  "GeneratorName": "AutoZWI",
  "Title": "Grove",
  "Lang": "en",
  "Content": {
    "article.html": "48c67249ea31480c8abd6b95983c830717975f1c",
    "article.txt": "93acb60ccc7418ed61d5f2fd7add30f2ae5b80ae"
  },
  "Primary": "article.html",
  "Publisher": "ccrk",
  "LastModified": "1708959420",
  "TimeCreated": "1708959420",
  "Categories": [
    "Religion",
    "Christianity"
  ],
  "Topics": [],
  "Description": "Grove. “A word used in the A. V., with two exceptions, to translate the mysterious Hebrew term, Asherah, which is not a grove, but probably an idol or image of some kind. (See Asherah.) It is also probable that there was a connection between this symbol or image, whatever it was, and the sacred symbolic tree, the representation of which occurs so fr",
  "Comment": "",
  "License": "Public Domain in the USA",
  "SourceURL": "https://oldpedia.org/article/ccrk/Grove",
  "SourceFileURL": "https://archive.org/details/concisecyclopedi00sanf",
  "LocalFileURL": "https://oldpedia.org/pdf/ccrk/concisecyclopedi00sanf.pdf",
  "ShortTitle": "",
  "BookTitle": "A Concise Cyclopedia of Religious Knowledge",
  "BookTitleLong": "A Concise Cyclopedia of Religious Knowledge: Biblical, Biographical, Geographical, Historical, Practical and Theological",
  "BookEdition": "",
  "BookEditors": [
    "Elias Benjamin Sanford"
  ],
  "BookVolumeNumber": "",
  "BookPublisher": "Funk & Wagnall Company",
  "BookCopyrightDate": "1890",
  "BookPrintingDate": "1895",
  "PublicationDate": "1895",
  "CreatorNames": [
    "Elias Benjamin Sanford"
  ],
  "ContributorNames": [],
  "Rating": []
}