{
  "ZWIversion": 1.4,
  "GeneratorName": "AutoZWI",
  "Title": "Park, Edwards Amasa",
  "Lang": "en",
  "Content": {
    "article.html": "7ee103f069abebad50017779870414a5fc11094f",
    "article.txt": "06ba2baa9b69d6a172a1a69969210ec740f0e9be"
  },
  "Primary": "article.html",
  "Publisher": "ccrk",
  "LastModified": "1708959426",
  "TimeCreated": "1708959426",
  "Categories": [
    "Religion",
    "Christianity"
  ],
  "Topics": [],
  "Description": "Park, Edwards Amasa, D. D. (Harvard University, 1844), b. at Providence, R. I., Dec. 29, 1808; was graduated at Brown University, 1826; at Andover Theological Seminary, 1831; was pastor at Braintree, Mass., 1831-33; professor of mental and moral philosophy at Amherst College, 1835-36; professor of sacred rhetoric at Andover Theological Seminary, 183",
  "Comment": "",
  "License": "Public Domain in the USA",
  "SourceURL": "https://oldpedia.org/article/ccrk/Park, Edwards Amasa",
  "SourceFileURL": "https://archive.org/details/concisecyclopedi00sanf",
  "LocalFileURL": "https://oldpedia.org/pdf/ccrk/concisecyclopedi00sanf.pdf",
  "ShortTitle": "",
  "BookTitle": "A Concise Cyclopedia of Religious Knowledge",
  "BookTitleLong": "A Concise Cyclopedia of Religious Knowledge: Biblical, Biographical, Geographical, Historical, Practical and Theological",
  "BookEdition": "",
  "BookEditors": [
    "Elias Benjamin Sanford"
  ],
  "BookVolumeNumber": "",
  "BookPublisher": "Funk & Wagnall Company",
  "BookCopyrightDate": "1890",
  "BookPrintingDate": "1895",
  "PublicationDate": "1895",
  "CreatorNames": [
    "Elias Benjamin Sanford"
  ],
  "ContributorNames": [],
  "Rating": []
}