{
  "ZWIversion": 1.4,
  "GeneratorName": "AutoZWI",
  "Title": "Phrygia",
  "Lang": "en",
  "Content": {
    "article.html": "68824ccaca9ab8131f703c4366233b25828f15b6",
    "article.txt": "d7804a10bb39ee2d445214da8b136debb9c110e9"
  },
  "Primary": "article.html",
  "Publisher": "ccrk",
  "LastModified": "1708959426",
  "TimeCreated": "1708959426",
  "Categories": [
    "Religion",
    "Christianity"
  ],
  "Topics": [],
  "Description": "Phryg'ia. Occupying the central portion of Asia Minor, its boundaries varied at different times, and it furnished parts to several Roman provinces. (Acts ii. 10.) Paul passed through Phrygia on his second (Acts xvi. 6) and third (xviii. 23) missionary tours. The inhabitants of this region were of Indo-Germanic descent, and allied to the Armenians; ",
  "Comment": "",
  "License": "Public Domain in the USA",
  "SourceURL": "https://oldpedia.org/article/ccrk/Phrygia",
  "SourceFileURL": "https://archive.org/details/concisecyclopedi00sanf",
  "LocalFileURL": "https://oldpedia.org/pdf/ccrk/concisecyclopedi00sanf.pdf",
  "ShortTitle": "",
  "BookTitle": "A Concise Cyclopedia of Religious Knowledge",
  "BookTitleLong": "A Concise Cyclopedia of Religious Knowledge: Biblical, Biographical, Geographical, Historical, Practical and Theological",
  "BookEdition": "",
  "BookEditors": [
    "Elias Benjamin Sanford"
  ],
  "BookVolumeNumber": "",
  "BookPublisher": "Funk & Wagnall Company",
  "BookCopyrightDate": "1890",
  "BookPrintingDate": "1895",
  "PublicationDate": "1895",
  "CreatorNames": [
    "Elias Benjamin Sanford"
  ],
  "ContributorNames": [],
  "Rating": []
}