{
  "ZWIversion": 1.4,
  "GeneratorName": "AutoZWI",
  "Title": "Clovis",
  "Lang": "en",
  "Content": {
    "article.html": "90bfcc07f95adc7cb32bf3af42262c23a31696df",
    "article.txt": "c62b63b7894dd21cf4d6269ec0a9cb204aff4dd4"
  },
  "Primary": "article.html",
  "Publisher": "ccrk",
  "LastModified": "1708959417",
  "TimeCreated": "1708959417",
  "Categories": [
    "Religion",
    "Christianity"
  ],
  "Topics": [],
  "Description": "Clovis, king of the Franks, and founder of the Frankish Empire in ancient Gaul. He was a heathen when he was invited by the Christian clergy to invade Gaul, they being moved by the desire to extinguish the Arianism professed by the native dwellers. He was baptized at Rheims on Christmas Day, 496.",
  "Comment": "",
  "License": "Public Domain in the USA",
  "SourceURL": "https://oldpedia.org/article/ccrk/Clovis",
  "SourceFileURL": "https://archive.org/details/concisecyclopedi00sanf",
  "LocalFileURL": "https://oldpedia.org/pdf/ccrk/concisecyclopedi00sanf.pdf",
  "ShortTitle": "",
  "BookTitle": "A Concise Cyclopedia of Religious Knowledge",
  "BookTitleLong": "A Concise Cyclopedia of Religious Knowledge: Biblical, Biographical, Geographical, Historical, Practical and Theological",
  "BookEdition": "",
  "BookEditors": [
    "Elias Benjamin Sanford"
  ],
  "BookVolumeNumber": "",
  "BookPublisher": "Funk & Wagnall Company",
  "BookCopyrightDate": "1890",
  "BookPrintingDate": "1895",
  "PublicationDate": "1895",
  "CreatorNames": [
    "Elias Benjamin Sanford"
  ],
  "ContributorNames": [],
  "Rating": []
}