{
  "ZWIversion": 1.4,
  "GeneratorName": "AutoZWI",
  "Title": "Arphaxa",
  "Lang": "en",
  "Content": {
    "article.html": "bdc749898a4a794c65cba24531c95cf59ffd23a8",
    "article.txt": "cd8812f1bdc07144aeef6b165c151bb89e3557f6"
  },
  "Primary": "article.html",
  "Publisher": "ccrk",
  "LastModified": "1708959414",
  "TimeCreated": "1708959414",
  "Categories": [
    "Religion",
    "Christianity"
  ],
  "Topics": [],
  "Description": "Arphax'ad, “the son of Shem and ancestor of Eber. (Gen. x. 22, 24; xi. 10-13.) According to Josephus he was also progenitor of the Chaldaeans. There has been much discussion regarding the etymology of the name: The interpretations, ‘ the border of the Chaldaeans,’ ‘ the stronghold of the Chaldaeans,’ are open to objection because of the erroneous co",
  "Comment": "",
  "License": "Public Domain in the USA",
  "SourceURL": "https://oldpedia.org/article/ccrk/Arphaxa",
  "SourceFileURL": "https://archive.org/details/concisecyclopedi00sanf",
  "LocalFileURL": "https://oldpedia.org/pdf/ccrk/concisecyclopedi00sanf.pdf",
  "ShortTitle": "",
  "BookTitle": "A Concise Cyclopedia of Religious Knowledge",
  "BookTitleLong": "A Concise Cyclopedia of Religious Knowledge: Biblical, Biographical, Geographical, Historical, Practical and Theological",
  "BookEdition": "",
  "BookEditors": [
    "Elias Benjamin Sanford"
  ],
  "BookVolumeNumber": "",
  "BookPublisher": "Funk & Wagnall Company",
  "BookCopyrightDate": "1890",
  "BookPrintingDate": "1895",
  "PublicationDate": "1895",
  "CreatorNames": [
    "Elias Benjamin Sanford"
  ],
  "ContributorNames": [],
  "Rating": []
}