{
  "ZWIversion": 1.4,
  "GeneratorName": "AutoZWI",
  "Title": "Salisbury, John of. See John of",
  "Lang": "en",
  "Content": {
    "article.html": "26cd1a25cf5f353700d39678fd26038312e807a3",
    "article.txt": "6eda5536f926743f748441494c687c94e2e5d771"
  },
  "Primary": "article.html",
  "Publisher": "ccrk",
  "LastModified": "1708959427",
  "TimeCreated": "1708959427",
  "Categories": [
    "Religion",
    "Christianity"
  ],
  "Topics": [],
  "Description": "Salisbury, John of. See John of Salisbury.",
  "Comment": "",
  "License": "Public Domain in the USA",
  "SourceURL": "https://oldpedia.org/article/ccrk/Salisbury, John of. See John of",
  "SourceFileURL": "https://archive.org/details/concisecyclopedi00sanf",
  "LocalFileURL": "https://oldpedia.org/pdf/ccrk/concisecyclopedi00sanf.pdf",
  "ShortTitle": "",
  "BookTitle": "A Concise Cyclopedia of Religious Knowledge",
  "BookTitleLong": "A Concise Cyclopedia of Religious Knowledge: Biblical, Biographical, Geographical, Historical, Practical and Theological",
  "BookEdition": "",
  "BookEditors": [
    "Elias Benjamin Sanford"
  ],
  "BookVolumeNumber": "",
  "BookPublisher": "Funk & Wagnall Company",
  "BookCopyrightDate": "1890",
  "BookPrintingDate": "1895",
  "PublicationDate": "1895",
  "CreatorNames": [
    "Elias Benjamin Sanford"
  ],
  "ContributorNames": [],
  "Rating": []
}