{
  "ZWIversion": 1.4,
  "GeneratorName": "AutoZWI",
  "Title": "Anglo-Catholics",
  "Lang": "en",
  "Content": {
    "article.html": "9fd82b157dd28cf158aba41bf69cdcc8ca32d619",
    "article.txt": "d7ed00754c89dca03d2ce95d15dc1fa2b167d3da"
  },
  "Primary": "article.html",
  "Publisher": "ccrk",
  "LastModified": "1708959413",
  "TimeCreated": "1708959413",
  "Categories": [
    "Religion",
    "Christianity"
  ],
  "Topics": [],
  "Description": "Anglo-Catholics, a designation frequently assumed by the earlier members of the High-Church party to indicate their community of faith and practice with the churches in open communion with Rome, and with the Catholic Churches of the East and West, rather than with Protestants. Anglo-Saxons, Conversion of the. ",
  "Comment": "",
  "License": "Public Domain in the USA",
  "SourceURL": "https://oldpedia.org/article/ccrk/Anglo-Catholics",
  "SourceFileURL": "https://archive.org/details/concisecyclopedi00sanf",
  "LocalFileURL": "https://oldpedia.org/pdf/ccrk/concisecyclopedi00sanf.pdf",
  "ShortTitle": "",
  "BookTitle": "A Concise Cyclopedia of Religious Knowledge",
  "BookTitleLong": "A Concise Cyclopedia of Religious Knowledge: Biblical, Biographical, Geographical, Historical, Practical and Theological",
  "BookEdition": "",
  "BookEditors": [
    "Elias Benjamin Sanford"
  ],
  "BookVolumeNumber": "",
  "BookPublisher": "Funk & Wagnall Company",
  "BookCopyrightDate": "1890",
  "BookPrintingDate": "1895",
  "PublicationDate": "1895",
  "CreatorNames": [
    "Elias Benjamin Sanford"
  ],
  "ContributorNames": [],
  "Rating": []
}