{
  "ZWIversion": 1.4,
  "GeneratorName": "AutoZWI",
  "Title": "Barlaam",
  "Lang": "en",
  "Content": {
    "article.html": "26784145e1c19714fcad5e4cf8302b2563402d29",
    "article.txt": "4d07aded885cc70672177e06cb9ffd106c573769"
  },
  "Primary": "article.html",
  "Publisher": "ccrk",
  "LastModified": "1708959414",
  "TimeCreated": "1708959414",
  "Categories": [
    "Religion",
    "Christianity"
  ],
  "Topics": [],
  "Description": "Barlaam (d. 1348), Abbot of St. Salvador, Constantinople (1327). While connected with the Greek Church, he instigated a violent attack upon the Hesychast, or Quietist, party among the monks of Mount Athos, charging them with heresy. They made so able a defense that Barlaam left the city and fled to Rome. Here he joined the Roman Church, and wrote as",
  "Comment": "",
  "License": "Public Domain in the USA",
  "SourceURL": "https://oldpedia.org/article/ccrk/Barlaam",
  "SourceFileURL": "https://archive.org/details/concisecyclopedi00sanf",
  "LocalFileURL": "https://oldpedia.org/pdf/ccrk/concisecyclopedi00sanf.pdf",
  "ShortTitle": "",
  "BookTitle": "A Concise Cyclopedia of Religious Knowledge",
  "BookTitleLong": "A Concise Cyclopedia of Religious Knowledge: Biblical, Biographical, Geographical, Historical, Practical and Theological",
  "BookEdition": "",
  "BookEditors": [
    "Elias Benjamin Sanford"
  ],
  "BookVolumeNumber": "",
  "BookPublisher": "Funk & Wagnall Company",
  "BookCopyrightDate": "1890",
  "BookPrintingDate": "1895",
  "PublicationDate": "1895",
  "CreatorNames": [
    "Elias Benjamin Sanford"
  ],
  "ContributorNames": [],
  "Rating": []
}