{
  "ZWIversion": 1.4,
  "GeneratorName": "AutoZWI",
  "Title": "Buxtorf",
  "Lang": "en",
  "Content": {
    "article.html": "fe4bf09a0cc0bdaea424e0bc6781a718aeb39759",
    "article.txt": "0acf92be64376cd3992d34faa3218459d9420a33"
  },
  "Primary": "article.html",
  "Publisher": "ccrk",
  "LastModified": "1708959415",
  "TimeCreated": "1708959415",
  "Categories": [
    "Religion",
    "Christianity"
  ],
  "Topics": [],
  "Description": "Buxtorf (boohs-torj, a famous family of Hebraists. (1) Johann, b. at Camen, Westphalia, Dec. 25, 1564; d. at Basel, Sept. 13, 1629. He became professor of Hebrew at Basel (1591). His knowledge of rabbinical literature was very great, and he was a sturdy defender of the Massoretic text. (2) His son, Johann, b. at Basel, Aug. 13, 1599; ",
  "Comment": "",
  "License": "Public Domain in the USA",
  "SourceURL": "https://oldpedia.org/article/ccrk/Buxtorf",
  "SourceFileURL": "https://archive.org/details/concisecyclopedi00sanf",
  "LocalFileURL": "https://oldpedia.org/pdf/ccrk/concisecyclopedi00sanf.pdf",
  "ShortTitle": "",
  "BookTitle": "A Concise Cyclopedia of Religious Knowledge",
  "BookTitleLong": "A Concise Cyclopedia of Religious Knowledge: Biblical, Biographical, Geographical, Historical, Practical and Theological",
  "BookEdition": "",
  "BookEditors": [
    "Elias Benjamin Sanford"
  ],
  "BookVolumeNumber": "",
  "BookPublisher": "Funk & Wagnall Company",
  "BookCopyrightDate": "1890",
  "BookPrintingDate": "1895",
  "PublicationDate": "1895",
  "CreatorNames": [
    "Elias Benjamin Sanford"
  ],
  "ContributorNames": [],
  "Rating": []
}