{
  "ZWIversion": 1.4,
  "GeneratorName": "AutoZWI",
  "Title": "Kirk, Edward Norris",
  "Lang": "en",
  "Content": {
    "article.html": "95a0a85c93a1c8b7fe66c106cb84e21691ad1f4b",
    "article.txt": "5177d9642c5c1d1c68dbd58469c2ff2bd921f7f9"
  },
  "Primary": "article.html",
  "Publisher": "ccrk",
  "LastModified": "1708959422",
  "TimeCreated": "1708959422",
  "Categories": [
    "Religion",
    "Christianity"
  ],
  "Topics": [],
  "Description": "Kirk, Edward Norris, D. D., an eminent preacher and revivalist; b. in New York City, Aug. 14, 1802; d. in Boston, March 27, 1874. He was graduated at Princeton in 1820, and commenced the study of law, but soon decided to enter the ministry. After completing his theological studies, and a brief service as agent of the American Board, he became pastor",
  "Comment": "",
  "License": "Public Domain in the USA",
  "SourceURL": "https://oldpedia.org/article/ccrk/Kirk, Edward Norris",
  "SourceFileURL": "https://archive.org/details/concisecyclopedi00sanf",
  "LocalFileURL": "https://oldpedia.org/pdf/ccrk/concisecyclopedi00sanf.pdf",
  "ShortTitle": "",
  "BookTitle": "A Concise Cyclopedia of Religious Knowledge",
  "BookTitleLong": "A Concise Cyclopedia of Religious Knowledge: Biblical, Biographical, Geographical, Historical, Practical and Theological",
  "BookEdition": "",
  "BookEditors": [
    "Elias Benjamin Sanford"
  ],
  "BookVolumeNumber": "",
  "BookPublisher": "Funk & Wagnall Company",
  "BookCopyrightDate": "1890",
  "BookPrintingDate": "1895",
  "PublicationDate": "1895",
  "CreatorNames": [
    "Elias Benjamin Sanford"
  ],
  "ContributorNames": [],
  "Rating": []
}