{
  "ZWIversion": 1.4,
  "GeneratorName": "AutoZWI",
  "Title": "Zephania",
  "Lang": "en",
  "Content": {
    "article.html": "e062fd47c7c322c4fea98c1826230d9a4d44180f",
    "article.txt": "ec948c53bd590523cdbbacd6343862390aebcc4c"
  },
  "Primary": "article.html",
  "Publisher": "ccrk",
  "LastModified": "1708959430",
  "TimeCreated": "1708959430",
  "Categories": [
    "Religion",
    "Christianity"
  ],
  "Topics": [],
  "Description": "Zephani'ah (Jehovah hides), (1) Ninth of the minor prophets. He was the son of Cushi, and lived in the days of Josiah. “His prophecy was uttered in the early part of the ministry of Jeremiah, between B. C. 620 and 609. It is mainly designed to excite the Jewish nation to repentance, in view of threatened judgments, and to comfort the people of God w",
  "Comment": "",
  "License": "Public Domain in the USA",
  "SourceURL": "https://oldpedia.org/article/ccrk/Zephania",
  "SourceFileURL": "https://archive.org/details/concisecyclopedi00sanf",
  "LocalFileURL": "https://oldpedia.org/pdf/ccrk/concisecyclopedi00sanf.pdf",
  "ShortTitle": "",
  "BookTitle": "A Concise Cyclopedia of Religious Knowledge",
  "BookTitleLong": "A Concise Cyclopedia of Religious Knowledge: Biblical, Biographical, Geographical, Historical, Practical and Theological",
  "BookEdition": "",
  "BookEditors": [
    "Elias Benjamin Sanford"
  ],
  "BookVolumeNumber": "",
  "BookPublisher": "Funk & Wagnall Company",
  "BookCopyrightDate": "1890",
  "BookPrintingDate": "1895",
  "PublicationDate": "1895",
  "CreatorNames": [
    "Elias Benjamin Sanford"
  ],
  "ContributorNames": [],
  "Rating": []
}