{
  "ZWIversion": 1.4,
  "GeneratorName": "AutoZWI",
  "Title": "Ahazia",
  "Lang": "en",
  "Content": {
    "article.html": "b2ce809d3510631dd663109e7b15487be366383d",
    "article.txt": "6a36c4335dd480b955a059d3a28903da519145e2"
  },
  "Primary": "article.html",
  "Publisher": "ccrk",
  "LastModified": "1708959413",
  "TimeCreated": "1708959413",
  "Categories": [
    "Religion",
    "Christianity"
  ],
  "Topics": [],
  "Description": "Ahazi'ah, (1) “a son of Ahab and Jezebel, and eighth king of Israel; reigned B. C. 896-895. After the battle of Ramoth in Gilead the Syrians had the command of the country along the east of Jordan, and they cut off all communication between the Israelites and Moabites, so that the vassal king of Moab refused his yearly tribute of 100, 000 lambs and",
  "Comment": "",
  "License": "Public Domain in the USA",
  "SourceURL": "https://oldpedia.org/article/ccrk/Ahazia",
  "SourceFileURL": "https://archive.org/details/concisecyclopedi00sanf",
  "LocalFileURL": "https://oldpedia.org/pdf/ccrk/concisecyclopedi00sanf.pdf",
  "ShortTitle": "",
  "BookTitle": "A Concise Cyclopedia of Religious Knowledge",
  "BookTitleLong": "A Concise Cyclopedia of Religious Knowledge: Biblical, Biographical, Geographical, Historical, Practical and Theological",
  "BookEdition": "",
  "BookEditors": [
    "Elias Benjamin Sanford"
  ],
  "BookVolumeNumber": "",
  "BookPublisher": "Funk & Wagnall Company",
  "BookCopyrightDate": "1890",
  "BookPrintingDate": "1895",
  "PublicationDate": "1895",
  "CreatorNames": [
    "Elias Benjamin Sanford"
  ],
  "ContributorNames": [],
  "Rating": []
}