{
  "ZWIversion": 1.4,
  "GeneratorName": "AutoZWI",
  "Title": "Gregory",
  "Lang": "en",
  "Content": {
    "article.html": "59a83385ee5a2d2c41acd2fbd197e41955dbcd66",
    "article.txt": "6b853fe854a28a5771c3889645508704d69d6fa3"
  },
  "Primary": "article.html",
  "Publisher": "ccrk",
  "LastModified": "1708959420",
  "TimeCreated": "1708959420",
  "Categories": [
    "Religion",
    "Christianity"
  ],
  "Topics": [],
  "Description": "Gregory of Nyssa, St., a Greek Church father, and the younger brother of Basil the Great; b. in Cappadocia about 332; d. about 395. Educated under the guidance of his famous brother, he entered the Church at an early age and held the office of reader. After wavering in purpose for a time, he was finally ordained bishop of Nyssa, about 372, by his br",
  "Comment": "",
  "License": "Public Domain in the USA",
  "SourceURL": "https://oldpedia.org/article/ccrk/Gregory",
  "SourceFileURL": "https://archive.org/details/concisecyclopedi00sanf",
  "LocalFileURL": "https://oldpedia.org/pdf/ccrk/concisecyclopedi00sanf.pdf",
  "ShortTitle": "",
  "BookTitle": "A Concise Cyclopedia of Religious Knowledge",
  "BookTitleLong": "A Concise Cyclopedia of Religious Knowledge: Biblical, Biographical, Geographical, Historical, Practical and Theological",
  "BookEdition": "",
  "BookEditors": [
    "Elias Benjamin Sanford"
  ],
  "BookVolumeNumber": "",
  "BookPublisher": "Funk & Wagnall Company",
  "BookCopyrightDate": "1890",
  "BookPrintingDate": "1895",
  "PublicationDate": "1895",
  "CreatorNames": [
    "Elias Benjamin Sanford"
  ],
  "ContributorNames": [],
  "Rating": []
}