{
  "ZWIversion": 1.4,
  "GeneratorName": "AutoZWI",
  "Title": "Bradwardine, Thomas",
  "Lang": "en",
  "Content": {
    "article.html": "a585aea46e036a3df201e254ee66f964c6aa7f40",
    "article.txt": "3f44384286b1c061e10881c72eb43b6395581dd7"
  },
  "Primary": "article.html",
  "Publisher": "ccrk",
  "LastModified": "1708959415",
  "TimeCreated": "1708959415",
  "Categories": [
    "Religion",
    "Christianity"
  ],
  "Topics": [],
  "Description": "Bradwardine, Thomas (b. 1290; d. in London, 1349), called “The profound doctor,” on account of his great learning. He was for some years Chancellor of the University of Oxford, and acted as confessor of Edward III. during his campaigns in France. Faithful in the discharge of his duties, his influence over the king was very great. ",
  "Comment": "",
  "License": "Public Domain in the USA",
  "SourceURL": "https://oldpedia.org/article/ccrk/Bradwardine, Thomas",
  "SourceFileURL": "https://archive.org/details/concisecyclopedi00sanf",
  "LocalFileURL": "https://oldpedia.org/pdf/ccrk/concisecyclopedi00sanf.pdf",
  "ShortTitle": "",
  "BookTitle": "A Concise Cyclopedia of Religious Knowledge",
  "BookTitleLong": "A Concise Cyclopedia of Religious Knowledge: Biblical, Biographical, Geographical, Historical, Practical and Theological",
  "BookEdition": "",
  "BookEditors": [
    "Elias Benjamin Sanford"
  ],
  "BookVolumeNumber": "",
  "BookPublisher": "Funk & Wagnall Company",
  "BookCopyrightDate": "1890",
  "BookPrintingDate": "1895",
  "PublicationDate": "1895",
  "CreatorNames": [
    "Elias Benjamin Sanford"
  ],
  "ContributorNames": [],
  "Rating": []
}