{
  "ZWIversion": 1.4,
  "GeneratorName": "AutoZWI",
  "Title": "Holy",
  "Lang": "en",
  "Content": {
    "article.html": "d81e81b4c8740bdb74e3b38900c193c898e09c84",
    "article.txt": "89a0ad5967661ee3c7b955c107b390a7e5feef33"
  },
  "Primary": "article.html",
  "Publisher": "ccrk",
  "LastModified": "1708959421",
  "TimeCreated": "1708959421",
  "Categories": [
    "Religion",
    "Christianity"
  ],
  "Topics": [],
  "Description": "Holy Office (sanctum ofciumf a term applied to the Inquisition, the spiritual court of the Roman Catholic Church. See Inquisition.",
  "Comment": "",
  "License": "Public Domain in the USA",
  "SourceURL": "https://oldpedia.org/article/ccrk/Holy",
  "SourceFileURL": "https://archive.org/details/concisecyclopedi00sanf",
  "LocalFileURL": "https://oldpedia.org/pdf/ccrk/concisecyclopedi00sanf.pdf",
  "ShortTitle": "",
  "BookTitle": "A Concise Cyclopedia of Religious Knowledge",
  "BookTitleLong": "A Concise Cyclopedia of Religious Knowledge: Biblical, Biographical, Geographical, Historical, Practical and Theological",
  "BookEdition": "",
  "BookEditors": [
    "Elias Benjamin Sanford"
  ],
  "BookVolumeNumber": "",
  "BookPublisher": "Funk & Wagnall Company",
  "BookCopyrightDate": "1890",
  "BookPrintingDate": "1895",
  "PublicationDate": "1895",
  "CreatorNames": [
    "Elias Benjamin Sanford"
  ],
  "ContributorNames": [],
  "Rating": []
}