{
  "ZWIversion": 1.4,
  "GeneratorName": "AutoZWI",
  "Title": "Montgomery, James",
  "Lang": "en",
  "Content": {
    "article.html": "6557f14c15bb1396c679f0bdb5a6e648a15634ee",
    "article.txt": "412545be7a46b09509de1cd6803eb0f57c54fad4"
  },
  "Primary": "article.html",
  "Publisher": "ccrk",
  "LastModified": "1708959424",
  "TimeCreated": "1708959424",
  "Categories": [
    "Religion",
    "Christianity"
  ],
  "Topics": [],
  "Description": "Montgomery, James, a religious poet and journalist; b. at Irvine, Ayrshire, Nov. 4, 1771; d. at Sheffield, April 30, 1S54. The son of a Moravian preacher, he was educated at their school at Fulneck, near Leeds. Resisting the efforts made to induce him to study for the ministry, he found employment as a shop-boy at Waith. ",
  "Comment": "",
  "License": "Public Domain in the USA",
  "SourceURL": "https://oldpedia.org/article/ccrk/Montgomery, James",
  "SourceFileURL": "https://archive.org/details/concisecyclopedi00sanf",
  "LocalFileURL": "https://oldpedia.org/pdf/ccrk/concisecyclopedi00sanf.pdf",
  "ShortTitle": "",
  "BookTitle": "A Concise Cyclopedia of Religious Knowledge",
  "BookTitleLong": "A Concise Cyclopedia of Religious Knowledge: Biblical, Biographical, Geographical, Historical, Practical and Theological",
  "BookEdition": "",
  "BookEditors": [
    "Elias Benjamin Sanford"
  ],
  "BookVolumeNumber": "",
  "BookPublisher": "Funk & Wagnall Company",
  "BookCopyrightDate": "1890",
  "BookPrintingDate": "1895",
  "PublicationDate": "1895",
  "CreatorNames": [
    "Elias Benjamin Sanford"
  ],
  "ContributorNames": [],
  "Rating": []
}