{
  "ZWIversion": 1.4,
  "GeneratorName": "AutoZWI",
  "Title": "Russian",
  "Lang": "en",
  "Content": {
    "article.html": "5546679c2a494c71cae093dad35f906049c285ca",
    "article.txt": "21955cb1d519b2da590fb1688bb62328da6144aa"
  },
  "Primary": "article.html",
  "Publisher": "ccrk",
  "LastModified": "1708959427",
  "TimeCreated": "1708959427",
  "Categories": [
    "Religion",
    "Christianity"
  ],
  "Topics": [],
  "Description": "Russian Church, The. The Russians claim to have been converted to Christianity by the Apostle Andrew, but it has been conclusively proved that the conversion did not take place till the ninth century. The State Church of Russia is a branch of the Greek or Eastern Church. In the year 955 Olga, widow of the Grand Prince Igor, went to Constantinople to",
  "Comment": "",
  "License": "Public Domain in the USA",
  "SourceURL": "https://oldpedia.org/article/ccrk/Russian",
  "SourceFileURL": "https://archive.org/details/concisecyclopedi00sanf",
  "LocalFileURL": "https://oldpedia.org/pdf/ccrk/concisecyclopedi00sanf.pdf",
  "ShortTitle": "",
  "BookTitle": "A Concise Cyclopedia of Religious Knowledge",
  "BookTitleLong": "A Concise Cyclopedia of Religious Knowledge: Biblical, Biographical, Geographical, Historical, Practical and Theological",
  "BookEdition": "",
  "BookEditors": [
    "Elias Benjamin Sanford"
  ],
  "BookVolumeNumber": "",
  "BookPublisher": "Funk & Wagnall Company",
  "BookCopyrightDate": "1890",
  "BookPrintingDate": "1895",
  "PublicationDate": "1895",
  "CreatorNames": [
    "Elias Benjamin Sanford"
  ],
  "ContributorNames": [],
  "Rating": []
}