{
  "ZWIversion": 1.4,
  "GeneratorName": "AutoZWI",
  "Title": "Laud, William",
  "Lang": "en",
  "Content": {
    "article.html": "db144d8431d2357ac1b232ba3913524eafda7560",
    "article.txt": "d8283798c01dd8456edd93aef507f916a712f3f5"
  },
  "Primary": "article.html",
  "Publisher": "ccrk",
  "LastModified": "1708959423",
  "TimeCreated": "1708959423",
  "Categories": [
    "Religion",
    "Christianity"
  ],
  "Topics": [],
  "Description": "Laud, William, “archbishop of Canterbury, was the son of a clothier in good circumstances, and was b. at Reading, in Berkshire, Oct. 7, 1573. He entered St. John’s College, Oxford, in 15S9, became a fellow in 1593, and took his degree of M. A. in 1598. Ordained a priest in 1601, he soon made himself conspicuous at the university by his antipathy to",
  "Comment": "",
  "License": "Public Domain in the USA",
  "SourceURL": "https://oldpedia.org/article/ccrk/Laud, William",
  "SourceFileURL": "https://archive.org/details/concisecyclopedi00sanf",
  "LocalFileURL": "https://oldpedia.org/pdf/ccrk/concisecyclopedi00sanf.pdf",
  "ShortTitle": "",
  "BookTitle": "A Concise Cyclopedia of Religious Knowledge",
  "BookTitleLong": "A Concise Cyclopedia of Religious Knowledge: Biblical, Biographical, Geographical, Historical, Practical and Theological",
  "BookEdition": "",
  "BookEditors": [
    "Elias Benjamin Sanford"
  ],
  "BookVolumeNumber": "",
  "BookPublisher": "Funk & Wagnall Company",
  "BookCopyrightDate": "1890",
  "BookPrintingDate": "1895",
  "PublicationDate": "1895",
  "CreatorNames": [
    "Elias Benjamin Sanford"
  ],
  "ContributorNames": [],
  "Rating": []
}