{
  "ZWIversion": 1.4,
  "GeneratorName": "AutoZWI",
  "Title": "Elkesaites",
  "Lang": "en",
  "Content": {
    "article.html": "2c9d9d1171f08be9dc53c1ed461defcd6ccfa0ba",
    "article.txt": "9882070af4e25abbe0a12c8fed971ac71d0b1119"
  },
  "Primary": "article.html",
  "Publisher": "ccrk",
  "LastModified": "1708959419",
  "TimeCreated": "1708959419",
  "Categories": [
    "Religion",
    "Christianity"
  ],
  "Topics": [],
  "Description": "Elkesaites, a school in the Jewish Christian Church, which held doctrines tinged with Gnosticism. ~ Ellicott, Right Rev. Charles John, Church of England; b. at Whitwell, near Stamford, April 25, 1819; was graduated at Cambridge, 1841; professor of divinity, King’s College, London, 1848-1860; Hul-sean professor of divinity, Cambridge, 1860-1861; ",
  "Comment": "",
  "License": "Public Domain in the USA",
  "SourceURL": "https://oldpedia.org/article/ccrk/Elkesaites",
  "SourceFileURL": "https://archive.org/details/concisecyclopedi00sanf",
  "LocalFileURL": "https://oldpedia.org/pdf/ccrk/concisecyclopedi00sanf.pdf",
  "ShortTitle": "",
  "BookTitle": "A Concise Cyclopedia of Religious Knowledge",
  "BookTitleLong": "A Concise Cyclopedia of Religious Knowledge: Biblical, Biographical, Geographical, Historical, Practical and Theological",
  "BookEdition": "",
  "BookEditors": [
    "Elias Benjamin Sanford"
  ],
  "BookVolumeNumber": "",
  "BookPublisher": "Funk & Wagnall Company",
  "BookCopyrightDate": "1890",
  "BookPrintingDate": "1895",
  "PublicationDate": "1895",
  "CreatorNames": [
    "Elias Benjamin Sanford"
  ],
  "ContributorNames": [],
  "Rating": []
}