{
  "ZWIversion": 1.4,
  "GeneratorName": "AutoZWI",
  "Title": "Disciples, The",
  "Lang": "en",
  "Content": {
    "article.html": "66279e8d2b68a3dd69943498a98f40f397e6a975",
    "article.txt": "5167f1bfe10020489fc408180b0df4288bee0d22"
  },
  "Primary": "article.html",
  "Publisher": "ccrk",
  "LastModified": "1708959418",
  "TimeCreated": "1708959418",
  "Categories": [
    "Religion",
    "Christianity"
  ],
  "Topics": [],
  "Description": "Disciples, The, or Christians. Thomas Campbell (1763-1854), a devout and scholarly Seceder minister, was recognized in Ireland as a man of influence and liberality by his leadership in a movement before the Synods of Belfast and Glasgow, in the interests of Christian Union. Manifesting his liberal spirit in Pennsylvania in 1807, by inviting to the C",
  "Comment": "",
  "License": "Public Domain in the USA",
  "SourceURL": "https://oldpedia.org/article/ccrk/Disciples, The",
  "SourceFileURL": "https://archive.org/details/concisecyclopedi00sanf",
  "LocalFileURL": "https://oldpedia.org/pdf/ccrk/concisecyclopedi00sanf.pdf",
  "ShortTitle": "",
  "BookTitle": "A Concise Cyclopedia of Religious Knowledge",
  "BookTitleLong": "A Concise Cyclopedia of Religious Knowledge: Biblical, Biographical, Geographical, Historical, Practical and Theological",
  "BookEdition": "",
  "BookEditors": [
    "Elias Benjamin Sanford"
  ],
  "BookVolumeNumber": "",
  "BookPublisher": "Funk & Wagnall Company",
  "BookCopyrightDate": "1890",
  "BookPrintingDate": "1895",
  "PublicationDate": "1895",
  "CreatorNames": [
    "Elias Benjamin Sanford"
  ],
  "ContributorNames": [],
  "Rating": []
}