{
  "ZWIversion": 1.4,
  "GeneratorName": "AutoZWI",
  "Title": "Complutensian Polyglot",
  "Lang": "en",
  "Content": {
    "article.html": "ca0aad2611be3e75b160aa58cb6d4361bc602aea",
    "article.txt": "b0b5c22c4794c52b6408233021a61a1ba3d41097"
  },
  "Primary": "article.html",
  "Publisher": "ccrk",
  "LastModified": "1708959417",
  "TimeCreated": "1708959417",
  "Categories": [
    "Religion",
    "Christianity"
  ],
  "Topics": [],
  "Description": "Complutensian Polyglot. See Polyglot.",
  "Comment": "",
  "License": "Public Domain in the USA",
  "SourceURL": "https://oldpedia.org/article/ccrk/Complutensian Polyglot",
  "SourceFileURL": "https://archive.org/details/concisecyclopedi00sanf",
  "LocalFileURL": "https://oldpedia.org/pdf/ccrk/concisecyclopedi00sanf.pdf",
  "ShortTitle": "",
  "BookTitle": "A Concise Cyclopedia of Religious Knowledge",
  "BookTitleLong": "A Concise Cyclopedia of Religious Knowledge: Biblical, Biographical, Geographical, Historical, Practical and Theological",
  "BookEdition": "",
  "BookEditors": [
    "Elias Benjamin Sanford"
  ],
  "BookVolumeNumber": "",
  "BookPublisher": "Funk & Wagnall Company",
  "BookCopyrightDate": "1890",
  "BookPrintingDate": "1895",
  "PublicationDate": "1895",
  "CreatorNames": [
    "Elias Benjamin Sanford"
  ],
  "ContributorNames": [],
  "Rating": []
}