{
  "ZWIversion": 1.4,
  "GeneratorName": "AutoZWI",
  "Title": "Sunday-school",
  "Lang": "en",
  "Content": {
    "article.html": "dae45b8b0d63929ba31315d87f1f5959f4b50bb2",
    "article.txt": "b5f8f30e4bcbdb7c6042da2db958868e3e357549"
  },
  "Primary": "article.html",
  "Publisher": "ccrk",
  "LastModified": "1708959429",
  "TimeCreated": "1708959429",
  "Categories": [
    "Religion",
    "Christianity"
  ],
  "Topics": [],
  "Description": "Sunday-school Bessons.—The Bible is the text-book. Catechisms, which were once foremost, do not supplant the Scriptures. Memorizing portions of Scripture was an early method, from ten to twenty verses constituting a lesson. There was no uniformity. In the same school one class might be studying Genesis and another the Revelation. ",
  "Comment": "",
  "License": "Public Domain in the USA",
  "SourceURL": "https://oldpedia.org/article/ccrk/Sunday-school",
  "SourceFileURL": "https://archive.org/details/concisecyclopedi00sanf",
  "LocalFileURL": "https://oldpedia.org/pdf/ccrk/concisecyclopedi00sanf.pdf",
  "ShortTitle": "",
  "BookTitle": "A Concise Cyclopedia of Religious Knowledge",
  "BookTitleLong": "A Concise Cyclopedia of Religious Knowledge: Biblical, Biographical, Geographical, Historical, Practical and Theological",
  "BookEdition": "",
  "BookEditors": [
    "Elias Benjamin Sanford"
  ],
  "BookVolumeNumber": "",
  "BookPublisher": "Funk & Wagnall Company",
  "BookCopyrightDate": "1890",
  "BookPrintingDate": "1895",
  "PublicationDate": "1895",
  "CreatorNames": [
    "Elias Benjamin Sanford"
  ],
  "ContributorNames": [],
  "Rating": []
}