{
  "ZWIversion": 1.4,
  "GeneratorName": "AutoZWI",
  "Title": "Zamzummim",
  "Lang": "en",
  "Content": {
    "article.html": "3c2dac2bef07195de7352fb1b8601bc792e21e6b",
    "article.txt": "3e06c3702194ddfdf1a62f4f4a42b1155946cc1c"
  },
  "Primary": "article.html",
  "Publisher": "ccrk",
  "LastModified": "1708959430",
  "TimeCreated": "1708959430",
  "Categories": [
    "Religion",
    "Christianity"
  ],
  "Topics": [],
  "Description": "Zamzum'mim (Deut. ii. 20), or Zu'zim, the Ammonite name for a numerous and powerful race of giants who inhabited the country east of the Jordan and the Dead Sea. Cherdorlaomer attacked and routed them, and they were finally driven out of the country by the Ammonites.",
  "Comment": "",
  "License": "Public Domain in the USA",
  "SourceURL": "https://oldpedia.org/article/ccrk/Zamzummim",
  "SourceFileURL": "https://archive.org/details/concisecyclopedi00sanf",
  "LocalFileURL": "https://oldpedia.org/pdf/ccrk/concisecyclopedi00sanf.pdf",
  "ShortTitle": "",
  "BookTitle": "A Concise Cyclopedia of Religious Knowledge",
  "BookTitleLong": "A Concise Cyclopedia of Religious Knowledge: Biblical, Biographical, Geographical, Historical, Practical and Theological",
  "BookEdition": "",
  "BookEditors": [
    "Elias Benjamin Sanford"
  ],
  "BookVolumeNumber": "",
  "BookPublisher": "Funk & Wagnall Company",
  "BookCopyrightDate": "1890",
  "BookPrintingDate": "1895",
  "PublicationDate": "1895",
  "CreatorNames": [
    "Elias Benjamin Sanford"
  ],
  "ContributorNames": [],
  "Rating": []
}