{
  "ZWIversion": 1.4,
  "GeneratorName": "AutoZWI",
  "Title": "Jacobus, Melancthon Williams",
  "Lang": "en",
  "Content": {
    "article.html": "eae2d6b78f90485a2035905599ac4b262557cb05",
    "article.txt": "57cf459c3cd2831575b7e26f161077ef5eb87980"
  },
  "Primary": "article.html",
  "Publisher": "ccrk",
  "LastModified": "1708959422",
  "TimeCreated": "1708959422",
  "Categories": [
    "Religion",
    "Christianity"
  ],
  "Topics": [],
  "Description": "Jacobus, Melancthon Williams, D. D., b. at Newark, N. J., Sept. 19, 1816; d. at Allegheny, Penn., Oct. 28, 1876. He was a graduate of the Colle'ge of New Jersey (1834), and Princeton Theological Seminary (1838). He was pastor of the First Presbyterian Church of Brooklyn, 1839— 50; and, from 1851 till his death, professor of Oriental and biblical lit",
  "Comment": "",
  "License": "Public Domain in the USA",
  "SourceURL": "https://oldpedia.org/article/ccrk/Jacobus, Melancthon Williams",
  "SourceFileURL": "https://archive.org/details/concisecyclopedi00sanf",
  "LocalFileURL": "https://oldpedia.org/pdf/ccrk/concisecyclopedi00sanf.pdf",
  "ShortTitle": "",
  "BookTitle": "A Concise Cyclopedia of Religious Knowledge",
  "BookTitleLong": "A Concise Cyclopedia of Religious Knowledge: Biblical, Biographical, Geographical, Historical, Practical and Theological",
  "BookEdition": "",
  "BookEditors": [
    "Elias Benjamin Sanford"
  ],
  "BookVolumeNumber": "",
  "BookPublisher": "Funk & Wagnall Company",
  "BookCopyrightDate": "1890",
  "BookPrintingDate": "1895",
  "PublicationDate": "1895",
  "CreatorNames": [
    "Elias Benjamin Sanford"
  ],
  "ContributorNames": [],
  "Rating": []
}