{
  "ZWIversion": 1.4,
  "GeneratorName": "AutoZWI",
  "Title": "Pope, Alexander",
  "Lang": "en",
  "Content": {
    "article.html": "ff5077d2328fe8da97607996c552b41c3f1b8278",
    "article.txt": "f8fa808aaa4613f3c49915b97db35f1f9380192b"
  },
  "Primary": "article.html",
  "Publisher": "ccrk",
  "LastModified": "1708959426",
  "TimeCreated": "1708959426",
  "Categories": [
    "Religion",
    "Christianity"
  ],
  "Topics": [],
  "Description": "Pope, Alexander, b. in London, May 21, 16 8 8; d. at Twickenham, May 30, 1744. His name is given a place among sacred poets because of his Messiah (1712); Universal Prayer (1732), and Dying Christian to his Soul (1712).",
  "Comment": "",
  "License": "Public Domain in the USA",
  "SourceURL": "https://oldpedia.org/article/ccrk/Pope, Alexander",
  "SourceFileURL": "https://archive.org/details/concisecyclopedi00sanf",
  "LocalFileURL": "https://oldpedia.org/pdf/ccrk/concisecyclopedi00sanf.pdf",
  "ShortTitle": "",
  "BookTitle": "A Concise Cyclopedia of Religious Knowledge",
  "BookTitleLong": "A Concise Cyclopedia of Religious Knowledge: Biblical, Biographical, Geographical, Historical, Practical and Theological",
  "BookEdition": "",
  "BookEditors": [
    "Elias Benjamin Sanford"
  ],
  "BookVolumeNumber": "",
  "BookPublisher": "Funk & Wagnall Company",
  "BookCopyrightDate": "1890",
  "BookPrintingDate": "1895",
  "PublicationDate": "1895",
  "CreatorNames": [
    "Elias Benjamin Sanford"
  ],
  "ContributorNames": [],
  "Rating": []
}