{
  "ZWIversion": 1.4,
  "GeneratorName": "AutoZWI",
  "Title": "Kennicott, Benjamin",
  "Lang": "en",
  "Content": {
    "article.html": "1859736feb8f7d266b937a68a66533e1f837ab0c",
    "article.txt": "f3d11cb02305223261cf52e167b0e42168a9238d"
  },
  "Primary": "article.html",
  "Publisher": "ccrk",
  "LastModified": "1708959422",
  "TimeCreated": "1708959422",
  "Categories": [
    "Religion",
    "Christianity"
  ],
  "Topics": [],
  "Description": "Kennicott, Benjamin, an eminent Hebrew scholar; b. at Totnes, Devonshire, April 4, 1718; d. at Oxford, Sept. 18, 1783. Educated at Oxford, while still an undergraduate he published two dissertations: the first on 7'he Tree of Life in Paradise, and the second on The Oblations of Cain and Abel, which were received with such favor that he was made fell",
  "Comment": "",
  "License": "Public Domain in the USA",
  "SourceURL": "https://oldpedia.org/article/ccrk/Kennicott, Benjamin",
  "SourceFileURL": "https://archive.org/details/concisecyclopedi00sanf",
  "LocalFileURL": "https://oldpedia.org/pdf/ccrk/concisecyclopedi00sanf.pdf",
  "ShortTitle": "",
  "BookTitle": "A Concise Cyclopedia of Religious Knowledge",
  "BookTitleLong": "A Concise Cyclopedia of Religious Knowledge: Biblical, Biographical, Geographical, Historical, Practical and Theological",
  "BookEdition": "",
  "BookEditors": [
    "Elias Benjamin Sanford"
  ],
  "BookVolumeNumber": "",
  "BookPublisher": "Funk & Wagnall Company",
  "BookCopyrightDate": "1890",
  "BookPrintingDate": "1895",
  "PublicationDate": "1895",
  "CreatorNames": [
    "Elias Benjamin Sanford"
  ],
  "ContributorNames": [],
  "Rating": []
}