{
  "ZWIversion": 1.4,
  "GeneratorName": "AutoZWI",
  "Title": "Kidron, or Kedron",
  "Lang": "en",
  "Content": {
    "article.html": "743cadac03ef1e576e7ea608710024fc3f04a4af",
    "article.txt": "7284fee52db67546ddf92bad85dbf81618215be5"
  },
  "Primary": "article.html",
  "Publisher": "ccrk",
  "LastModified": "1708959422",
  "TimeCreated": "1708959422",
  "Categories": [
    "Religion",
    "Christianity"
  ],
  "Topics": [],
  "Description": "Kid'ron, or Ke'dron, a small stream, dry in summer but swollen into a torrent in the rainy season. It rises a mile and a half northwest of Jerusalem, strikes the north1830; full bishop, 1842; archbishop of Baltimore, 1852. In 1859 the pope conferred upon him and his successors the “primacy of honor,” which places the see of Baltimore at the head of",
  "Comment": "",
  "License": "Public Domain in the USA",
  "SourceURL": "https://oldpedia.org/article/ccrk/Kidron, or Kedron",
  "SourceFileURL": "https://archive.org/details/concisecyclopedi00sanf",
  "LocalFileURL": "https://oldpedia.org/pdf/ccrk/concisecyclopedi00sanf.pdf",
  "ShortTitle": "",
  "BookTitle": "A Concise Cyclopedia of Religious Knowledge",
  "BookTitleLong": "A Concise Cyclopedia of Religious Knowledge: Biblical, Biographical, Geographical, Historical, Practical and Theological",
  "BookEdition": "",
  "BookEditors": [
    "Elias Benjamin Sanford"
  ],
  "BookVolumeNumber": "",
  "BookPublisher": "Funk & Wagnall Company",
  "BookCopyrightDate": "1890",
  "BookPrintingDate": "1895",
  "PublicationDate": "1895",
  "CreatorNames": [
    "Elias Benjamin Sanford"
  ],
  "ContributorNames": [],
  "Rating": []
}