{
  "ZWIversion": 1.4,
  "GeneratorName": "AutoZWI",
  "Title": "Aix-la-Chapelle",
  "Lang": "en",
  "Content": {
    "article.html": "4db964a6ed1cea5f231e207a3b00aa489614086b",
    "article.txt": "af319315f6d84ebfe7500899debb0a9fff4ae61d"
  },
  "Primary": "article.html",
  "Publisher": "ccrk",
  "LastModified": "1708959413",
  "TimeCreated": "1708959413",
  "Categories": [
    "Religion",
    "Christianity"
  ],
  "Topics": [],
  "Description": "Aix-la-Chapelle (Aks-la-sha-peL); German, Aachen (ar-ken)', Latin, Agnis Granum. The capital of a district of the same name in Rhenish Prussia, and about 40 miles west of Cologne. It was the place where the German emperors were crowned, 803-1558. Its cathedral contains the tomb of the Emperor Charlemagne. Several important synods were held here: ",
  "Comment": "",
  "License": "Public Domain in the USA",
  "SourceURL": "https://oldpedia.org/article/ccrk/Aix-la-Chapelle",
  "SourceFileURL": "https://archive.org/details/concisecyclopedi00sanf",
  "LocalFileURL": "https://oldpedia.org/pdf/ccrk/concisecyclopedi00sanf.pdf",
  "ShortTitle": "",
  "BookTitle": "A Concise Cyclopedia of Religious Knowledge",
  "BookTitleLong": "A Concise Cyclopedia of Religious Knowledge: Biblical, Biographical, Geographical, Historical, Practical and Theological",
  "BookEdition": "",
  "BookEditors": [
    "Elias Benjamin Sanford"
  ],
  "BookVolumeNumber": "",
  "BookPublisher": "Funk & Wagnall Company",
  "BookCopyrightDate": "1890",
  "BookPrintingDate": "1895",
  "PublicationDate": "1895",
  "CreatorNames": [
    "Elias Benjamin Sanford"
  ],
  "ContributorNames": [],
  "Rating": []
}