{
  "ZWIversion": 1.4,
  "GeneratorName": "AutoZWI",
  "Title": "Bradford, John",
  "Lang": "en",
  "Content": {
    "article.html": "3c7279e87572b093b5572b870bf598ec6cfcc735",
    "article.txt": "7a092af5c5ddf78778036437f1587d0900637067"
  },
  "Primary": "article.html",
  "Publisher": "ccrk",
  "LastModified": "1708959415",
  "TimeCreated": "1708959415",
  "Categories": [
    "Religion",
    "Christianity"
  ],
  "Topics": [],
  "Description": "Bradford, John, burned at Smithfield, June 1, 1555. He began the study of law in the Temple, 1547, then went to Cambridge, and after studying theology was appointed chaplain to Edward VI., in 1552. With the accession of Queen Mary he was arrested for seditious utterances and heresy. Refusing to recant, he met the death of a martyr with courage. ",
  "Comment": "",
  "License": "Public Domain in the USA",
  "SourceURL": "https://oldpedia.org/article/ccrk/Bradford, John",
  "SourceFileURL": "https://archive.org/details/concisecyclopedi00sanf",
  "LocalFileURL": "https://oldpedia.org/pdf/ccrk/concisecyclopedi00sanf.pdf",
  "ShortTitle": "",
  "BookTitle": "A Concise Cyclopedia of Religious Knowledge",
  "BookTitleLong": "A Concise Cyclopedia of Religious Knowledge: Biblical, Biographical, Geographical, Historical, Practical and Theological",
  "BookEdition": "",
  "BookEditors": [
    "Elias Benjamin Sanford"
  ],
  "BookVolumeNumber": "",
  "BookPublisher": "Funk & Wagnall Company",
  "BookCopyrightDate": "1890",
  "BookPrintingDate": "1895",
  "PublicationDate": "1895",
  "CreatorNames": [
    "Elias Benjamin Sanford"
  ],
  "ContributorNames": [],
  "Rating": []
}