{
  "ZWIversion": 1.4,
  "GeneratorName": "AutoZWI",
  "Title": "Samaritans, The",
  "Lang": "en",
  "Content": {
    "article.html": "b040e01d219e2f2bf36cd6935cdf11712c53f71e",
    "article.txt": "cd64b3ab0f3440f8021995c82d567a76e291704a"
  },
  "Primary": "article.html",
  "Publisher": "ccrk",
  "LastModified": "1708959427",
  "TimeCreated": "1708959427",
  "Categories": [
    "Religion",
    "Christianity"
  ],
  "Topics": [],
  "Description": "Samaritans, The, “were a mixed people, derived from the colonists whom the king of Assyria sent to inhabit the land of Samaria after he had carried the Israelites captive. (2 Kings xvii.) These colonists had been drawn from various Eastern nations; and they brought with them their various forms of national idolatry, until the plagues sent among them",
  "Comment": "",
  "License": "Public Domain in the USA",
  "SourceURL": "https://oldpedia.org/article/ccrk/Samaritans, The",
  "SourceFileURL": "https://archive.org/details/concisecyclopedi00sanf",
  "LocalFileURL": "https://oldpedia.org/pdf/ccrk/concisecyclopedi00sanf.pdf",
  "ShortTitle": "",
  "BookTitle": "A Concise Cyclopedia of Religious Knowledge",
  "BookTitleLong": "A Concise Cyclopedia of Religious Knowledge: Biblical, Biographical, Geographical, Historical, Practical and Theological",
  "BookEdition": "",
  "BookEditors": [
    "Elias Benjamin Sanford"
  ],
  "BookVolumeNumber": "",
  "BookPublisher": "Funk & Wagnall Company",
  "BookCopyrightDate": "1890",
  "BookPrintingDate": "1895",
  "PublicationDate": "1895",
  "CreatorNames": [
    "Elias Benjamin Sanford"
  ],
  "ContributorNames": [],
  "Rating": []
}