{
  "ZWIversion": 1.4,
  "GeneratorName": "AutoZWI",
  "Title": "Zoar",
  "Lang": "en",
  "Content": {
    "article.html": "755253a44f867852e9b64581dbf3590d1aafa1b1",
    "article.txt": "8fe9efc01ff2ad0dae07ea62e0c80441edd4fcce"
  },
  "Primary": "article.html",
  "Publisher": "ccrk",
  "LastModified": "1708959430",
  "TimeCreated": "1708959430",
  "Categories": [
    "Religion",
    "Christianity"
  ],
  "Topics": [],
  "Description": "Zo'ar, one of the cities of the plain (Gen. xiii.), originally called Bela. (Gen. xiv. 2.) It was spared from the destruction which overtook Sodom and the other cities, and it was here that Lot found a refuge. (Gen. xix. 20-30.) The prophets include it among the cities of Moab. (Isa. xv. 5; Jer. xlviii. 34.) Its exact location has been a matter of m",
  "Comment": "",
  "License": "Public Domain in the USA",
  "SourceURL": "https://oldpedia.org/article/ccrk/Zoar",
  "SourceFileURL": "https://archive.org/details/concisecyclopedi00sanf",
  "LocalFileURL": "https://oldpedia.org/pdf/ccrk/concisecyclopedi00sanf.pdf",
  "ShortTitle": "",
  "BookTitle": "A Concise Cyclopedia of Religious Knowledge",
  "BookTitleLong": "A Concise Cyclopedia of Religious Knowledge: Biblical, Biographical, Geographical, Historical, Practical and Theological",
  "BookEdition": "",
  "BookEditors": [
    "Elias Benjamin Sanford"
  ],
  "BookVolumeNumber": "",
  "BookPublisher": "Funk & Wagnall Company",
  "BookCopyrightDate": "1890",
  "BookPrintingDate": "1895",
  "PublicationDate": "1895",
  "CreatorNames": [
    "Elias Benjamin Sanford"
  ],
  "ContributorNames": [],
  "Rating": []
}