{
  "ZWIversion": 1.4,
  "GeneratorName": "AutoZWI",
  "Title": "Beecher, Lyman, father of the preceding",
  "Lang": "en",
  "Content": {
    "article.html": "b4881ee855ccd155b42ea84f4d2c4248abdf3a01",
    "article.txt": "91c2d6e00c96f3bcab604a8d92f1aecbc0d3ada1"
  },
  "Primary": "article.html",
  "Publisher": "ccrk",
  "LastModified": "1708959414",
  "TimeCreated": "1708959414",
  "Categories": [
    "Religion",
    "Christianity"
  ],
  "Topics": [],
  "Description": "Beecher, Lyman, father of the preceding; b. at New Haven, Oct. 12, 1775; d. in Brooklyn, Jan. 10, 1863; was graduated at Yale in 1797, studied theology under Dr. Dwight, and was ordained pastor at East Hampton, L. L, Sept. 5, 1799. In 1S10 he accepted the pastorate of the Cong.Church, Litchfield, and thence he removed, in 1826, to Boston. ",
  "Comment": "",
  "License": "Public Domain in the USA",
  "SourceURL": "https://oldpedia.org/article/ccrk/Beecher, Lyman, father of the preceding",
  "SourceFileURL": "https://archive.org/details/concisecyclopedi00sanf",
  "LocalFileURL": "https://oldpedia.org/pdf/ccrk/concisecyclopedi00sanf.pdf",
  "ShortTitle": "",
  "BookTitle": "A Concise Cyclopedia of Religious Knowledge",
  "BookTitleLong": "A Concise Cyclopedia of Religious Knowledge: Biblical, Biographical, Geographical, Historical, Practical and Theological",
  "BookEdition": "",
  "BookEditors": [
    "Elias Benjamin Sanford"
  ],
  "BookVolumeNumber": "",
  "BookPublisher": "Funk & Wagnall Company",
  "BookCopyrightDate": "1890",
  "BookPrintingDate": "1895",
  "PublicationDate": "1895",
  "CreatorNames": [
    "Elias Benjamin Sanford"
  ],
  "ContributorNames": [],
  "Rating": []
}