{
  "ZWIversion": 1.4,
  "GeneratorName": "AutoZWI",
  "Title": "Friends of God",
  "Lang": "en",
  "Content": {
    "article.html": "2e28f28d10d1f8935b66255e5b3ed67977e74a3f",
    "article.txt": "ce33955f1b4b14fd639cf8311a31bb504295c6ce"
  },
  "Primary": "article.html",
  "Publisher": "ccrk",
  "LastModified": "1708959419",
  "TimeCreated": "1708959419",
  "Categories": [
    "Religion",
    "Christianity"
  ],
  "Topics": [],
  "Description": "Friends of God, the name of a body of mystics which sprang up in Western Germany during the fourteenth century. They never organized a sect, but held communication through letters and personal intercourse. They lived simple, devout lives, and protested earnestly against the corruptions that had crept into the Church. ",
  "Comment": "",
  "License": "Public Domain in the USA",
  "SourceURL": "https://oldpedia.org/article/ccrk/Friends of God",
  "SourceFileURL": "https://archive.org/details/concisecyclopedi00sanf",
  "LocalFileURL": "https://oldpedia.org/pdf/ccrk/concisecyclopedi00sanf.pdf",
  "ShortTitle": "",
  "BookTitle": "A Concise Cyclopedia of Religious Knowledge",
  "BookTitleLong": "A Concise Cyclopedia of Religious Knowledge: Biblical, Biographical, Geographical, Historical, Practical and Theological",
  "BookEdition": "",
  "BookEditors": [
    "Elias Benjamin Sanford"
  ],
  "BookVolumeNumber": "",
  "BookPublisher": "Funk & Wagnall Company",
  "BookCopyrightDate": "1890",
  "BookPrintingDate": "1895",
  "PublicationDate": "1895",
  "CreatorNames": [
    "Elias Benjamin Sanford"
  ],
  "ContributorNames": [],
  "Rating": []
}