{
  "ZWIversion": 1.4,
  "GeneratorName": "AutoZWI",
  "Title": "Exeter Cathedral",
  "Lang": "en",
  "Content": {
    "article.html": "993781dcf1fc062406603ae87daa2621bb1f28c2",
    "article.txt": "c019c91d634ad072b948bc2d24a2d0b04e92d917"
  },
  "Primary": "article.html",
  "Publisher": "ccrk",
  "LastModified": "1708959419",
  "TimeCreated": "1708959419",
  "Categories": [
    "Religion",
    "Christianity"
  ],
  "Topics": [],
  "Description": "Exeter Cathedral. The Church of St. Peter was founded at Exeter in 932, for the Benedictine monks; but the monastery had suffered much from the Danes in the tenth and eleventh centuries. Leofric is said to have been a great benefactor to his cathedral, but of this Saxon church, which occupied part of the site of the present cathedral, no vestige rem",
  "Comment": "",
  "License": "Public Domain in the USA",
  "SourceURL": "https://oldpedia.org/article/ccrk/Exeter Cathedral",
  "SourceFileURL": "https://archive.org/details/concisecyclopedi00sanf",
  "LocalFileURL": "https://oldpedia.org/pdf/ccrk/concisecyclopedi00sanf.pdf",
  "ShortTitle": "",
  "BookTitle": "A Concise Cyclopedia of Religious Knowledge",
  "BookTitleLong": "A Concise Cyclopedia of Religious Knowledge: Biblical, Biographical, Geographical, Historical, Practical and Theological",
  "BookEdition": "",
  "BookEditors": [
    "Elias Benjamin Sanford"
  ],
  "BookVolumeNumber": "",
  "BookPublisher": "Funk & Wagnall Company",
  "BookCopyrightDate": "1890",
  "BookPrintingDate": "1895",
  "PublicationDate": "1895",
  "CreatorNames": [
    "Elias Benjamin Sanford"
  ],
  "ContributorNames": [],
  "Rating": []
}