{
  "ZWIversion": 1.4,
  "GeneratorName": "AutoZWI",
  "Title": "Dream",
  "Lang": "en",
  "Content": {
    "article.html": "b8eac53874e6af932e888eb41522f2dcd036dc12",
    "article.txt": "58fd6de7ea9357cad333c991d317776df2d0cb86"
  },
  "Primary": "article.html",
  "Publisher": "ccrk",
  "LastModified": "1708959418",
  "TimeCreated": "1708959418",
  "Categories": [
    "Religion",
    "Christianity"
  ],
  "Topics": [],
  "Description": "Dream. “The revelation of God’s will in dreams is characteristic of the early and less perfect patriarchal times (Gen. xxviii. 12; xxxi. 24; xxxvii. 5-10)—to Solomon (1 Kings iii. 5), in commencing his reign; the beginnings of the New Testament dispensation (Matt. i. 20; ii. 13, 19, 22); and the communications from God to the rulers of the heathen-w",
  "Comment": "",
  "License": "Public Domain in the USA",
  "SourceURL": "https://oldpedia.org/article/ccrk/Dream",
  "SourceFileURL": "https://archive.org/details/concisecyclopedi00sanf",
  "LocalFileURL": "https://oldpedia.org/pdf/ccrk/concisecyclopedi00sanf.pdf",
  "ShortTitle": "",
  "BookTitle": "A Concise Cyclopedia of Religious Knowledge",
  "BookTitleLong": "A Concise Cyclopedia of Religious Knowledge: Biblical, Biographical, Geographical, Historical, Practical and Theological",
  "BookEdition": "",
  "BookEditors": [
    "Elias Benjamin Sanford"
  ],
  "BookVolumeNumber": "",
  "BookPublisher": "Funk & Wagnall Company",
  "BookCopyrightDate": "1890",
  "BookPrintingDate": "1895",
  "PublicationDate": "1895",
  "CreatorNames": [
    "Elias Benjamin Sanford"
  ],
  "ContributorNames": [],
  "Rating": []
}