{
  "ZWIversion": 1.4,
  "GeneratorName": "AutoZWI",
  "Title": "Mammon",
  "Lang": "en",
  "Content": {
    "article.html": "79a6412a85c3ff49af8d5a1749f8e2e8ec9618d0",
    "article.txt": "f08d7a3389d6a12fa4240c3da0bf01c74b57e8f9"
  },
  "Primary": "article.html",
  "Publisher": "ccrk",
  "LastModified": "1708959423",
  "TimeCreated": "1708959423",
  "Categories": [
    "Religion",
    "Christianity"
  ],
  "Topics": [],
  "Description": "Mammon (Matt. vi. 24; Luke xvi. 9), a word which often occurs in the Chaldee Targums of Onkelos and later writers, and in the Syriac Version, and which signifies “riches.” It is used in St. Matthew as a personification of riches.",
  "Comment": "",
  "License": "Public Domain in the USA",
  "SourceURL": "https://oldpedia.org/article/ccrk/Mammon",
  "SourceFileURL": "https://archive.org/details/concisecyclopedi00sanf",
  "LocalFileURL": "https://oldpedia.org/pdf/ccrk/concisecyclopedi00sanf.pdf",
  "ShortTitle": "",
  "BookTitle": "A Concise Cyclopedia of Religious Knowledge",
  "BookTitleLong": "A Concise Cyclopedia of Religious Knowledge: Biblical, Biographical, Geographical, Historical, Practical and Theological",
  "BookEdition": "",
  "BookEditors": [
    "Elias Benjamin Sanford"
  ],
  "BookVolumeNumber": "",
  "BookPublisher": "Funk & Wagnall Company",
  "BookCopyrightDate": "1890",
  "BookPrintingDate": "1895",
  "PublicationDate": "1895",
  "CreatorNames": [
    "Elias Benjamin Sanford"
  ],
  "ContributorNames": [],
  "Rating": []
}