{
  "ZWIversion": 1.4,
  "GeneratorName": "AutoZWI",
  "Title": "Luthardt, Christoph Ernst, Ph",
  "Lang": "en",
  "Content": {
    "article.html": "3a364c92f81adf4131b8a1903d33e40ea6c80096",
    "article.txt": "02f43e644a4d4bb16ee75ea53ad9289bee1e160a"
  },
  "Primary": "article.html",
  "Publisher": "ccrk",
  "LastModified": "1708959423",
  "TimeCreated": "1708959423",
  "Categories": [
    "Religion",
    "Christianity"
  ],
  "Topics": [],
  "Description": "Luthardt, Christoph Ernst, Ph. D., D. D. (Erlangen, 1854 and 1856), orthodox Lutheran theologian; b. at Maroldsweisach, Bavaria, March 22, 1823; studied at Erlangen and Berlin, 1841-45; teacher from 1841 to 1854 at Munich and Erlangen; professor extraordinary at Marburg, 1854-56; and since 1856 professor of systematic theology and New Testament exeg",
  "Comment": "",
  "License": "Public Domain in the USA",
  "SourceURL": "https://oldpedia.org/article/ccrk/Luthardt, Christoph Ernst, Ph",
  "SourceFileURL": "https://archive.org/details/concisecyclopedi00sanf",
  "LocalFileURL": "https://oldpedia.org/pdf/ccrk/concisecyclopedi00sanf.pdf",
  "ShortTitle": "",
  "BookTitle": "A Concise Cyclopedia of Religious Knowledge",
  "BookTitleLong": "A Concise Cyclopedia of Religious Knowledge: Biblical, Biographical, Geographical, Historical, Practical and Theological",
  "BookEdition": "",
  "BookEditors": [
    "Elias Benjamin Sanford"
  ],
  "BookVolumeNumber": "",
  "BookPublisher": "Funk & Wagnall Company",
  "BookCopyrightDate": "1890",
  "BookPrintingDate": "1895",
  "PublicationDate": "1895",
  "CreatorNames": [
    "Elias Benjamin Sanford"
  ],
  "ContributorNames": [],
  "Rating": []
}