{
  "ZWIversion": 1.4,
  "GeneratorName": "AutoZWI",
  "Title": "Bibliomancy",
  "Lang": "en",
  "Content": {
    "article.html": "f566d0c594f5c93c278532e7300a05579423a7ac",
    "article.txt": "721cfa5dc9069a8e699ee82fd89b873a94f59c9e"
  },
  "Primary": "article.html",
  "Publisher": "ccrk",
  "LastModified": "1708959415",
  "TimeCreated": "1708959415",
  "Categories": [
    "Religion",
    "Christianity"
  ],
  "Topics": [],
  "Description": "Bibliomancy, a kind of fortune-telling by means of the Bible, which was invented by the Puritans. Texts of Scripture are selected at random, and, by more or less manipulation of these, persons are made to imagine that they obtain knowledge of future events, or of secrets, or guidance in respect to their conduct in matters of present concern. ",
  "Comment": "",
  "License": "Public Domain in the USA",
  "SourceURL": "https://oldpedia.org/article/ccrk/Bibliomancy",
  "SourceFileURL": "https://archive.org/details/concisecyclopedi00sanf",
  "LocalFileURL": "https://oldpedia.org/pdf/ccrk/concisecyclopedi00sanf.pdf",
  "ShortTitle": "",
  "BookTitle": "A Concise Cyclopedia of Religious Knowledge",
  "BookTitleLong": "A Concise Cyclopedia of Religious Knowledge: Biblical, Biographical, Geographical, Historical, Practical and Theological",
  "BookEdition": "",
  "BookEditors": [
    "Elias Benjamin Sanford"
  ],
  "BookVolumeNumber": "",
  "BookPublisher": "Funk & Wagnall Company",
  "BookCopyrightDate": "1890",
  "BookPrintingDate": "1895",
  "PublicationDate": "1895",
  "CreatorNames": [
    "Elias Benjamin Sanford"
  ],
  "ContributorNames": [],
  "Rating": []
}