{
  "ZWIversion": 1.4,
  "GeneratorName": "AutoZWI",
  "Title": "Joris, Johann David",
  "Lang": "en",
  "Content": {
    "article.html": "7e3c8cd0ef04f9e0de71ca86ca1f30887b2da35f",
    "article.txt": "c12828ace2a954b3ee4f2a0a9d5a572fee8ea166"
  },
  "Primary": "article.html",
  "Publisher": "ccrk",
  "LastModified": "1708959422",
  "TimeCreated": "1708959422",
  "Categories": [
    "Religion",
    "Christianity"
  ],
  "Topics": [],
  "Description": "Joris, Johann David, a famous leader among the Anabaptist fanatics of the time of the Reformation. He professed to receive divine revelations, and became the head of a party who recognized him as their Messiah. Many were burned at the stake, and others suffered imprisonment rather than renounce their leader. Having accumulated a fortune he removed t",
  "Comment": "",
  "License": "Public Domain in the USA",
  "SourceURL": "https://oldpedia.org/article/ccrk/Joris, Johann David",
  "SourceFileURL": "https://archive.org/details/concisecyclopedi00sanf",
  "LocalFileURL": "https://oldpedia.org/pdf/ccrk/concisecyclopedi00sanf.pdf",
  "ShortTitle": "",
  "BookTitle": "A Concise Cyclopedia of Religious Knowledge",
  "BookTitleLong": "A Concise Cyclopedia of Religious Knowledge: Biblical, Biographical, Geographical, Historical, Practical and Theological",
  "BookEdition": "",
  "BookEditors": [
    "Elias Benjamin Sanford"
  ],
  "BookVolumeNumber": "",
  "BookPublisher": "Funk & Wagnall Company",
  "BookCopyrightDate": "1890",
  "BookPrintingDate": "1895",
  "PublicationDate": "1895",
  "CreatorNames": [
    "Elias Benjamin Sanford"
  ],
  "ContributorNames": [],
  "Rating": []
}