{
  "ZWIversion": 1.4,
  "GeneratorName": "AutoZWI",
  "Title": "Cain",
  "Lang": "en",
  "Content": {
    "article.html": "0bbdc831ae8e135e2e140712b4c0c44e4d8ae15b",
    "article.txt": "9a3b9b35e881974e9d763449fc7293e8780045a0"
  },
  "Primary": "article.html",
  "Publisher": "ccrk",
  "LastModified": "1708959415",
  "TimeCreated": "1708959415",
  "Categories": [
    "Religion",
    "Christianity"
  ],
  "Topics": [],
  "Description": "Cain (possession), the firstborn of Adam and Eve. His history is detailed in Gen. iv. In punishment for the murder of his brother a curse was pronounced upon him, and he was condemned to be a “fugitive and a vagabond” on the earth. “Lest any finding him should kill him,” God mercifully gave him a sign, or mark, whereby second century. ",
  "Comment": "",
  "License": "Public Domain in the USA",
  "SourceURL": "https://oldpedia.org/article/ccrk/Cain",
  "SourceFileURL": "https://archive.org/details/concisecyclopedi00sanf",
  "LocalFileURL": "https://oldpedia.org/pdf/ccrk/concisecyclopedi00sanf.pdf",
  "ShortTitle": "",
  "BookTitle": "A Concise Cyclopedia of Religious Knowledge",
  "BookTitleLong": "A Concise Cyclopedia of Religious Knowledge: Biblical, Biographical, Geographical, Historical, Practical and Theological",
  "BookEdition": "",
  "BookEditors": [
    "Elias Benjamin Sanford"
  ],
  "BookVolumeNumber": "",
  "BookPublisher": "Funk & Wagnall Company",
  "BookCopyrightDate": "1890",
  "BookPrintingDate": "1895",
  "PublicationDate": "1895",
  "CreatorNames": [
    "Elias Benjamin Sanford"
  ],
  "ContributorNames": [],
  "Rating": []
}