{
  "ZWIversion": 1.4,
  "GeneratorName": "AutoZWI",
  "Title": "Kirkland, Samuel",
  "Lang": "en",
  "Content": {
    "article.html": "81006df50bb44c9d24a5660009770f199bd4ff3b",
    "article.txt": "3d566c81b07d0c1771e13ef233ada0fc78eec931"
  },
  "Primary": "article.html",
  "Publisher": "ccrk",
  "LastModified": "1708959422",
  "TimeCreated": "1708959422",
  "Categories": [
    "Religion",
    "Christianity"
  ],
  "Topics": [],
  "Description": "Kirkland, Samuel, a famous missionary among the Indians; b. in Norwich, Conn., Dec. 1, 1744; d. at Clinton, N. Y., Feb. 28, 1808. After graduating at the College of New Jersey in 1765, he entered the Congregational ministry. He labored among the Indians of the Six Nations and served as a chaplain in the Revolutionary War. ",
  "Comment": "",
  "License": "Public Domain in the USA",
  "SourceURL": "https://oldpedia.org/article/ccrk/Kirkland, Samuel",
  "SourceFileURL": "https://archive.org/details/concisecyclopedi00sanf",
  "LocalFileURL": "https://oldpedia.org/pdf/ccrk/concisecyclopedi00sanf.pdf",
  "ShortTitle": "",
  "BookTitle": "A Concise Cyclopedia of Religious Knowledge",
  "BookTitleLong": "A Concise Cyclopedia of Religious Knowledge: Biblical, Biographical, Geographical, Historical, Practical and Theological",
  "BookEdition": "",
  "BookEditors": [
    "Elias Benjamin Sanford"
  ],
  "BookVolumeNumber": "",
  "BookPublisher": "Funk & Wagnall Company",
  "BookCopyrightDate": "1890",
  "BookPrintingDate": "1895",
  "PublicationDate": "1895",
  "CreatorNames": [
    "Elias Benjamin Sanford"
  ],
  "ContributorNames": [],
  "Rating": []
}