{
  "ZWIversion": 1.4,
  "GeneratorName": "AutoZWI",
  "Title": "Gifts",
  "Lang": "en",
  "Content": {
    "article.html": "4620bc2f803a617c3c9fddc7e43b8b3700921b33",
    "article.txt": "b49d20a3500eb0656e073f7ded797d1fac9dfb8a"
  },
  "Primary": "article.html",
  "Publisher": "ccrk",
  "LastModified": "1708959420",
  "TimeCreated": "1708959420",
  "Categories": [
    "Religion",
    "Christianity"
  ],
  "Topics": [],
  "Description": "Gifts (Gr. charismata). The new Testament uses this term to express powers and graces bestowed on Christians by the Holy Ghost. These gifts are described as of two kinds—ordinary and extraordinary. The ordinary are those shared by all Christians: wisdom, understanding, counsel, spiritual strength, knowledge, true godliness, holy fear; ",
  "Comment": "",
  "License": "Public Domain in the USA",
  "SourceURL": "https://oldpedia.org/article/ccrk/Gifts",
  "SourceFileURL": "https://archive.org/details/concisecyclopedi00sanf",
  "LocalFileURL": "https://oldpedia.org/pdf/ccrk/concisecyclopedi00sanf.pdf",
  "ShortTitle": "",
  "BookTitle": "A Concise Cyclopedia of Religious Knowledge",
  "BookTitleLong": "A Concise Cyclopedia of Religious Knowledge: Biblical, Biographical, Geographical, Historical, Practical and Theological",
  "BookEdition": "",
  "BookEditors": [
    "Elias Benjamin Sanford"
  ],
  "BookVolumeNumber": "",
  "BookPublisher": "Funk & Wagnall Company",
  "BookCopyrightDate": "1890",
  "BookPrintingDate": "1895",
  "PublicationDate": "1895",
  "CreatorNames": [
    "Elias Benjamin Sanford"
  ],
  "ContributorNames": [],
  "Rating": []
}