{
  "ZWIversion": 1.4,
  "GeneratorName": "AutoZWI",
  "Title": "Gottschalk",
  "Lang": "en",
  "Content": {
    "article.html": "fa5d93c7c3962942f2807fdb26cf70ba8264346e",
    "article.txt": "eebf2c6b34c5fe2a7be41c21d9a976cf5466b743"
  },
  "Primary": "article.html",
  "Publisher": "ccrk",
  "LastModified": "1708959420",
  "TimeCreated": "1708959420",
  "Categories": [
    "Religion",
    "Christianity"
  ],
  "Topics": [],
  "Description": "Gottschalk, a monk, and the originator of the predestination controversy in the ninth century; b. at or near Mentz about 806; d. in the monastery of Hautvillers, 867. In early life an earnest student of Augustine and Fulgentius, he came in conflict with the authorities of the Church by the promulgation of his views on predestination. ",
  "Comment": "",
  "License": "Public Domain in the USA",
  "SourceURL": "https://oldpedia.org/article/ccrk/Gottschalk",
  "SourceFileURL": "https://archive.org/details/concisecyclopedi00sanf",
  "LocalFileURL": "https://oldpedia.org/pdf/ccrk/concisecyclopedi00sanf.pdf",
  "ShortTitle": "",
  "BookTitle": "A Concise Cyclopedia of Religious Knowledge",
  "BookTitleLong": "A Concise Cyclopedia of Religious Knowledge: Biblical, Biographical, Geographical, Historical, Practical and Theological",
  "BookEdition": "",
  "BookEditors": [
    "Elias Benjamin Sanford"
  ],
  "BookVolumeNumber": "",
  "BookPublisher": "Funk & Wagnall Company",
  "BookCopyrightDate": "1890",
  "BookPrintingDate": "1895",
  "PublicationDate": "1895",
  "CreatorNames": [
    "Elias Benjamin Sanford"
  ],
  "ContributorNames": [],
  "Rating": []
}