{
  "ZWIversion": 1.4,
  "GeneratorName": "AutoZWI",
  "Title": "Suarez, Francis",
  "Lang": "en",
  "Content": {
    "article.html": "fb0649d6aef7ee19cde600f03b1685cfd725c091",
    "article.txt": "210330e22c70ad2b0b0e30b464c9d9811b11e91a"
  },
  "Primary": "article.html",
  "Publisher": "ccrk",
  "LastModified": "1708959429",
  "TimeCreated": "1708959429",
  "Categories": [
    "Religion",
    "Christianity"
  ],
  "Topics": [],
  "Description": "Suarez, Francis, a learned scholar and writer of the order of the Jesuits; b. at Granada, Spain, Jan. 5, 1548; d. at Lisbon, Sept. 25. 1617. His works were published at Lyons and Mainz (1630) in twenty-three volumes and reprinted at Venice (1740). They treated, for the most part, of the Aristotelian philosophy and the scholastic theology. ",
  "Comment": "",
  "License": "Public Domain in the USA",
  "SourceURL": "https://oldpedia.org/article/ccrk/Suarez, Francis",
  "SourceFileURL": "https://archive.org/details/concisecyclopedi00sanf",
  "LocalFileURL": "https://oldpedia.org/pdf/ccrk/concisecyclopedi00sanf.pdf",
  "ShortTitle": "",
  "BookTitle": "A Concise Cyclopedia of Religious Knowledge",
  "BookTitleLong": "A Concise Cyclopedia of Religious Knowledge: Biblical, Biographical, Geographical, Historical, Practical and Theological",
  "BookEdition": "",
  "BookEditors": [
    "Elias Benjamin Sanford"
  ],
  "BookVolumeNumber": "",
  "BookPublisher": "Funk & Wagnall Company",
  "BookCopyrightDate": "1890",
  "BookPrintingDate": "1895",
  "PublicationDate": "1895",
  "CreatorNames": [
    "Elias Benjamin Sanford"
  ],
  "ContributorNames": [],
  "Rating": []
}