{
  "ZWIversion": 1.4,
  "GeneratorName": "AutoZWI",
  "Title": "Eddy, Richard",
  "Lang": "en",
  "Content": {
    "article.html": "2accb1fd69f52e40f4313e503555d11f3c3bad25",
    "article.txt": "1b9d50ece4108d323f259fa6d90eddf794f3dbbf"
  },
  "Primary": "article.html",
  "Publisher": "ccrk",
  "LastModified": "1708959418",
  "TimeCreated": "1708959418",
  "Categories": [
    "Religion",
    "Christianity"
  ],
  "Topics": [],
  "Description": "Eddy, Richard, S. T. D. (Tufts, 1883), Universalist; b. at Providence, R. I., June 21, 1828. Entered the ministry in 1851, and since 1881 has been in Melrose, Mass. He is the author of Universalism in America: A History (Boston, 1884-86), 2 vols.",
  "Comment": "",
  "License": "Public Domain in the USA",
  "SourceURL": "https://oldpedia.org/article/ccrk/Eddy, Richard",
  "SourceFileURL": "https://archive.org/details/concisecyclopedi00sanf",
  "LocalFileURL": "https://oldpedia.org/pdf/ccrk/concisecyclopedi00sanf.pdf",
  "ShortTitle": "",
  "BookTitle": "A Concise Cyclopedia of Religious Knowledge",
  "BookTitleLong": "A Concise Cyclopedia of Religious Knowledge: Biblical, Biographical, Geographical, Historical, Practical and Theological",
  "BookEdition": "",
  "BookEditors": [
    "Elias Benjamin Sanford"
  ],
  "BookVolumeNumber": "",
  "BookPublisher": "Funk & Wagnall Company",
  "BookCopyrightDate": "1890",
  "BookPrintingDate": "1895",
  "PublicationDate": "1895",
  "CreatorNames": [
    "Elias Benjamin Sanford"
  ],
  "ContributorNames": [],
  "Rating": []
}