{
  "ZWIversion": 1.4,
  "GeneratorName": "AutoZWI",
  "Title": "Antilegomena",
  "Lang": "en",
  "Content": {
    "article.html": "292910a1d28d31fe807bd9687d967bc28d4a8a2a",
    "article.txt": "ff2661c5a54e8aa5ea86393f944fae448abd1f35"
  },
  "Primary": "article.html",
  "Publisher": "ccrk",
  "LastModified": "1708959413",
  "TimeCreated": "1708959413",
  "Categories": [
    "Religion",
    "Christianity"
  ],
  "Topics": [],
  "Description": "Antilegomena, a term used in early Christian times to designate books which claimed to be part of the New Testament, but whose authority was disputed, or “spoken against,” as is the literal meaning of the word. Such were the seven General Epistles, the Epistle to the Hebrews, and the Revelation of St. John the Divine. (Euseb.: Eccl. Hist. vi. ",
  "Comment": "",
  "License": "Public Domain in the USA",
  "SourceURL": "https://oldpedia.org/article/ccrk/Antilegomena",
  "SourceFileURL": "https://archive.org/details/concisecyclopedi00sanf",
  "LocalFileURL": "https://oldpedia.org/pdf/ccrk/concisecyclopedi00sanf.pdf",
  "ShortTitle": "",
  "BookTitle": "A Concise Cyclopedia of Religious Knowledge",
  "BookTitleLong": "A Concise Cyclopedia of Religious Knowledge: Biblical, Biographical, Geographical, Historical, Practical and Theological",
  "BookEdition": "",
  "BookEditors": [
    "Elias Benjamin Sanford"
  ],
  "BookVolumeNumber": "",
  "BookPublisher": "Funk & Wagnall Company",
  "BookCopyrightDate": "1890",
  "BookPrintingDate": "1895",
  "PublicationDate": "1895",
  "CreatorNames": [
    "Elias Benjamin Sanford"
  ],
  "ContributorNames": [],
  "Rating": []
}