{
  "ZWIversion": 1.4,
  "GeneratorName": "AutoZWI",
  "Title": "Kadesh",
  "Lang": "en",
  "Content": {
    "article.html": "63ee1ce3538ee1824dced374b1022e09344f3634",
    "article.txt": "36b4ccbbdd6f160cfc8859e4e16266b280b07465"
  },
  "Primary": "article.html",
  "Publisher": "ccrk",
  "LastModified": "1708959422",
  "TimeCreated": "1708959422",
  "Categories": [
    "Religion",
    "Christianity"
  ],
  "Topics": [],
  "Description": "Ka'desh (En-mish'pat, Ka'desh-Bar'-nea, Mer'-ibah-Ka'desh), a place near the southern boundary line of Canaan. (Num. xxxiv. 4; Josh. xv. 3.) It was on the border of Edom (Num. xx. 16); not far from Gerar (Gen. xx. 1), in the desert of Zin (Num. xiii. 17, 26; xx. 14, 16; xxvii. 14; xxxiv. 4; Deut. i. 19, 20), and was distant from Sinai an eleven-days",
  "Comment": "",
  "License": "Public Domain in the USA",
  "SourceURL": "https://oldpedia.org/article/ccrk/Kadesh",
  "SourceFileURL": "https://archive.org/details/concisecyclopedi00sanf",
  "LocalFileURL": "https://oldpedia.org/pdf/ccrk/concisecyclopedi00sanf.pdf",
  "ShortTitle": "",
  "BookTitle": "A Concise Cyclopedia of Religious Knowledge",
  "BookTitleLong": "A Concise Cyclopedia of Religious Knowledge: Biblical, Biographical, Geographical, Historical, Practical and Theological",
  "BookEdition": "",
  "BookEditors": [
    "Elias Benjamin Sanford"
  ],
  "BookVolumeNumber": "",
  "BookPublisher": "Funk & Wagnall Company",
  "BookCopyrightDate": "1890",
  "BookPrintingDate": "1895",
  "PublicationDate": "1895",
  "CreatorNames": [
    "Elias Benjamin Sanford"
  ],
  "ContributorNames": [],
  "Rating": []
}