{
  "ZWIversion": 1.4,
  "GeneratorName": "AutoZWI",
  "Title": "Fairbairn, Patrick",
  "Lang": "en",
  "Content": {
    "article.html": "8ea9c7ef7a6eceb222d537dc7d2b9b64d5e44212",
    "article.txt": "71cb53ce717ba0c1c64c7627e2046e81f4b08afc"
  },
  "Primary": "article.html",
  "Publisher": "ccrk",
  "LastModified": "1708959419",
  "TimeCreated": "1708959419",
  "Categories": [
    "Religion",
    "Christianity"
  ],
  "Topics": [],
  "Description": "Fairbairn, Patrick, D. D., an eminent Scotch theologian and writer; b. at Hally-burton, Berwickshire, Scotland, Jan. 28, 1805; d. at Glasgow, Aug. 6, 1874. After a long pastoral experience he was elected (^53) professor of theology in the Theological College at Aberdeen, and in 1856 became principal and professor of systematic theology and New Testa",
  "Comment": "",
  "License": "Public Domain in the USA",
  "SourceURL": "https://oldpedia.org/article/ccrk/Fairbairn, Patrick",
  "SourceFileURL": "https://archive.org/details/concisecyclopedi00sanf",
  "LocalFileURL": "https://oldpedia.org/pdf/ccrk/concisecyclopedi00sanf.pdf",
  "ShortTitle": "",
  "BookTitle": "A Concise Cyclopedia of Religious Knowledge",
  "BookTitleLong": "A Concise Cyclopedia of Religious Knowledge: Biblical, Biographical, Geographical, Historical, Practical and Theological",
  "BookEdition": "",
  "BookEditors": [
    "Elias Benjamin Sanford"
  ],
  "BookVolumeNumber": "",
  "BookPublisher": "Funk & Wagnall Company",
  "BookCopyrightDate": "1890",
  "BookPrintingDate": "1895",
  "PublicationDate": "1895",
  "CreatorNames": [
    "Elias Benjamin Sanford"
  ],
  "ContributorNames": [],
  "Rating": []
}