{
  "ZWIversion": 1.4,
  "GeneratorName": "AutoZWI",
  "Title": "Spurgeon, Charles Haddon, Baptist",
  "Lang": "en",
  "Content": {
    "article.html": "aaf7d8665d47c953f7cb577a493cae1ec8f41742",
    "article.txt": "e5a4760788c1f2bd380aa0edcc709705feb4a285"
  },
  "Primary": "article.html",
  "Publisher": "ccrk",
  "LastModified": "1708959428",
  "TimeCreated": "1708959428",
  "Categories": [
    "Religion",
    "Christianity"
  ],
  "Topics": [],
  "Description": "Spurgeon, Charles Haddon, Baptist; b. at Kelvedon, Essex, Eng., June 19, 1834. The son of an Independent minister, he enjoyed fair educational privileges, but was disappointed in receiving a collegiate training. Near the close of 1850, when at home for a holiday, he was converted in the Colchester Primitive Methodist Chapel, under the preaching of a",
  "Comment": "",
  "License": "Public Domain in the USA",
  "SourceURL": "https://oldpedia.org/article/ccrk/Spurgeon, Charles Haddon, Baptist",
  "SourceFileURL": "https://archive.org/details/concisecyclopedi00sanf",
  "LocalFileURL": "https://oldpedia.org/pdf/ccrk/concisecyclopedi00sanf.pdf",
  "ShortTitle": "",
  "BookTitle": "A Concise Cyclopedia of Religious Knowledge",
  "BookTitleLong": "A Concise Cyclopedia of Religious Knowledge: Biblical, Biographical, Geographical, Historical, Practical and Theological",
  "BookEdition": "",
  "BookEditors": [
    "Elias Benjamin Sanford"
  ],
  "BookVolumeNumber": "",
  "BookPublisher": "Funk & Wagnall Company",
  "BookCopyrightDate": "1890",
  "BookPrintingDate": "1895",
  "PublicationDate": "1895",
  "CreatorNames": [
    "Elias Benjamin Sanford"
  ],
  "ContributorNames": [],
  "Rating": []
}