{
  "ZWIversion": 1.4,
  "GeneratorName": "AutoZWI",
  "Title": "Lobe, Johann Konrad Wilhelm",
  "Lang": "en",
  "Content": {
    "article.html": "acc6468c2c18ad70dd924c2d8cd2bff80179198e",
    "article.txt": "ac7d071561a0b535a997ba7036fbe4c07ce3fb2a"
  },
  "Primary": "article.html",
  "Publisher": "ccrk",
  "LastModified": "1708959423",
  "TimeCreated": "1708959423",
  "Categories": [
    "Religion",
    "Christianity"
  ],
  "Topics": [],
  "Description": "Lobe, Johann Konrad Wilhelm, a remarkable German pastor, preacher, and organizer of Christian work; b. in Fiirth, near Nurnberg, Feb. 21, 1808; d. Jan. 2, 1872, at Neudettelsau. He was educated at the University of Erlangen; and became vicar of Kirchenlamitz in 1831. His fervent preaching attracted wide attention, but did not meet the approval of hi",
  "Comment": "",
  "License": "Public Domain in the USA",
  "SourceURL": "https://oldpedia.org/article/ccrk/Lobe, Johann Konrad Wilhelm",
  "SourceFileURL": "https://archive.org/details/concisecyclopedi00sanf",
  "LocalFileURL": "https://oldpedia.org/pdf/ccrk/concisecyclopedi00sanf.pdf",
  "ShortTitle": "",
  "BookTitle": "A Concise Cyclopedia of Religious Knowledge",
  "BookTitleLong": "A Concise Cyclopedia of Religious Knowledge: Biblical, Biographical, Geographical, Historical, Practical and Theological",
  "BookEdition": "",
  "BookEditors": [
    "Elias Benjamin Sanford"
  ],
  "BookVolumeNumber": "",
  "BookPublisher": "Funk & Wagnall Company",
  "BookCopyrightDate": "1890",
  "BookPrintingDate": "1895",
  "PublicationDate": "1895",
  "CreatorNames": [
    "Elias Benjamin Sanford"
  ],
  "ContributorNames": [],
  "Rating": []
}