{
  "ZWIversion": 1.4,
  "GeneratorName": "AutoZWI",
  "Title": "Robinson, Robert",
  "Lang": "en",
  "Content": {
    "article.html": "1a04321e258be0b7b4a05024a019a6138a7f17f3",
    "article.txt": "0b87eded0954a161e3d51b0e9b1c40731b93094c"
  },
  "Primary": "article.html",
  "Publisher": "ccrk",
  "LastModified": "1708959427",
  "TimeCreated": "1708959427",
  "Categories": [
    "Religion",
    "Christianity"
  ],
  "Topics": [],
  "Description": "Robinson, Robert, an eminent Baptist minister; b. at Swaffham in Norfolk, Jan. 8, 1735; d. while on a visit to Dr. Priestley at Birmingham, June 8, 1790. He was first connected with the Calvinistic Methodists, but in 1759 united with the Baptists, and from 1761 was pastor of a church in Cambridge. He wrote a History of Baptism, published after his d",
  "Comment": "",
  "License": "Public Domain in the USA",
  "SourceURL": "https://oldpedia.org/article/ccrk/Robinson, Robert",
  "SourceFileURL": "https://archive.org/details/concisecyclopedi00sanf",
  "LocalFileURL": "https://oldpedia.org/pdf/ccrk/concisecyclopedi00sanf.pdf",
  "ShortTitle": "",
  "BookTitle": "A Concise Cyclopedia of Religious Knowledge",
  "BookTitleLong": "A Concise Cyclopedia of Religious Knowledge: Biblical, Biographical, Geographical, Historical, Practical and Theological",
  "BookEdition": "",
  "BookEditors": [
    "Elias Benjamin Sanford"
  ],
  "BookVolumeNumber": "",
  "BookPublisher": "Funk & Wagnall Company",
  "BookCopyrightDate": "1890",
  "BookPrintingDate": "1895",
  "PublicationDate": "1895",
  "CreatorNames": [
    "Elias Benjamin Sanford"
  ],
  "ContributorNames": [],
  "Rating": []
}