{
  "ZWIversion": 1.4,
  "GeneratorName": "AutoZWI",
  "Title": "Jubilee, Year of",
  "Lang": "en",
  "Content": {
    "article.html": "7d76b2bd26c4d2681685a6d30995f95862e4128f",
    "article.txt": "4de5978ede66ab0d969d1eafacd8fc6a72870b1b"
  },
  "Primary": "article.html",
  "Publisher": "ccrk",
  "LastModified": "1708959422",
  "TimeCreated": "1708959422",
  "Categories": [
    "Religion",
    "Christianity"
  ],
  "Topics": [],
  "Description": "Jubilee, Year of, among the Hebrews. See Sabbatical Year.",
  "Comment": "",
  "License": "Public Domain in the USA",
  "SourceURL": "https://oldpedia.org/article/ccrk/Jubilee, Year of",
  "SourceFileURL": "https://archive.org/details/concisecyclopedi00sanf",
  "LocalFileURL": "https://oldpedia.org/pdf/ccrk/concisecyclopedi00sanf.pdf",
  "ShortTitle": "",
  "BookTitle": "A Concise Cyclopedia of Religious Knowledge",
  "BookTitleLong": "A Concise Cyclopedia of Religious Knowledge: Biblical, Biographical, Geographical, Historical, Practical and Theological",
  "BookEdition": "",
  "BookEditors": [
    "Elias Benjamin Sanford"
  ],
  "BookVolumeNumber": "",
  "BookPublisher": "Funk & Wagnall Company",
  "BookCopyrightDate": "1890",
  "BookPrintingDate": "1895",
  "PublicationDate": "1895",
  "CreatorNames": [
    "Elias Benjamin Sanford"
  ],
  "ContributorNames": [],
  "Rating": []
}