{
  "ZWIversion": 1.4,
  "GeneratorName": "AutoZWI",
  "Title": "Millenary Petition",
  "Lang": "en",
  "Content": {
    "article.html": "b72cff348d5c9fdaaf1d9f2cf6e788f8201400cd",
    "article.txt": "b0a6ebabf71dd99e892f77a5569c8483078b020f"
  },
  "Primary": "article.html",
  "Publisher": "ccrk",
  "LastModified": "1708959424",
  "TimeCreated": "1708959424",
  "Categories": [
    "Religion",
    "Christianity"
  ],
  "Topics": [],
  "Description": "Millenary Petition, a petition presented by nearly a thousand (whence its name) Puritan ministers to James I., in April, 1603. It prayed for the “reformation of certain ceremonies and abuses of the Church.” The petition resulted in the Hampton Court Conference.",
  "Comment": "",
  "License": "Public Domain in the USA",
  "SourceURL": "https://oldpedia.org/article/ccrk/Millenary Petition",
  "SourceFileURL": "https://archive.org/details/concisecyclopedi00sanf",
  "LocalFileURL": "https://oldpedia.org/pdf/ccrk/concisecyclopedi00sanf.pdf",
  "ShortTitle": "",
  "BookTitle": "A Concise Cyclopedia of Religious Knowledge",
  "BookTitleLong": "A Concise Cyclopedia of Religious Knowledge: Biblical, Biographical, Geographical, Historical, Practical and Theological",
  "BookEdition": "",
  "BookEditors": [
    "Elias Benjamin Sanford"
  ],
  "BookVolumeNumber": "",
  "BookPublisher": "Funk & Wagnall Company",
  "BookCopyrightDate": "1890",
  "BookPrintingDate": "1895",
  "PublicationDate": "1895",
  "CreatorNames": [
    "Elias Benjamin Sanford"
  ],
  "ContributorNames": [],
  "Rating": []
}