{
  "ZWIversion": 1.4,
  "GeneratorName": "AutoZWI",
  "Title": "Carmelites",
  "Lang": "en",
  "Content": {
    "article.html": "15eea9df96f6f742defd9c69ca37f9cb5cd98237",
    "article.txt": "1035593001fa8dfa709ce75c982ab5ef048b0432"
  },
  "Primary": "article.html",
  "Publisher": "ccrk",
  "LastModified": "1708959416",
  "TimeCreated": "1708959416",
  "Categories": [
    "Religion",
    "Christianity"
  ],
  "Topics": [],
  "Description": "Carmelites, one of the four orders of mendicant friars founded in the twelfth century by Berthold, a crusader, who had vowed to embrace the religious life if he should be victorious in battle. He settled as a monk in Calabria, where it was believed the prophet Elijah appeared to him in a vision; he then removed to Mount Carmel (1156), and from this",
  "Comment": "",
  "License": "Public Domain in the USA",
  "SourceURL": "https://oldpedia.org/article/ccrk/Carmelites",
  "SourceFileURL": "https://archive.org/details/concisecyclopedi00sanf",
  "LocalFileURL": "https://oldpedia.org/pdf/ccrk/concisecyclopedi00sanf.pdf",
  "ShortTitle": "",
  "BookTitle": "A Concise Cyclopedia of Religious Knowledge",
  "BookTitleLong": "A Concise Cyclopedia of Religious Knowledge: Biblical, Biographical, Geographical, Historical, Practical and Theological",
  "BookEdition": "",
  "BookEditors": [
    "Elias Benjamin Sanford"
  ],
  "BookVolumeNumber": "",
  "BookPublisher": "Funk & Wagnall Company",
  "BookCopyrightDate": "1890",
  "BookPrintingDate": "1895",
  "PublicationDate": "1895",
  "CreatorNames": [
    "Elias Benjamin Sanford"
  ],
  "ContributorNames": [],
  "Rating": []
}