{
  "ZWIversion": 1.4,
  "GeneratorName": "AutoZWI",
  "Title": "Emory, John",
  "Lang": "en",
  "Content": {
    "article.html": "9a73c2a6e7f3159230c736e819e833ea9713b444",
    "article.txt": "244e004d757b61948d51508545f35ce2e9777d74"
  },
  "Primary": "article.html",
  "Publisher": "ccrk",
  "LastModified": "1708959419",
  "TimeCreated": "1708959419",
  "Categories": [
    "Religion",
    "Christianity"
  ],
  "Topics": [],
  "Description": "Emory, John, a bishop of the Methodist Episcopal Church; b. in Queen Anne County, Maryland, April 11, 1789; d. at Reisterstown, Md., Dec. 16, 1835. After successful pastoral service, he was bookagent and editor at New York from 1824 to 1832. He founded The Methodist Quarterly Review, and in 1832 was elected bishop. ",
  "Comment": "",
  "License": "Public Domain in the USA",
  "SourceURL": "https://oldpedia.org/article/ccrk/Emory, John",
  "SourceFileURL": "https://archive.org/details/concisecyclopedi00sanf",
  "LocalFileURL": "https://oldpedia.org/pdf/ccrk/concisecyclopedi00sanf.pdf",
  "ShortTitle": "",
  "BookTitle": "A Concise Cyclopedia of Religious Knowledge",
  "BookTitleLong": "A Concise Cyclopedia of Religious Knowledge: Biblical, Biographical, Geographical, Historical, Practical and Theological",
  "BookEdition": "",
  "BookEditors": [
    "Elias Benjamin Sanford"
  ],
  "BookVolumeNumber": "",
  "BookPublisher": "Funk & Wagnall Company",
  "BookCopyrightDate": "1890",
  "BookPrintingDate": "1895",
  "PublicationDate": "1895",
  "CreatorNames": [
    "Elias Benjamin Sanford"
  ],
  "ContributorNames": [],
  "Rating": []
}