{
  "ZWIversion": 1.4,
  "GeneratorName": "AutoZWI",
  "Title": "Jeroboam",
  "Lang": "en",
  "Content": {
    "article.html": "3ae90309761e422f93eaab50a4a801d97a42fe62",
    "article.txt": "bdab52e49cacb9a3572a3c63302e2d6f5090e155"
  },
  "Primary": "article.html",
  "Publisher": "ccrk",
  "LastModified": "1708959422",
  "TimeCreated": "1708959422",
  "Categories": [
    "Religion",
    "Christianity"
  ],
  "Topics": [],
  "Description": "Jerobo'am (whose people is many'), (i) the first king of Israel after its separation from Judah. He was the son of Nebat, an Ephraimite, who attracted the attention of Solomon by his superior ability, and was appointed by him to superintend the levies furnished by the house of Joseph. While passing events portended revolution he was met by the proph",
  "Comment": "",
  "License": "Public Domain in the USA",
  "SourceURL": "https://oldpedia.org/article/ccrk/Jeroboam",
  "SourceFileURL": "https://archive.org/details/concisecyclopedi00sanf",
  "LocalFileURL": "https://oldpedia.org/pdf/ccrk/concisecyclopedi00sanf.pdf",
  "ShortTitle": "",
  "BookTitle": "A Concise Cyclopedia of Religious Knowledge",
  "BookTitleLong": "A Concise Cyclopedia of Religious Knowledge: Biblical, Biographical, Geographical, Historical, Practical and Theological",
  "BookEdition": "",
  "BookEditors": [
    "Elias Benjamin Sanford"
  ],
  "BookVolumeNumber": "",
  "BookPublisher": "Funk & Wagnall Company",
  "BookCopyrightDate": "1890",
  "BookPrintingDate": "1895",
  "PublicationDate": "1895",
  "CreatorNames": [
    "Elias Benjamin Sanford"
  ],
  "ContributorNames": [],
  "Rating": []
}