{
  "ZWIversion": 1.4,
  "GeneratorName": "AutoZWI",
  "Title": "Adoration",
  "Lang": "en",
  "Content": {
    "article.html": "343497205934e0c60496ebdb2a4404577ea74cf5",
    "article.txt": "de4c2f0c37dd533b25e22a195c1b0300c3ff40c2"
  },
  "Primary": "article.html",
  "Publisher": "ccrk",
  "LastModified": "1708959413",
  "TimeCreated": "1708959413",
  "Categories": [
    "Religion",
    "Christianity"
  ],
  "Topics": [],
  "Description": "Adoration, an act of homage or worship. Among the Hebrews it was manifested by putting off the shoes, standing, bowing, kneeling, and kissing. Those who approached the Greek and Roman emperors bowed low or knelt, and, after reverently touching the imperial robe, the hand was withdrawn and pressed to the lips. Eastern subjects prostrated themselves a",
  "Comment": "",
  "License": "Public Domain in the USA",
  "SourceURL": "https://oldpedia.org/article/ccrk/Adoration",
  "SourceFileURL": "https://archive.org/details/concisecyclopedi00sanf",
  "LocalFileURL": "https://oldpedia.org/pdf/ccrk/concisecyclopedi00sanf.pdf",
  "ShortTitle": "",
  "BookTitle": "A Concise Cyclopedia of Religious Knowledge",
  "BookTitleLong": "A Concise Cyclopedia of Religious Knowledge: Biblical, Biographical, Geographical, Historical, Practical and Theological",
  "BookEdition": "",
  "BookEditors": [
    "Elias Benjamin Sanford"
  ],
  "BookVolumeNumber": "",
  "BookPublisher": "Funk & Wagnall Company",
  "BookCopyrightDate": "1890",
  "BookPrintingDate": "1895",
  "PublicationDate": "1895",
  "CreatorNames": [
    "Elias Benjamin Sanford"
  ],
  "ContributorNames": [],
  "Rating": []
}