{
  "ZWIversion": 1.4,
  "GeneratorName": "AutoZWI",
  "Title": "Basel",
  "Lang": "en",
  "Content": {
    "article.html": "bac8e187ddcee64aacd73f6c55dbf95cdee6b4e3",
    "article.txt": "af03c9a4fc2b92889f883aa70bb2fc9f4ff4bb79"
  },
  "Primary": "article.html",
  "Publisher": "ccrk",
  "LastModified": "1708959414",
  "TimeCreated": "1708959414",
  "Categories": [
    "Religion",
    "Christianity"
  ],
  "Topics": [],
  "Description": "Basel, The Council of (1431-1443), was summoned by Martin V. The three subjects that were assigned to the council were, “The reunion of the Greek and Latin churches, the reconciliation of the Bohemians, and the reform of the church, according to the resolutions come to at Constance.” The proceedings of the council alarmed the authorities at' Rome, a",
  "Comment": "",
  "License": "Public Domain in the USA",
  "SourceURL": "https://oldpedia.org/article/ccrk/Basel",
  "SourceFileURL": "https://archive.org/details/concisecyclopedi00sanf",
  "LocalFileURL": "https://oldpedia.org/pdf/ccrk/concisecyclopedi00sanf.pdf",
  "ShortTitle": "",
  "BookTitle": "A Concise Cyclopedia of Religious Knowledge",
  "BookTitleLong": "A Concise Cyclopedia of Religious Knowledge: Biblical, Biographical, Geographical, Historical, Practical and Theological",
  "BookEdition": "",
  "BookEditors": [
    "Elias Benjamin Sanford"
  ],
  "BookVolumeNumber": "",
  "BookPublisher": "Funk & Wagnall Company",
  "BookCopyrightDate": "1890",
  "BookPrintingDate": "1895",
  "PublicationDate": "1895",
  "CreatorNames": [
    "Elias Benjamin Sanford"
  ],
  "ContributorNames": [],
  "Rating": []
}