{
  "ZWIversion": 1.4,
  "GeneratorName": "AutoZWI",
  "Title": "Comte Auguste",
  "Lang": "en",
  "Content": {
    "article.html": "d92b1543c4a5eb2c2eede58c539cc249564f067a",
    "article.txt": "b1e94113caf53493c6ba957635d0d52475800a3f"
  },
  "Primary": "article.html",
  "Publisher": "ccrk",
  "LastModified": "1708959417",
  "TimeCreated": "1708959417",
  "Categories": [
    "Religion",
    "Christianity"
  ],
  "Topics": [],
  "Description": "Comte Auguste. See Positivism.",
  "Comment": "",
  "License": "Public Domain in the USA",
  "SourceURL": "https://oldpedia.org/article/ccrk/Comte Auguste",
  "SourceFileURL": "https://archive.org/details/concisecyclopedi00sanf",
  "LocalFileURL": "https://oldpedia.org/pdf/ccrk/concisecyclopedi00sanf.pdf",
  "ShortTitle": "",
  "BookTitle": "A Concise Cyclopedia of Religious Knowledge",
  "BookTitleLong": "A Concise Cyclopedia of Religious Knowledge: Biblical, Biographical, Geographical, Historical, Practical and Theological",
  "BookEdition": "",
  "BookEditors": [
    "Elias Benjamin Sanford"
  ],
  "BookVolumeNumber": "",
  "BookPublisher": "Funk & Wagnall Company",
  "BookCopyrightDate": "1890",
  "BookPrintingDate": "1895",
  "PublicationDate": "1895",
  "CreatorNames": [
    "Elias Benjamin Sanford"
  ],
  "ContributorNames": [],
  "Rating": []
}