{
  "ZWIversion": 1.4,
  "GeneratorName": "AutoZWI",
  "Title": "Grey Friars",
  "Lang": "en",
  "Content": {
    "article.html": "9b7b68db27d235b7f6171cb3f095d78c7d9f1b43",
    "article.txt": "10e5e38994172b262cb63d99929ffc25c46ff60a"
  },
  "Primary": "article.html",
  "Publisher": "ccrk",
  "LastModified": "1708959420",
  "TimeCreated": "1708959420",
  "Categories": [
    "Religion",
    "Christianity"
  ],
  "Topics": [],
  "Description": "Grey Friars. See Franciscans.",
  "Comment": "",
  "License": "Public Domain in the USA",
  "SourceURL": "https://oldpedia.org/article/ccrk/Grey Friars",
  "SourceFileURL": "https://archive.org/details/concisecyclopedi00sanf",
  "LocalFileURL": "https://oldpedia.org/pdf/ccrk/concisecyclopedi00sanf.pdf",
  "ShortTitle": "",
  "BookTitle": "A Concise Cyclopedia of Religious Knowledge",
  "BookTitleLong": "A Concise Cyclopedia of Religious Knowledge: Biblical, Biographical, Geographical, Historical, Practical and Theological",
  "BookEdition": "",
  "BookEditors": [
    "Elias Benjamin Sanford"
  ],
  "BookVolumeNumber": "",
  "BookPublisher": "Funk & Wagnall Company",
  "BookCopyrightDate": "1890",
  "BookPrintingDate": "1895",
  "PublicationDate": "1895",
  "CreatorNames": [
    "Elias Benjamin Sanford"
  ],
  "ContributorNames": [],
  "Rating": []
}