{
  "ZWIversion": 1.4,
  "GeneratorName": "AutoZWI",
  "Title": "Paul",
  "Lang": "en",
  "Content": {
    "article.html": "c9ea7d959e22a41de987d35cb2dcd8c660383c92",
    "article.txt": "500c789ae2b5ed11890aab4e42dd9a594b24822a"
  },
  "Primary": "article.html",
  "Publisher": "ccrk",
  "LastModified": "1708959426",
  "TimeCreated": "1708959426",
  "Categories": [
    "Religion",
    "Christianity"
  ],
  "Topics": [],
  "Description": "Paul III. (Alexander Farnese) was appointed cardinal by the wicked Pope Alexander VI., who held unhallowed relations with his sister. He failed twice before he succeeded in his attempt on the tiara, following Clement VIL in 1534. He was a man of shameless immorality. In his pontificate the Council of Trent began. ",
  "Comment": "",
  "License": "Public Domain in the USA",
  "SourceURL": "https://oldpedia.org/article/ccrk/Paul",
  "SourceFileURL": "https://archive.org/details/concisecyclopedi00sanf",
  "LocalFileURL": "https://oldpedia.org/pdf/ccrk/concisecyclopedi00sanf.pdf",
  "ShortTitle": "",
  "BookTitle": "A Concise Cyclopedia of Religious Knowledge",
  "BookTitleLong": "A Concise Cyclopedia of Religious Knowledge: Biblical, Biographical, Geographical, Historical, Practical and Theological",
  "BookEdition": "",
  "BookEditors": [
    "Elias Benjamin Sanford"
  ],
  "BookVolumeNumber": "",
  "BookPublisher": "Funk & Wagnall Company",
  "BookCopyrightDate": "1890",
  "BookPrintingDate": "1895",
  "PublicationDate": "1895",
  "CreatorNames": [
    "Elias Benjamin Sanford"
  ],
  "ContributorNames": [],
  "Rating": []
}