{
  "ZWIversion": 1.4,
  "GeneratorName": "AutoZWI",
  "Title": "Guthlac",
  "Lang": "en",
  "Content": {
    "article.html": "d23ab823ece1d117254c4c50c02cde76473f33ba",
    "article.txt": "5a7308b4843d7a882edaaa16027dbeabca2bf468"
  },
  "Primary": "article.html",
  "Publisher": "ccrk",
  "LastModified": "1708959420",
  "TimeCreated": "1708959420",
  "Categories": [
    "Religion",
    "Christianity"
  ],
  "Topics": [],
  "Description": "Guthlac, St., presbyter, and hermit of Crowland; b. 674; d. 714. Of noble birth, he won fame in early youth by his prowess in leading a band of his soldiers against the Britons. Converted in his twenty-fourth year, he entered the monastery at Repton. From here he went to Crowland, a wild and desolate island which lay to the south of Lincolnshire. ",
  "Comment": "",
  "License": "Public Domain in the USA",
  "SourceURL": "https://oldpedia.org/article/ccrk/Guthlac",
  "SourceFileURL": "https://archive.org/details/concisecyclopedi00sanf",
  "LocalFileURL": "https://oldpedia.org/pdf/ccrk/concisecyclopedi00sanf.pdf",
  "ShortTitle": "",
  "BookTitle": "A Concise Cyclopedia of Religious Knowledge",
  "BookTitleLong": "A Concise Cyclopedia of Religious Knowledge: Biblical, Biographical, Geographical, Historical, Practical and Theological",
  "BookEdition": "",
  "BookEditors": [
    "Elias Benjamin Sanford"
  ],
  "BookVolumeNumber": "",
  "BookPublisher": "Funk & Wagnall Company",
  "BookCopyrightDate": "1890",
  "BookPrintingDate": "1895",
  "PublicationDate": "1895",
  "CreatorNames": [
    "Elias Benjamin Sanford"
  ],
  "ContributorNames": [],
  "Rating": []
}