{
  "ZWIversion": 1.4,
  "GeneratorName": "AutoZWI",
  "Title": "Campbell, Thomas",
  "Lang": "en",
  "Content": {
    "article.html": "d0add0c87dc081c71b80aa87ac3142b7297c4eca",
    "article.txt": "6cbe27ed878e5bf61175d41e3997494985564d56"
  },
  "Primary": "article.html",
  "Publisher": "ccrk",
  "LastModified": "1708959416",
  "TimeCreated": "1708959416",
  "Categories": [
    "Religion",
    "Christianity"
  ],
  "Topics": [],
  "Description": "Campbell, Thomas, father of Alexander Campbell; b. in Ireland, Feb. 1, 1763; d. at Bethany, Va., Jan. 4, 1854. See Alexander Campbell and Disciples.",
  "Comment": "",
  "License": "Public Domain in the USA",
  "SourceURL": "https://oldpedia.org/article/ccrk/Campbell, Thomas",
  "SourceFileURL": "https://archive.org/details/concisecyclopedi00sanf",
  "LocalFileURL": "https://oldpedia.org/pdf/ccrk/concisecyclopedi00sanf.pdf",
  "ShortTitle": "",
  "BookTitle": "A Concise Cyclopedia of Religious Knowledge",
  "BookTitleLong": "A Concise Cyclopedia of Religious Knowledge: Biblical, Biographical, Geographical, Historical, Practical and Theological",
  "BookEdition": "",
  "BookEditors": [
    "Elias Benjamin Sanford"
  ],
  "BookVolumeNumber": "",
  "BookPublisher": "Funk & Wagnall Company",
  "BookCopyrightDate": "1890",
  "BookPrintingDate": "1895",
  "PublicationDate": "1895",
  "CreatorNames": [
    "Elias Benjamin Sanford"
  ],
  "ContributorNames": [],
  "Rating": []
}