{
  "ZWIversion": 1.4,
  "GeneratorName": "AutoZWI",
  "Title": "Carnival",
  "Lang": "en",
  "Content": {
    "article.html": "59749e66e5df8b7620d3880e421800eb9a98c1b9",
    "article.txt": "b69859b5da12755d41dfa0354f82f610289a0dea"
  },
  "Primary": "article.html",
  "Publisher": "ccrk",
  "LastModified": "1708959416",
  "TimeCreated": "1708959416",
  "Categories": [
    "Religion",
    "Christianity"
  ],
  "Topics": [],
  "Description": "Carnival, a name given in Roman Catholic countries to the days immediately preceding Lent. Carnival season has been marked by wild and often riotous revelry, Carpenter, Mary, philanthropist; b. at Exeter, Eng., April 3, 1807; d. at Bristol, June 14, 1S77. Her life was spent in seeking to improve the criminal class. ",
  "Comment": "",
  "License": "Public Domain in the USA",
  "SourceURL": "https://oldpedia.org/article/ccrk/Carnival",
  "SourceFileURL": "https://archive.org/details/concisecyclopedi00sanf",
  "LocalFileURL": "https://oldpedia.org/pdf/ccrk/concisecyclopedi00sanf.pdf",
  "ShortTitle": "",
  "BookTitle": "A Concise Cyclopedia of Religious Knowledge",
  "BookTitleLong": "A Concise Cyclopedia of Religious Knowledge: Biblical, Biographical, Geographical, Historical, Practical and Theological",
  "BookEdition": "",
  "BookEditors": [
    "Elias Benjamin Sanford"
  ],
  "BookVolumeNumber": "",
  "BookPublisher": "Funk & Wagnall Company",
  "BookCopyrightDate": "1890",
  "BookPrintingDate": "1895",
  "PublicationDate": "1895",
  "CreatorNames": [
    "Elias Benjamin Sanford"
  ],
  "ContributorNames": [],
  "Rating": []
}