{
  "ZWIversion": 1.4,
  "GeneratorName": "AutoZWI",
  "Title": "Wolsey, Thomas",
  "Lang": "en",
  "Content": {
    "article.html": "ab941a421914b0f0516b0a2c4e96727b5f48c53a",
    "article.txt": "058db87b56584e8264c7a278f593dcf59644b8b1"
  },
  "Primary": "article.html",
  "Publisher": "ccrk",
  "LastModified": "1708959430",
  "TimeCreated": "1708959430",
  "Categories": [
    "Religion",
    "Christianity"
  ],
  "Topics": [],
  "Description": "Wolsey, Thomas, a cardinal of the Roman Catholic Church, and one of the most eminent statesmen of the time of Henry VIII.; b. at Ipswich, 1471; d. at Leicester, Nov. 29, 1530. He was graduated at Magdalen College, Oxford, and was early introduced to court, where he gained the favor of Henry VII., who in 1508 made him dean of Lincoln. ",
  "Comment": "",
  "License": "Public Domain in the USA",
  "SourceURL": "https://oldpedia.org/article/ccrk/Wolsey, Thomas",
  "SourceFileURL": "https://archive.org/details/concisecyclopedi00sanf",
  "LocalFileURL": "https://oldpedia.org/pdf/ccrk/concisecyclopedi00sanf.pdf",
  "ShortTitle": "",
  "BookTitle": "A Concise Cyclopedia of Religious Knowledge",
  "BookTitleLong": "A Concise Cyclopedia of Religious Knowledge: Biblical, Biographical, Geographical, Historical, Practical and Theological",
  "BookEdition": "",
  "BookEditors": [
    "Elias Benjamin Sanford"
  ],
  "BookVolumeNumber": "",
  "BookPublisher": "Funk & Wagnall Company",
  "BookCopyrightDate": "1890",
  "BookPrintingDate": "1895",
  "PublicationDate": "1895",
  "CreatorNames": [
    "Elias Benjamin Sanford"
  ],
  "ContributorNames": [],
  "Rating": []
}