{
  "ZWIversion": 1.4,
  "GeneratorName": "AutoZWI",
  "Title": "Cartwright, Peter, a wester",
  "Lang": "en",
  "Content": {
    "article.html": "35f9ea4d7907d9ce2d39d00c0fe1eb01116cfe3a",
    "article.txt": "e614d5ddefb93d31fba0f4ebb02e1363346c3f72"
  },
  "Primary": "article.html",
  "Publisher": "ccrk",
  "LastModified": "1708959416",
  "TimeCreated": "1708959416",
  "Categories": [
    "Religion",
    "Christianity"
  ],
  "Topics": [],
  "Description": "Cartwright, Peter, a western Methodist preacher, whose eccentric character but sterling ability made him widely known; b. in Virginia, 1785; d. near Pleasant Plains, Ill., Sept. 25, 1872. He was converted in 1801, and for more than fifty years he was in active ministerial service. He is said to have received over ten thousand persons into the church",
  "Comment": "",
  "License": "Public Domain in the USA",
  "SourceURL": "https://oldpedia.org/article/ccrk/Cartwright, Peter, a wester",
  "SourceFileURL": "https://archive.org/details/concisecyclopedi00sanf",
  "LocalFileURL": "https://oldpedia.org/pdf/ccrk/concisecyclopedi00sanf.pdf",
  "ShortTitle": "",
  "BookTitle": "A Concise Cyclopedia of Religious Knowledge",
  "BookTitleLong": "A Concise Cyclopedia of Religious Knowledge: Biblical, Biographical, Geographical, Historical, Practical and Theological",
  "BookEdition": "",
  "BookEditors": [
    "Elias Benjamin Sanford"
  ],
  "BookVolumeNumber": "",
  "BookPublisher": "Funk & Wagnall Company",
  "BookCopyrightDate": "1890",
  "BookPrintingDate": "1895",
  "PublicationDate": "1895",
  "CreatorNames": [
    "Elias Benjamin Sanford"
  ],
  "ContributorNames": [],
  "Rating": []
}