{
  "ZWIversion": 1.4,
  "GeneratorName": "AutoZWI",
  "Title": "Abbott, Benjamin",
  "Lang": "en",
  "Content": {
    "article.html": "09524082d9b00fb2637821c422ca2fcf771c4f4d",
    "article.txt": "ea93f94f8bc58f6bf3ff0b36bfb941a2fef2469c"
  },
  "Primary": "article.html",
  "Publisher": "ccrk",
  "LastModified": "1708959413",
  "TimeCreated": "1708959413",
  "Categories": [
    "Religion",
    "Christianity"
  ],
  "Topics": [],
  "Description": "Abbott, Benjamin, one of the most successful of the pioneer Methodist preachers in America; b. in Pennsylvania in 1732; d. 1796. He was an unlearned man, but possessed great natural ability, which, combined with a spirit of entire devotion, made him the instrument in the conversion of many thousands of people.",
  "Comment": "",
  "License": "Public Domain in the USA",
  "SourceURL": "https://oldpedia.org/article/ccrk/Abbott, Benjamin",
  "SourceFileURL": "https://archive.org/details/concisecyclopedi00sanf",
  "LocalFileURL": "https://oldpedia.org/pdf/ccrk/concisecyclopedi00sanf.pdf",
  "ShortTitle": "",
  "BookTitle": "A Concise Cyclopedia of Religious Knowledge",
  "BookTitleLong": "A Concise Cyclopedia of Religious Knowledge: Biblical, Biographical, Geographical, Historical, Practical and Theological",
  "BookEdition": "",
  "BookEditors": [
    "Elias Benjamin Sanford"
  ],
  "BookVolumeNumber": "",
  "BookPublisher": "Funk & Wagnall Company",
  "BookCopyrightDate": "1890",
  "BookPrintingDate": "1895",
  "PublicationDate": "1895",
  "CreatorNames": [
    "Elias Benjamin Sanford"
  ],
  "ContributorNames": [],
  "Rating": []
}