{
  "ZWIversion": 1.4,
  "GeneratorName": "AutoZWI",
  "Title": "Barrowe, Henry",
  "Lang": "en",
  "Content": {
    "article.html": "e0d8613b6fa10699e0f2dd99e0763bb5a0311904",
    "article.txt": "e94a89f081681a2f7bbaf255c6da411aa54cd07f"
  },
  "Primary": "article.html",
  "Publisher": "ccrk",
  "LastModified": "1708959414",
  "TimeCreated": "1708959414",
  "Categories": [
    "Religion",
    "Christianity"
  ],
  "Topics": [],
  "Description": "Barrowe, Henry, was of a good family, and gained admittance to the bar in 1576. He was converted, and met John Greenwood, with whom he became interested in church reform. He visited Greenwood in prison, and was himself arrested, and, after several examinations, confined the remainder of his life in the Fleet Prison. ",
  "Comment": "",
  "License": "Public Domain in the USA",
  "SourceURL": "https://oldpedia.org/article/ccrk/Barrowe, Henry",
  "SourceFileURL": "https://archive.org/details/concisecyclopedi00sanf",
  "LocalFileURL": "https://oldpedia.org/pdf/ccrk/concisecyclopedi00sanf.pdf",
  "ShortTitle": "",
  "BookTitle": "A Concise Cyclopedia of Religious Knowledge",
  "BookTitleLong": "A Concise Cyclopedia of Religious Knowledge: Biblical, Biographical, Geographical, Historical, Practical and Theological",
  "BookEdition": "",
  "BookEditors": [
    "Elias Benjamin Sanford"
  ],
  "BookVolumeNumber": "",
  "BookPublisher": "Funk & Wagnall Company",
  "BookCopyrightDate": "1890",
  "BookPrintingDate": "1895",
  "PublicationDate": "1895",
  "CreatorNames": [
    "Elias Benjamin Sanford"
  ],
  "ContributorNames": [],
  "Rating": []
}