{
  "ZWIversion": 1.4,
  "GeneratorName": "AutoZWI",
  "Title": "Sears",
  "Lang": "en",
  "Content": {
    "article.html": "ef75e5e68e41fb5cd14f93486a644b7efa0a0cc3",
    "article.txt": "605bc433b1a9602694f673983acb14b82353e1e7"
  },
  "Primary": "article.html",
  "Publisher": "ccrk",
  "LastModified": "1708959428",
  "TimeCreated": "1708959428",
  "Categories": [
    "Religion",
    "Christianity"
  ],
  "Topics": [],
  "Description": "Sears, Barnas, LL. D., a distinguished educator; b. at Sandisfield, Mass., Nov. 19, 1802; d. at Saratoga Springs, N. Y., July 6, 1880. After graduating from Brown University in 1825, and Newton Theological Seminary in 1828, he was pastor for a short time of the First Baptist Church of Hartford, Conn. In 1829 he became professor of ancient languages",
  "Comment": "",
  "License": "Public Domain in the USA",
  "SourceURL": "https://oldpedia.org/article/ccrk/Sears",
  "SourceFileURL": "https://archive.org/details/concisecyclopedi00sanf",
  "LocalFileURL": "https://oldpedia.org/pdf/ccrk/concisecyclopedi00sanf.pdf",
  "ShortTitle": "",
  "BookTitle": "A Concise Cyclopedia of Religious Knowledge",
  "BookTitleLong": "A Concise Cyclopedia of Religious Knowledge: Biblical, Biographical, Geographical, Historical, Practical and Theological",
  "BookEdition": "",
  "BookEditors": [
    "Elias Benjamin Sanford"
  ],
  "BookVolumeNumber": "",
  "BookPublisher": "Funk & Wagnall Company",
  "BookCopyrightDate": "1890",
  "BookPrintingDate": "1895",
  "PublicationDate": "1895",
  "CreatorNames": [
    "Elias Benjamin Sanford"
  ],
  "ContributorNames": [],
  "Rating": []
}