{
  "ZWIversion": 1.4,
  "GeneratorName": "AutoZWI",
  "Title": "Beth-shean",
  "Lang": "en",
  "Content": {
    "article.html": "35c452383df9f5a42658551b5c57bb0fa287f1d2",
    "article.txt": "5bda61cea2f99eac9eba0efa1f37f4f5673aacfd"
  },
  "Primary": "article.html",
  "Publisher": "ccrk",
  "LastModified": "1708959415",
  "TimeCreated": "1708959415",
  "Categories": [
    "Religion",
    "Christianity"
  ],
  "Topics": [],
  "Description": "Beth-she'an (house of quiet), a city situated on the road from Jerusalem, about five miles from the Jordan. The dead body of Saul was fastened to its walls, (i Sam. xxxi. io.) It was called Scythopolis after the captivity, and became a chief city of Decapolis. Its site is marked by extensive ruins. ",
  "Comment": "",
  "License": "Public Domain in the USA",
  "SourceURL": "https://oldpedia.org/article/ccrk/Beth-shean",
  "SourceFileURL": "https://archive.org/details/concisecyclopedi00sanf",
  "LocalFileURL": "https://oldpedia.org/pdf/ccrk/concisecyclopedi00sanf.pdf",
  "ShortTitle": "",
  "BookTitle": "A Concise Cyclopedia of Religious Knowledge",
  "BookTitleLong": "A Concise Cyclopedia of Religious Knowledge: Biblical, Biographical, Geographical, Historical, Practical and Theological",
  "BookEdition": "",
  "BookEditors": [
    "Elias Benjamin Sanford"
  ],
  "BookVolumeNumber": "",
  "BookPublisher": "Funk & Wagnall Company",
  "BookCopyrightDate": "1890",
  "BookPrintingDate": "1895",
  "PublicationDate": "1895",
  "CreatorNames": [
    "Elias Benjamin Sanford"
  ],
  "ContributorNames": [],
  "Rating": []
}