{
  "ZWIversion": 1.4,
  "GeneratorName": "AutoZWI",
  "Title": "Friendly",
  "Lang": "en",
  "Content": {
    "article.html": "a92c181ac1413bb5aea1620bcddf90f9114b292d",
    "article.txt": "51bfeb187238735f91f5bb50f4fcc4bf5818c32a"
  },
  "Primary": "article.html",
  "Publisher": "ccrk",
  "LastModified": "1708959419",
  "TimeCreated": "1708959419",
  "Categories": [
    "Religion",
    "Christianity"
  ],
  "Topics": [],
  "Description": "Friendly Islands were discovered by Tasman in 1643, but were named by Capt. Cook. The first attempt to introduce Christianity was made in 1797. Of the ten missionaries, three were murdered, and the rest were robbed and left in a suffering condition. They finally, in 1800, took passage in a ship sailing to New South Wales. ",
  "Comment": "",
  "License": "Public Domain in the USA",
  "SourceURL": "https://oldpedia.org/article/ccrk/Friendly",
  "SourceFileURL": "https://archive.org/details/concisecyclopedi00sanf",
  "LocalFileURL": "https://oldpedia.org/pdf/ccrk/concisecyclopedi00sanf.pdf",
  "ShortTitle": "",
  "BookTitle": "A Concise Cyclopedia of Religious Knowledge",
  "BookTitleLong": "A Concise Cyclopedia of Religious Knowledge: Biblical, Biographical, Geographical, Historical, Practical and Theological",
  "BookEdition": "",
  "BookEditors": [
    "Elias Benjamin Sanford"
  ],
  "BookVolumeNumber": "",
  "BookPublisher": "Funk & Wagnall Company",
  "BookCopyrightDate": "1890",
  "BookPrintingDate": "1895",
  "PublicationDate": "1895",
  "CreatorNames": [
    "Elias Benjamin Sanford"
  ],
  "ContributorNames": [],
  "Rating": []
}