{
  "ZWIversion": 1.4,
  "GeneratorName": "AutoZWI",
  "Title": "Beecher, Henry Ward",
  "Lang": "en",
  "Content": {
    "article.html": "08659fdb27ff4e41e3d573dd1f6a7927b4986e5b",
    "article.txt": "3d9de15ac63e34055c6da9fd4ba4413e1d3f231d"
  },
  "Primary": "article.html",
  "Publisher": "ccrk",
  "LastModified": "1708959414",
  "TimeCreated": "1708959414",
  "Categories": [
    "Religion",
    "Christianity"
  ],
  "Topics": [],
  "Description": "Beecher, Henry Ward; b. at Litchfield, Conn., June 24, 1813; d. in Brooklyn, N. Y., March 8, 1887. After graduating at Amherst College in 1834, he studied theology at Lane Seminary, Cincinnati, of which his father was then president. He was pastor of the Presbyterian Church at Lawrenceburg, Ind. (1837), and then at Indianapolis from 1839 to 1847, wh",
  "Comment": "",
  "License": "Public Domain in the USA",
  "SourceURL": "https://oldpedia.org/article/ccrk/Beecher, Henry Ward",
  "SourceFileURL": "https://archive.org/details/concisecyclopedi00sanf",
  "LocalFileURL": "https://oldpedia.org/pdf/ccrk/concisecyclopedi00sanf.pdf",
  "ShortTitle": "",
  "BookTitle": "A Concise Cyclopedia of Religious Knowledge",
  "BookTitleLong": "A Concise Cyclopedia of Religious Knowledge: Biblical, Biographical, Geographical, Historical, Practical and Theological",
  "BookEdition": "",
  "BookEditors": [
    "Elias Benjamin Sanford"
  ],
  "BookVolumeNumber": "",
  "BookPublisher": "Funk & Wagnall Company",
  "BookCopyrightDate": "1890",
  "BookPrintingDate": "1895",
  "PublicationDate": "1895",
  "CreatorNames": [
    "Elias Benjamin Sanford"
  ],
  "ContributorNames": [],
  "Rating": []
}