{
  "ZWIversion": 1.4,
  "GeneratorName": "AutoZWI",
  "Title": "Ecbatana",
  "Lang": "en",
  "Content": {
    "article.html": "ce26305d76e8eb2966499a53cdfc04b034227579",
    "article.txt": "41647b7ebf7d256705120f72276808494e3fbde1"
  },
  "Primary": "article.html",
  "Publisher": "ccrk",
  "LastModified": "1708959418",
  "TimeCreated": "1708959418",
  "Categories": [
    "Religion",
    "Christianity"
  ],
  "Topics": [],
  "Description": "Ecbatana. The modern Hamadan, a town in Persia at the foot of the Elwend Mountains, is the site of the magnificent city of Ecbatana, the summer residence of the Persian kings from the time of Darius Hystaspis to the Greek conquest. This was probably the place where the roll was found containingCyrus’s decree for rebuilding the temple at Jerusalem. ",
  "Comment": "",
  "License": "Public Domain in the USA",
  "SourceURL": "https://oldpedia.org/article/ccrk/Ecbatana",
  "SourceFileURL": "https://archive.org/details/concisecyclopedi00sanf",
  "LocalFileURL": "https://oldpedia.org/pdf/ccrk/concisecyclopedi00sanf.pdf",
  "ShortTitle": "",
  "BookTitle": "A Concise Cyclopedia of Religious Knowledge",
  "BookTitleLong": "A Concise Cyclopedia of Religious Knowledge: Biblical, Biographical, Geographical, Historical, Practical and Theological",
  "BookEdition": "",
  "BookEditors": [
    "Elias Benjamin Sanford"
  ],
  "BookVolumeNumber": "",
  "BookPublisher": "Funk & Wagnall Company",
  "BookCopyrightDate": "1890",
  "BookPrintingDate": "1895",
  "PublicationDate": "1895",
  "CreatorNames": [
    "Elias Benjamin Sanford"
  ],
  "ContributorNames": [],
  "Rating": []
}