{
  "ZWIversion": 1.4,
  "GeneratorName": "AutoZWI",
  "Title": "Masorites, or Masoretes",
  "Lang": "en",
  "Content": {
    "article.html": "f7781f5f9d3f32b6cd4cf67138c25ab0dd38f40c",
    "article.txt": "787a285e1de20ca18aacd5dd08816dbd56a1f07f"
  },
  "Primary": "article.html",
  "Publisher": "ccrk",
  "LastModified": "1708959424",
  "TimeCreated": "1708959424",
  "Categories": [
    "Religion",
    "Christianity"
  ],
  "Topics": [],
  "Description": "Masorites, or Masoretes, the name given to the Rabbis who made it their special work to correct the faults which 'had crept into the text of the Old Testament during the Babylonish captivity, and to prevent, for the future, its being corrupted by any alteration. The name is derived from Adasora, i. e., “tradition,” or from Massorah, “to bind.” They",
  "Comment": "",
  "License": "Public Domain in the USA",
  "SourceURL": "https://oldpedia.org/article/ccrk/Masorites, or Masoretes",
  "SourceFileURL": "https://archive.org/details/concisecyclopedi00sanf",
  "LocalFileURL": "https://oldpedia.org/pdf/ccrk/concisecyclopedi00sanf.pdf",
  "ShortTitle": "",
  "BookTitle": "A Concise Cyclopedia of Religious Knowledge",
  "BookTitleLong": "A Concise Cyclopedia of Religious Knowledge: Biblical, Biographical, Geographical, Historical, Practical and Theological",
  "BookEdition": "",
  "BookEditors": [
    "Elias Benjamin Sanford"
  ],
  "BookVolumeNumber": "",
  "BookPublisher": "Funk & Wagnall Company",
  "BookCopyrightDate": "1890",
  "BookPrintingDate": "1895",
  "PublicationDate": "1895",
  "CreatorNames": [
    "Elias Benjamin Sanford"
  ],
  "ContributorNames": [],
  "Rating": []
}