{
  "ZWIversion": 1.4,
  "GeneratorName": "AutoZWI",
  "Title": "Bonnivard",
  "Lang": "en",
  "Content": {
    "article.html": "09a2d8bfb1caf954b58f319b2750d7949d8fe2cd",
    "article.txt": "fe81eb83537ea6fa3db89a4f26c5cea637c6d719"
  },
  "Primary": "article.html",
  "Publisher": "ccrk",
  "LastModified": "1708959415",
  "TimeCreated": "1708959415",
  "Categories": [
    "Religion",
    "Christianity"
  ],
  "Topics": [],
  "Description": "Bonnivard' Jo-ne-var), the “Prisoner of Chilion;” b. 1493, at Seyssel on the Rhone; d. 1570, at Geneva. He was prior of the convent of St. Victor at Geneva, and through the influence of the Duke Charles of Saxony, was deprived of several benefices to which he had a hereditary right. Embittered by this action he espoused the cause of the Genevan patr",
  "Comment": "",
  "License": "Public Domain in the USA",
  "SourceURL": "https://oldpedia.org/article/ccrk/Bonnivard",
  "SourceFileURL": "https://archive.org/details/concisecyclopedi00sanf",
  "LocalFileURL": "https://oldpedia.org/pdf/ccrk/concisecyclopedi00sanf.pdf",
  "ShortTitle": "",
  "BookTitle": "A Concise Cyclopedia of Religious Knowledge",
  "BookTitleLong": "A Concise Cyclopedia of Religious Knowledge: Biblical, Biographical, Geographical, Historical, Practical and Theological",
  "BookEdition": "",
  "BookEditors": [
    "Elias Benjamin Sanford"
  ],
  "BookVolumeNumber": "",
  "BookPublisher": "Funk & Wagnall Company",
  "BookCopyrightDate": "1890",
  "BookPrintingDate": "1895",
  "PublicationDate": "1895",
  "CreatorNames": [
    "Elias Benjamin Sanford"
  ],
  "ContributorNames": [],
  "Rating": []
}