{
  "ZWIversion": 1.4,
  "GeneratorName": "AutoZWI",
  "Title": "Messiah",
  "Lang": "en",
  "Content": {
    "article.html": "46c1c23d4bbb1a60e61be7053dd023af9556de14",
    "article.txt": "8004b67a81e06a325620345625bb03196fc7802a"
  },
  "Primary": "article.html",
  "Publisher": "ccrk",
  "LastModified": "1708959424",
  "TimeCreated": "1708959424",
  "Categories": [
    "Religion",
    "Christianity"
  ],
  "Topics": [],
  "Description": "Messiah, Messianic Prophecy. Defining Messianic Prophecy as the prediction of the completion of redemption through the Messiah, we must understand the meaning of the word “Messiah.” The term “Messiah,” or, more correctly, Mashiach, represented in the Greek by Messias, denotes “the Anointed One.” In the Septuagint and the New Testament it is rendered",
  "Comment": "",
  "License": "Public Domain in the USA",
  "SourceURL": "https://oldpedia.org/article/ccrk/Messiah",
  "SourceFileURL": "https://archive.org/details/concisecyclopedi00sanf",
  "LocalFileURL": "https://oldpedia.org/pdf/ccrk/concisecyclopedi00sanf.pdf",
  "ShortTitle": "",
  "BookTitle": "A Concise Cyclopedia of Religious Knowledge",
  "BookTitleLong": "A Concise Cyclopedia of Religious Knowledge: Biblical, Biographical, Geographical, Historical, Practical and Theological",
  "BookEdition": "",
  "BookEditors": [
    "Elias Benjamin Sanford"
  ],
  "BookVolumeNumber": "",
  "BookPublisher": "Funk & Wagnall Company",
  "BookCopyrightDate": "1890",
  "BookPrintingDate": "1895",
  "PublicationDate": "1895",
  "CreatorNames": [
    "Elias Benjamin Sanford"
  ],
  "ContributorNames": [],
  "Rating": []
}