{
  "ZWIversion": 1.4,
  "GeneratorName": "AutoZWI",
  "Title": "Alesius, Alexander",
  "Lang": "en",
  "Content": {
    "article.html": "12580cfd02c956cc089f9ec1d2338c11133e6745",
    "article.txt": "4d34dccc4837f813371c37bdeccbbae06e2497d5"
  },
  "Primary": "article.html",
  "Publisher": "ccrk",
  "LastModified": "1708959413",
  "TimeCreated": "1708959413",
  "Categories": [
    "Religion",
    "Christianity"
  ],
  "Topics": [],
  "Description": "Alesius, Alexander, b. in Edinburgh, April 23, 1500; d. at Leipzig, Nov. 29, 1560. Educated at the university of St. Andrew’s, he was appointed canon there, and in the discharge of his duties was required to seek the recantation of Patrick Hamilton (y. v.), but his intercourse with Hamilton resulted in a conversion to his views. ",
  "Comment": "",
  "License": "Public Domain in the USA",
  "SourceURL": "https://oldpedia.org/article/ccrk/Alesius, Alexander",
  "SourceFileURL": "https://archive.org/details/concisecyclopedi00sanf",
  "LocalFileURL": "https://oldpedia.org/pdf/ccrk/concisecyclopedi00sanf.pdf",
  "ShortTitle": "",
  "BookTitle": "A Concise Cyclopedia of Religious Knowledge",
  "BookTitleLong": "A Concise Cyclopedia of Religious Knowledge: Biblical, Biographical, Geographical, Historical, Practical and Theological",
  "BookEdition": "",
  "BookEditors": [
    "Elias Benjamin Sanford"
  ],
  "BookVolumeNumber": "",
  "BookPublisher": "Funk & Wagnall Company",
  "BookCopyrightDate": "1890",
  "BookPrintingDate": "1895",
  "PublicationDate": "1895",
  "CreatorNames": [
    "Elias Benjamin Sanford"
  ],
  "ContributorNames": [],
  "Rating": []
}