{
  "ZWIversion": 1.4,
  "GeneratorName": "AutoZWI",
  "Title": "Parker, Matthew",
  "Lang": "en",
  "Content": {
    "article.html": "74379c5b138176d4a9344e21905e924ba253fcfd",
    "article.txt": "76f0ab11cc38bd6a49da8b9582c924158342b412"
  },
  "Primary": "article.html",
  "Publisher": "ccrk",
  "LastModified": "1708959426",
  "TimeCreated": "1708959426",
  "Categories": [
    "Religion",
    "Christianity"
  ],
  "Topics": [],
  "Description": "Parker, Matthew, the second Protestant archbishop of Canterbury; b. in Norwich, Aug. 6, 1504; d. at Lambeth, May 17, 1575. He was educated at Cambridge, and became master of Corpus Christi College and dean of Lincoln. He was appointed archbishop by Elizabeth. He aided in the preparation of the Bishop’s Bible, and wrote De Antiquitata Britannic# Eccl",
  "Comment": "",
  "License": "Public Domain in the USA",
  "SourceURL": "https://oldpedia.org/article/ccrk/Parker, Matthew",
  "SourceFileURL": "https://archive.org/details/concisecyclopedi00sanf",
  "LocalFileURL": "https://oldpedia.org/pdf/ccrk/concisecyclopedi00sanf.pdf",
  "ShortTitle": "",
  "BookTitle": "A Concise Cyclopedia of Religious Knowledge",
  "BookTitleLong": "A Concise Cyclopedia of Religious Knowledge: Biblical, Biographical, Geographical, Historical, Practical and Theological",
  "BookEdition": "",
  "BookEditors": [
    "Elias Benjamin Sanford"
  ],
  "BookVolumeNumber": "",
  "BookPublisher": "Funk & Wagnall Company",
  "BookCopyrightDate": "1890",
  "BookPrintingDate": "1895",
  "PublicationDate": "1895",
  "CreatorNames": [
    "Elias Benjamin Sanford"
  ],
  "ContributorNames": [],
  "Rating": []
}