{
  "ZWIversion": 1.4,
  "GeneratorName": "AutoZWI",
  "Title": "Druses",
  "Lang": "en",
  "Content": {
    "article.html": "00e12158ffbb2970a76d72c2d01b52a21df33a3d",
    "article.txt": "943372a6bd2b9cee5b47c30d6954cdce88314aee"
  },
  "Primary": "article.html",
  "Publisher": "ccrk",
  "LastModified": "1708959418",
  "TimeCreated": "1708959418",
  "Categories": [
    "Religion",
    "Christianity"
  ],
  "Topics": [],
  "Description": "Druses, a peculiar Syrian sect who inhabit the ranges of Lebanon, and from the Mediterranean are scattered as far east as Damascus. They are under Turkish rule, but enjoy considerable political freedom. With the Mohammedans they hold that there is no god but God, but they assert that he is unknowable and has revealed himself to man by incarnations.",
  "Comment": "",
  "License": "Public Domain in the USA",
  "SourceURL": "https://oldpedia.org/article/ccrk/Druses",
  "SourceFileURL": "https://archive.org/details/concisecyclopedi00sanf",
  "LocalFileURL": "https://oldpedia.org/pdf/ccrk/concisecyclopedi00sanf.pdf",
  "ShortTitle": "",
  "BookTitle": "A Concise Cyclopedia of Religious Knowledge",
  "BookTitleLong": "A Concise Cyclopedia of Religious Knowledge: Biblical, Biographical, Geographical, Historical, Practical and Theological",
  "BookEdition": "",
  "BookEditors": [
    "Elias Benjamin Sanford"
  ],
  "BookVolumeNumber": "",
  "BookPublisher": "Funk & Wagnall Company",
  "BookCopyrightDate": "1890",
  "BookPrintingDate": "1895",
  "PublicationDate": "1895",
  "CreatorNames": [
    "Elias Benjamin Sanford"
  ],
  "ContributorNames": [],
  "Rating": []
}