{
  "ZWIversion": 1.4,
  "GeneratorName": "AutoZWI",
  "Title": "Mercy, Sisters of",
  "Lang": "en",
  "Content": {
    "article.html": "fe08df669a979d8fcbfe530e50b5e530b1d6495f",
    "article.txt": "087b640aa6ad04725b8f0f6a321813830a65cf63"
  },
  "Primary": "article.html",
  "Publisher": "ccrk",
  "LastModified": "1708959424",
  "TimeCreated": "1708959424",
  "Categories": [
    "Religion",
    "Christianity"
  ],
  "Topics": [],
  "Description": "Mercy, Sisters of, or Order of our Lady of Mercy, was founded by Miss Catharine McAuley, at Dublin in 1831. The order is under the rule of St. Augustine, and was confirmed by Gregory XVI. in 1840. It has spread rapidly both in Great Britain and the United States. The first house opened in this country was at Pittsburg, Penn., 1843. ",
  "Comment": "",
  "License": "Public Domain in the USA",
  "SourceURL": "https://oldpedia.org/article/ccrk/Mercy, Sisters of",
  "SourceFileURL": "https://archive.org/details/concisecyclopedi00sanf",
  "LocalFileURL": "https://oldpedia.org/pdf/ccrk/concisecyclopedi00sanf.pdf",
  "ShortTitle": "",
  "BookTitle": "A Concise Cyclopedia of Religious Knowledge",
  "BookTitleLong": "A Concise Cyclopedia of Religious Knowledge: Biblical, Biographical, Geographical, Historical, Practical and Theological",
  "BookEdition": "",
  "BookEditors": [
    "Elias Benjamin Sanford"
  ],
  "BookVolumeNumber": "",
  "BookPublisher": "Funk & Wagnall Company",
  "BookCopyrightDate": "1890",
  "BookPrintingDate": "1895",
  "PublicationDate": "1895",
  "CreatorNames": [
    "Elias Benjamin Sanford"
  ],
  "ContributorNames": [],
  "Rating": []
}