{
  "ZWIversion": 1.4,
  "GeneratorName": "AutoZWI",
  "Title": "Beard, Richard",
  "Lang": "en",
  "Content": {
    "article.html": "a62fcb3f447f5fd332562bcdbf03c1d1e167b7d5",
    "article.txt": "b284f470ba647c205117b4fffa8c9f2e57695014"
  },
  "Primary": "article.html",
  "Publisher": "ccrk",
  "LastModified": "1708959414",
  "TimeCreated": "1708959414",
  "Categories": [
    "Religion",
    "Christianity"
  ],
  "Topics": [],
  "Description": "Beard, Richard, D. D., Cumberland Presbyterian; b. in Sumner County, Tenn., Nov. 27, 1799; d. at Lebanon, Tenn., Nov. 6, 1880. He began his public ministry in 1820. He afterward became a teacher in Cumberland College, Princeton, Ky., and then in Sharon College, Sharon, Miss. He was president of Cumberland College from 1842 to 1854, and then accepted",
  "Comment": "",
  "License": "Public Domain in the USA",
  "SourceURL": "https://oldpedia.org/article/ccrk/Beard, Richard",
  "SourceFileURL": "https://archive.org/details/concisecyclopedi00sanf",
  "LocalFileURL": "https://oldpedia.org/pdf/ccrk/concisecyclopedi00sanf.pdf",
  "ShortTitle": "",
  "BookTitle": "A Concise Cyclopedia of Religious Knowledge",
  "BookTitleLong": "A Concise Cyclopedia of Religious Knowledge: Biblical, Biographical, Geographical, Historical, Practical and Theological",
  "BookEdition": "",
  "BookEditors": [
    "Elias Benjamin Sanford"
  ],
  "BookVolumeNumber": "",
  "BookPublisher": "Funk & Wagnall Company",
  "BookCopyrightDate": "1890",
  "BookPrintingDate": "1895",
  "PublicationDate": "1895",
  "CreatorNames": [
    "Elias Benjamin Sanford"
  ],
  "ContributorNames": [],
  "Rating": []
}