{
  "ZWIversion": 1.4,
  "GeneratorName": "AutoZWI",
  "Title": "India",
  "Lang": "en",
  "Content": {
    "article.html": "6ebb66252fee532e4d0645b073640a920438343a",
    "article.txt": "f7cf5852dfda60e23f9d10d9929a115b057e1e31"
  },
  "Primary": "article.html",
  "Publisher": "ccrk",
  "LastModified": "1708959422",
  "TimeCreated": "1708959422",
  "Categories": [
    "Religion",
    "Christianity"
  ],
  "Topics": [],
  "Description": "India. Of the religions of this great empire, Brahminism or Hinduism is the oldest, antedating the coming of Christ several centuries. The following is an approximate division of the population as to religion: Hindus.............139, 000, 000 Mohammedans......... 40, 000, 000 Buddhists........... 3, 000, 000 Sikhs.................... ",
  "Comment": "",
  "License": "Public Domain in the USA",
  "SourceURL": "https://oldpedia.org/article/ccrk/India",
  "SourceFileURL": "https://archive.org/details/concisecyclopedi00sanf",
  "LocalFileURL": "https://oldpedia.org/pdf/ccrk/concisecyclopedi00sanf.pdf",
  "ShortTitle": "",
  "BookTitle": "A Concise Cyclopedia of Religious Knowledge",
  "BookTitleLong": "A Concise Cyclopedia of Religious Knowledge: Biblical, Biographical, Geographical, Historical, Practical and Theological",
  "BookEdition": "",
  "BookEditors": [
    "Elias Benjamin Sanford"
  ],
  "BookVolumeNumber": "",
  "BookPublisher": "Funk & Wagnall Company",
  "BookCopyrightDate": "1890",
  "BookPrintingDate": "1895",
  "PublicationDate": "1895",
  "CreatorNames": [
    "Elias Benjamin Sanford"
  ],
  "ContributorNames": [],
  "Rating": []
}