{
  "ZWIversion": 1.4,
  "GeneratorName": "AutoZWI",
  "Title": "Boniface",
  "Lang": "en",
  "Content": {
    "article.html": "d2dac78b3974da36cfe81bcf6a3e45274dea1ff3",
    "article.txt": "3ebb703e0085996b6b8836ba4896d6e214c4b1a9"
  },
  "Primary": "article.html",
  "Publisher": "ccrk",
  "LastModified": "1708959415",
  "TimeCreated": "1708959415",
  "Categories": [
    "Religion",
    "Christianity"
  ],
  "Topics": [],
  "Description": "Boniface, St., the “Apostle of Germany;” b. in Devonshire, Eng., in 680; d. probably in 755, near Dokkum, Friesland. His baptismal name was Winfrid. Educated in the convents of Exeter and Nutcell, he entered the priesthood at thirty years of age. Fired with missionary zeal, he visited Friesland in 715, but his efforts were frustrated by a war then w",
  "Comment": "",
  "License": "Public Domain in the USA",
  "SourceURL": "https://oldpedia.org/article/ccrk/Boniface",
  "SourceFileURL": "https://archive.org/details/concisecyclopedi00sanf",
  "LocalFileURL": "https://oldpedia.org/pdf/ccrk/concisecyclopedi00sanf.pdf",
  "ShortTitle": "",
  "BookTitle": "A Concise Cyclopedia of Religious Knowledge",
  "BookTitleLong": "A Concise Cyclopedia of Religious Knowledge: Biblical, Biographical, Geographical, Historical, Practical and Theological",
  "BookEdition": "",
  "BookEditors": [
    "Elias Benjamin Sanford"
  ],
  "BookVolumeNumber": "",
  "BookPublisher": "Funk & Wagnall Company",
  "BookCopyrightDate": "1890",
  "BookPrintingDate": "1895",
  "PublicationDate": "1895",
  "CreatorNames": [
    "Elias Benjamin Sanford"
  ],
  "ContributorNames": [],
  "Rating": []
}