{
  "ZWIversion": 1.4,
  "GeneratorName": "AutoZWI",
  "Title": "Cappadocia",
  "Lang": "en",
  "Content": {
    "article.html": "187d08f5fe4f858eab57d86971862f2b319a2a8a",
    "article.txt": "74f6234b1529376d5038d31b8e08eeaa93130830"
  },
  "Primary": "article.html",
  "Publisher": "ccrk",
  "LastModified": "1708959416",
  "TimeCreated": "1708959416",
  "Categories": [
    "Religion",
    "Christianity"
  ],
  "Topics": [],
  "Description": "Cappado'cia, the most eastern district of Asia Minor. It is an elevated table-land intersected by mountain ranges. It is sparsely wooded, but a good grain and grazing country. Some of its Jewish residents were among the hearers of St. Peter’s first sermon (Acts ii. 9), and, afterward, converts in this province were addressed by him. (1 Peter i. ",
  "Comment": "",
  "License": "Public Domain in the USA",
  "SourceURL": "https://oldpedia.org/article/ccrk/Cappadocia",
  "SourceFileURL": "https://archive.org/details/concisecyclopedi00sanf",
  "LocalFileURL": "https://oldpedia.org/pdf/ccrk/concisecyclopedi00sanf.pdf",
  "ShortTitle": "",
  "BookTitle": "A Concise Cyclopedia of Religious Knowledge",
  "BookTitleLong": "A Concise Cyclopedia of Religious Knowledge: Biblical, Biographical, Geographical, Historical, Practical and Theological",
  "BookEdition": "",
  "BookEditors": [
    "Elias Benjamin Sanford"
  ],
  "BookVolumeNumber": "",
  "BookPublisher": "Funk & Wagnall Company",
  "BookCopyrightDate": "1890",
  "BookPrintingDate": "1895",
  "PublicationDate": "1895",
  "CreatorNames": [
    "Elias Benjamin Sanford"
  ],
  "ContributorNames": [],
  "Rating": []
}