{
  "ZWIversion": 1.4,
  "GeneratorName": "AutoZWI",
  "Title": "Briggs, Charles Augustus",
  "Lang": "en",
  "Content": {
    "article.html": "33e5595b1ace19f53b6553613ef42c577dd77413",
    "article.txt": "b086bf2939816aaed70560a622d15d1348dd25b7"
  },
  "Primary": "article.html",
  "Publisher": "ccrk",
  "LastModified": "1708959415",
  "TimeCreated": "1708959415",
  "Categories": [
    "Religion",
    "Christianity"
  ],
  "Topics": [],
  "Description": "Briggs, Charles Augustus, D. D. (Edinburgh, 1884), Presbyterian; b. in New York City, Jan. 15, 1841; studied in the University of Virginia, 1857-60; in the Union Theological Seminary, New York, 1861-63; and in the University of Berlin under Dorner and Rodiger, 1866-69; became pastor at Roselle, N. J., 1870; professor of Hebrew and the cognate langua",
  "Comment": "",
  "License": "Public Domain in the USA",
  "SourceURL": "https://oldpedia.org/article/ccrk/Briggs, Charles Augustus",
  "SourceFileURL": "https://archive.org/details/concisecyclopedi00sanf",
  "LocalFileURL": "https://oldpedia.org/pdf/ccrk/concisecyclopedi00sanf.pdf",
  "ShortTitle": "",
  "BookTitle": "A Concise Cyclopedia of Religious Knowledge",
  "BookTitleLong": "A Concise Cyclopedia of Religious Knowledge: Biblical, Biographical, Geographical, Historical, Practical and Theological",
  "BookEdition": "",
  "BookEditors": [
    "Elias Benjamin Sanford"
  ],
  "BookVolumeNumber": "",
  "BookPublisher": "Funk & Wagnall Company",
  "BookCopyrightDate": "1890",
  "BookPrintingDate": "1895",
  "PublicationDate": "1895",
  "CreatorNames": [
    "Elias Benjamin Sanford"
  ],
  "ContributorNames": [],
  "Rating": []
}