{
  "ZWIversion": 1.4,
  "GeneratorName": "AutoZWI",
  "Title": "Ten Commandments, The",
  "Lang": "en",
  "Content": {
    "article.html": "7e2af3e32533bee0e9707f46eac4f13422e549ea",
    "article.txt": "e4f972bf8b0148ceb07609305825f92e0d9496ab"
  },
  "Primary": "article.html",
  "Publisher": "ccrk",
  "LastModified": "1708959429",
  "TimeCreated": "1708959429",
  "Categories": [
    "Religion",
    "Christianity"
  ],
  "Topics": [],
  "Description": "Ten Commandments, The, the usual title of the writings contained on the two tables of stone given on Mount Sinai. “The number ten symbolizes the comprehensiveness and completeness of this moral law. The first table, with five commandments, enjoins the duties to God; the second, with five commandments, the duties to our neighbor. ",
  "Comment": "",
  "License": "Public Domain in the USA",
  "SourceURL": "https://oldpedia.org/article/ccrk/Ten Commandments, The",
  "SourceFileURL": "https://archive.org/details/concisecyclopedi00sanf",
  "LocalFileURL": "https://oldpedia.org/pdf/ccrk/concisecyclopedi00sanf.pdf",
  "ShortTitle": "",
  "BookTitle": "A Concise Cyclopedia of Religious Knowledge",
  "BookTitleLong": "A Concise Cyclopedia of Religious Knowledge: Biblical, Biographical, Geographical, Historical, Practical and Theological",
  "BookEdition": "",
  "BookEditors": [
    "Elias Benjamin Sanford"
  ],
  "BookVolumeNumber": "",
  "BookPublisher": "Funk & Wagnall Company",
  "BookCopyrightDate": "1890",
  "BookPrintingDate": "1895",
  "PublicationDate": "1895",
  "CreatorNames": [
    "Elias Benjamin Sanford"
  ],
  "ContributorNames": [],
  "Rating": []
}