{
  "ZWIversion": 1.4,
  "GeneratorName": "AutoZWI",
  "Title": "Gillett, Ezra Hall",
  "Lang": "en",
  "Content": {
    "article.html": "96fa16f09aaa7aa4ea62df564dd10b4996eba780",
    "article.txt": "b1f32216de31cfc5f337aee2305c33c218a32ac0"
  },
  "Primary": "article.html",
  "Publisher": "ccrk",
  "LastModified": "1708959420",
  "TimeCreated": "1708959420",
  "Categories": [
    "Religion",
    "Christianity"
  ],
  "Topics": [],
  "Description": "Gillett, Ezra Hall, D. D., b. at Colchester, Conn., July 15, 1823; d. in New York, Sept. 2, 1875. He was graduated at Yale College (1841), and Union Theological Seminary (1844), and became pastor in 1845 of a Presbyterian church in Harlem, which he served until 1868, when he accepted the chair of political economy and history in the University of Ne",
  "Comment": "",
  "License": "Public Domain in the USA",
  "SourceURL": "https://oldpedia.org/article/ccrk/Gillett, Ezra Hall",
  "SourceFileURL": "https://archive.org/details/concisecyclopedi00sanf",
  "LocalFileURL": "https://oldpedia.org/pdf/ccrk/concisecyclopedi00sanf.pdf",
  "ShortTitle": "",
  "BookTitle": "A Concise Cyclopedia of Religious Knowledge",
  "BookTitleLong": "A Concise Cyclopedia of Religious Knowledge: Biblical, Biographical, Geographical, Historical, Practical and Theological",
  "BookEdition": "",
  "BookEditors": [
    "Elias Benjamin Sanford"
  ],
  "BookVolumeNumber": "",
  "BookPublisher": "Funk & Wagnall Company",
  "BookCopyrightDate": "1890",
  "BookPrintingDate": "1895",
  "PublicationDate": "1895",
  "CreatorNames": [
    "Elias Benjamin Sanford"
  ],
  "ContributorNames": [],
  "Rating": []
}