{
  "ZWIversion": 1.4,
  "GeneratorName": "AutoZWI",
  "Title": "Hobart, John Henry",
  "Lang": "en",
  "Content": {
    "article.html": "ab9e9655c1679a9317ea41f4ff485b82eb98c042",
    "article.txt": "c8a6a29f5342a20f79eabbc2da2f092b05588328"
  },
  "Primary": "article.html",
  "Publisher": "ccrk",
  "LastModified": "1708959421",
  "TimeCreated": "1708959421",
  "Categories": [
    "Religion",
    "Christianity"
  ],
  "Topics": [],
  "Description": "Hobart, John Henry, D. D., Protestant Episcopal bishop of New York; b. in Philadelphia, Sept. 14, 1775; d. at Auburn, Sept. 10, 1830. He was graduated at Princeton in 1793, and entered upon his active ministerial life in 1798. After serving several parishes he became assistant minister of Trinity, New York, and in 1799 was chosen secretary of the Ho",
  "Comment": "",
  "License": "Public Domain in the USA",
  "SourceURL": "https://oldpedia.org/article/ccrk/Hobart, John Henry",
  "SourceFileURL": "https://archive.org/details/concisecyclopedi00sanf",
  "LocalFileURL": "https://oldpedia.org/pdf/ccrk/concisecyclopedi00sanf.pdf",
  "ShortTitle": "",
  "BookTitle": "A Concise Cyclopedia of Religious Knowledge",
  "BookTitleLong": "A Concise Cyclopedia of Religious Knowledge: Biblical, Biographical, Geographical, Historical, Practical and Theological",
  "BookEdition": "",
  "BookEditors": [
    "Elias Benjamin Sanford"
  ],
  "BookVolumeNumber": "",
  "BookPublisher": "Funk & Wagnall Company",
  "BookCopyrightDate": "1890",
  "BookPrintingDate": "1895",
  "PublicationDate": "1895",
  "CreatorNames": [
    "Elias Benjamin Sanford"
  ],
  "ContributorNames": [],
  "Rating": []
}