{
  "ZWIversion": 1.4,
  "GeneratorName": "AutoZWI",
  "Title": "Presbyter",
  "Lang": "en",
  "Content": {
    "article.html": "dcd3af9954982ceec72be16ec320241074c883f4",
    "article.txt": "df5117174758ab88e1f84ec392cfad798c0a0531"
  },
  "Primary": "article.html",
  "Publisher": "ccrk",
  "LastModified": "1708959426",
  "TimeCreated": "1708959426",
  "Categories": [
    "Religion",
    "Christianity"
  ],
  "Topics": [],
  "Description": "Presbyter, Presbyterians. The Greek word presbuteros, senior or elder, is frequently5 used in the Greek translation of the Old Testament to signify a ruler or governor—one chosen not for his age, but for his merits and wisdom. In the Christian Church a presbyter or elder is one who is set apart to a certain office, and authorized to discharge the se",
  "Comment": "",
  "License": "Public Domain in the USA",
  "SourceURL": "https://oldpedia.org/article/ccrk/Presbyter",
  "SourceFileURL": "https://archive.org/details/concisecyclopedi00sanf",
  "LocalFileURL": "https://oldpedia.org/pdf/ccrk/concisecyclopedi00sanf.pdf",
  "ShortTitle": "",
  "BookTitle": "A Concise Cyclopedia of Religious Knowledge",
  "BookTitleLong": "A Concise Cyclopedia of Religious Knowledge: Biblical, Biographical, Geographical, Historical, Practical and Theological",
  "BookEdition": "",
  "BookEditors": [
    "Elias Benjamin Sanford"
  ],
  "BookVolumeNumber": "",
  "BookPublisher": "Funk & Wagnall Company",
  "BookCopyrightDate": "1890",
  "BookPrintingDate": "1895",
  "PublicationDate": "1895",
  "CreatorNames": [
    "Elias Benjamin Sanford"
  ],
  "ContributorNames": [],
  "Rating": []
}