{
  "ZWIversion": 1.4,
  "GeneratorName": "AutoZWI",
  "Title": "Levirate Marriage",
  "Lang": "en",
  "Content": {
    "article.html": "10c77d02511e42ec9ae16ab3246fcc80e57432f6",
    "article.txt": "711bf1fbb32f36bf90c0042fcf6a532b800b87d3"
  },
  "Primary": "article.html",
  "Publisher": "ccrk",
  "LastModified": "1708959423",
  "TimeCreated": "1708959423",
  "Categories": [
    "Religion",
    "Christianity"
  ],
  "Topics": [],
  "Description": "Lev'irate Marriage, a term applied to an ancient usage of the Hebrews (Gen. xxxviii.), and reordained by Moses (Deut. xxv. 5-10), that, in case a husband died without leaving male issue, compelled his brother to marry the widow. (Cf. also Matt, xxii. 24.)",
  "Comment": "",
  "License": "Public Domain in the USA",
  "SourceURL": "https://oldpedia.org/article/ccrk/Levirate Marriage",
  "SourceFileURL": "https://archive.org/details/concisecyclopedi00sanf",
  "LocalFileURL": "https://oldpedia.org/pdf/ccrk/concisecyclopedi00sanf.pdf",
  "ShortTitle": "",
  "BookTitle": "A Concise Cyclopedia of Religious Knowledge",
  "BookTitleLong": "A Concise Cyclopedia of Religious Knowledge: Biblical, Biographical, Geographical, Historical, Practical and Theological",
  "BookEdition": "",
  "BookEditors": [
    "Elias Benjamin Sanford"
  ],
  "BookVolumeNumber": "",
  "BookPublisher": "Funk & Wagnall Company",
  "BookCopyrightDate": "1890",
  "BookPrintingDate": "1895",
  "PublicationDate": "1895",
  "CreatorNames": [
    "Elias Benjamin Sanford"
  ],
  "ContributorNames": [],
  "Rating": []
}