{
  "ZWIversion": 1.4,
  "GeneratorName": "AutoZWI",
  "Title": "Marcellus",
  "Lang": "en",
  "Content": {
    "article.html": "2687677c021650072fc06b38509dfd8cded11b3b",
    "article.txt": "f042ff323cd605896af6d130bff497ce8f9c5bff"
  },
  "Primary": "article.html",
  "Publisher": "ccrk",
  "LastModified": "1708959424",
  "TimeCreated": "1708959424",
  "Categories": [
    "Religion",
    "Christianity"
  ],
  "Topics": [],
  "Description": "Marcellus, bishop of Ancyra, in Galatia, was an earnest advocate of the homoousian doctrine at the Council of Nicaea (325). He prepared a work, De Subjeetione Domini Christi, written against the Arians, which brought the charge of Sabellianism against him, and he was deposed by the Council of Constantinople (336). ",
  "Comment": "",
  "License": "Public Domain in the USA",
  "SourceURL": "https://oldpedia.org/article/ccrk/Marcellus",
  "SourceFileURL": "https://archive.org/details/concisecyclopedi00sanf",
  "LocalFileURL": "https://oldpedia.org/pdf/ccrk/concisecyclopedi00sanf.pdf",
  "ShortTitle": "",
  "BookTitle": "A Concise Cyclopedia of Religious Knowledge",
  "BookTitleLong": "A Concise Cyclopedia of Religious Knowledge: Biblical, Biographical, Geographical, Historical, Practical and Theological",
  "BookEdition": "",
  "BookEditors": [
    "Elias Benjamin Sanford"
  ],
  "BookVolumeNumber": "",
  "BookPublisher": "Funk & Wagnall Company",
  "BookCopyrightDate": "1890",
  "BookPrintingDate": "1895",
  "PublicationDate": "1895",
  "CreatorNames": [
    "Elias Benjamin Sanford"
  ],
  "ContributorNames": [],
  "Rating": []
}