{
  "ZWIversion": 1.4,
  "GeneratorName": "AutoZWI",
  "Title": "Colosse or Colossae",
  "Lang": "en",
  "Content": {
    "article.html": "5f89bbdbd3f69464b7ec10cd6a05b000a2f984a7",
    "article.txt": "1f1eaeb781d3767f3433de9667d299773323d0db"
  },
  "Primary": "article.html",
  "Publisher": "ccrk",
  "LastModified": "1708959417",
  "TimeCreated": "1708959417",
  "Categories": [
    "Religion",
    "Christianity"
  ],
  "Topics": [],
  "Description": "Colos'se or Colos'sae, a small town, twelve miles above Laodicsea, situated near the great road which led from Ephesus to the Euphrates. The Church here was probably the smallest to which St. Paul sent any of his letters. Philemon and Onesimus lived here. It was also the home of Archippus and Epaphras, the latter of whom probably founded the church",
  "Comment": "",
  "License": "Public Domain in the USA",
  "SourceURL": "https://oldpedia.org/article/ccrk/Colosse or Colossae",
  "SourceFileURL": "https://archive.org/details/concisecyclopedi00sanf",
  "LocalFileURL": "https://oldpedia.org/pdf/ccrk/concisecyclopedi00sanf.pdf",
  "ShortTitle": "",
  "BookTitle": "A Concise Cyclopedia of Religious Knowledge",
  "BookTitleLong": "A Concise Cyclopedia of Religious Knowledge: Biblical, Biographical, Geographical, Historical, Practical and Theological",
  "BookEdition": "",
  "BookEditors": [
    "Elias Benjamin Sanford"
  ],
  "BookVolumeNumber": "",
  "BookPublisher": "Funk & Wagnall Company",
  "BookCopyrightDate": "1890",
  "BookPrintingDate": "1895",
  "PublicationDate": "1895",
  "CreatorNames": [
    "Elias Benjamin Sanford"
  ],
  "ContributorNames": [],
  "Rating": []
}