{
  "ZWIversion": 1.4,
  "GeneratorName": "AutoZWI",
  "Title": "Greeks",
  "Lang": "en",
  "Content": {
    "article.html": "bfc5939c49232dffa29d84b023ff5824b69f965c",
    "article.txt": "84718d9dfd992ccb396dc434fbebd02c7b087b88"
  },
  "Primary": "article.html",
  "Publisher": "ccrk",
  "LastModified": "1708959420",
  "TimeCreated": "1708959420",
  "Categories": [
    "Religion",
    "Christianity"
  ],
  "Topics": [],
  "Description": "Greeks, in Scripture, are distinguished as either Greeks by lineage (Acts xvi. 1; xviii. 4), or else Gentiles, as opposed to the Jews. (Rom. ii. 9, 10; Gal. iii. 28.) “Grecians” were foreign-born Jews. (Acts vi. 1; xi. 20.) The Greeks and Jews first came in contact when the Tyrians sold the Jews to the Greeks. (Joel iii. ",
  "Comment": "",
  "License": "Public Domain in the USA",
  "SourceURL": "https://oldpedia.org/article/ccrk/Greeks",
  "SourceFileURL": "https://archive.org/details/concisecyclopedi00sanf",
  "LocalFileURL": "https://oldpedia.org/pdf/ccrk/concisecyclopedi00sanf.pdf",
  "ShortTitle": "",
  "BookTitle": "A Concise Cyclopedia of Religious Knowledge",
  "BookTitleLong": "A Concise Cyclopedia of Religious Knowledge: Biblical, Biographical, Geographical, Historical, Practical and Theological",
  "BookEdition": "",
  "BookEditors": [
    "Elias Benjamin Sanford"
  ],
  "BookVolumeNumber": "",
  "BookPublisher": "Funk & Wagnall Company",
  "BookCopyrightDate": "1890",
  "BookPrintingDate": "1895",
  "PublicationDate": "1895",
  "CreatorNames": [
    "Elias Benjamin Sanford"
  ],
  "ContributorNames": [],
  "Rating": []
}