{
  "ZWIversion": 1.4,
  "GeneratorName": "AutoZWI",
  "Title": "Cave, William",
  "Lang": "en",
  "Content": {
    "article.html": "611110e6d9d79cfb97ed4eeeed8bed196a604147",
    "article.txt": "6b5876f563ac49cc17a8e2207c7dd128880d8331"
  },
  "Primary": "article.html",
  "Publisher": "ccrk",
  "LastModified": "1708959416",
  "TimeCreated": "1708959416",
  "Categories": [
    "Religion",
    "Christianity"
  ],
  "Topics": [],
  "Description": "Cave, William, D. D., Church of England b. at Pickwell, Leicestershire, Dec. 30, 1637; d. at Windsor, Aug. 4, 1713. Educated at Cambridge; became vicar of Islington, 1662; of Isleworth, 1690; canon of Windsor, 1684. His fame rests upon his historical works, among the best known of which are his Primitive Christianity (London, 1672), and /historia L",
  "Comment": "",
  "License": "Public Domain in the USA",
  "SourceURL": "https://oldpedia.org/article/ccrk/Cave, William",
  "SourceFileURL": "https://archive.org/details/concisecyclopedi00sanf",
  "LocalFileURL": "https://oldpedia.org/pdf/ccrk/concisecyclopedi00sanf.pdf",
  "ShortTitle": "",
  "BookTitle": "A Concise Cyclopedia of Religious Knowledge",
  "BookTitleLong": "A Concise Cyclopedia of Religious Knowledge: Biblical, Biographical, Geographical, Historical, Practical and Theological",
  "BookEdition": "",
  "BookEditors": [
    "Elias Benjamin Sanford"
  ],
  "BookVolumeNumber": "",
  "BookPublisher": "Funk & Wagnall Company",
  "BookCopyrightDate": "1890",
  "BookPrintingDate": "1895",
  "PublicationDate": "1895",
  "CreatorNames": [
    "Elias Benjamin Sanford"
  ],
  "ContributorNames": [],
  "Rating": []
}