{
  "ZWIversion": 1.4,
  "GeneratorName": "AutoZWI",
  "Title": "Duncan",
  "Lang": "en",
  "Content": {
    "article.html": "e4944d65f935ccf4d7cc9b468bffe8338f0d2c3b",
    "article.txt": "61a77b65e267e5013cd5da25a37396a1e34fc39a"
  },
  "Primary": "article.html",
  "Publisher": "ccrk",
  "LastModified": "1708959418",
  "TimeCreated": "1708959418",
  "Categories": [
    "Religion",
    "Christianity"
  ],
  "Topics": [],
  "Description": "Duncan, John, LL. D., a Scotch Orientalist; b. at Gilcomston, near Aberdeen, 1796; d. in Edinburgh, Feb. 26, 18 70. He was graduated at Marischal College, Aberdeen, and studied divinity in Edinburgh, receiving his license in 1825. In 1831 he was settled in Glasgow; became a missionary to the Jews in Pesth, 1840; ",
  "Comment": "",
  "License": "Public Domain in the USA",
  "SourceURL": "https://oldpedia.org/article/ccrk/Duncan",
  "SourceFileURL": "https://archive.org/details/concisecyclopedi00sanf",
  "LocalFileURL": "https://oldpedia.org/pdf/ccrk/concisecyclopedi00sanf.pdf",
  "ShortTitle": "",
  "BookTitle": "A Concise Cyclopedia of Religious Knowledge",
  "BookTitleLong": "A Concise Cyclopedia of Religious Knowledge: Biblical, Biographical, Geographical, Historical, Practical and Theological",
  "BookEdition": "",
  "BookEditors": [
    "Elias Benjamin Sanford"
  ],
  "BookVolumeNumber": "",
  "BookPublisher": "Funk & Wagnall Company",
  "BookCopyrightDate": "1890",
  "BookPrintingDate": "1895",
  "PublicationDate": "1895",
  "CreatorNames": [
    "Elias Benjamin Sanford"
  ],
  "ContributorNames": [],
  "Rating": []
}