{
  "ZWIversion": 1.4,
  "GeneratorName": "AutoZWI",
  "Title": "Barth, Christian Gottlob",
  "Lang": "en",
  "Content": {
    "article.html": "f255b63b1009deb7779870c8ec95d9e8a0abb9f0",
    "article.txt": "a04dc0aadaff8e0d8dd52e97a79add4d05c498d2"
  },
  "Primary": "article.html",
  "Publisher": "ccrk",
  "LastModified": "1708959414",
  "TimeCreated": "1708959414",
  "Categories": [
    "Religion",
    "Christianity"
  ],
  "Topics": [],
  "Description": "Barth, Christian Gottlob, b. in Stuttgart, July 31, 1799; d. at Calw, Nov. 12, 1862. From 1817-21 he was a student of theology at Tubingen, and pastor at Mdtt-lingen from 1824-1838. He then retired to Calw, where he founded the missionary society of Wurtemberg. This society came into active cooperation with missionary organizations all over the worl",
  "Comment": "",
  "License": "Public Domain in the USA",
  "SourceURL": "https://oldpedia.org/article/ccrk/Barth, Christian Gottlob",
  "SourceFileURL": "https://archive.org/details/concisecyclopedi00sanf",
  "LocalFileURL": "https://oldpedia.org/pdf/ccrk/concisecyclopedi00sanf.pdf",
  "ShortTitle": "",
  "BookTitle": "A Concise Cyclopedia of Religious Knowledge",
  "BookTitleLong": "A Concise Cyclopedia of Religious Knowledge: Biblical, Biographical, Geographical, Historical, Practical and Theological",
  "BookEdition": "",
  "BookEditors": [
    "Elias Benjamin Sanford"
  ],
  "BookVolumeNumber": "",
  "BookPublisher": "Funk & Wagnall Company",
  "BookCopyrightDate": "1890",
  "BookPrintingDate": "1895",
  "PublicationDate": "1895",
  "CreatorNames": [
    "Elias Benjamin Sanford"
  ],
  "ContributorNames": [],
  "Rating": []
}