{
  "ZWIversion": 1.4,
  "GeneratorName": "AutoZWI",
  "Title": "Coligny",
  "Lang": "en",
  "Content": {
    "article.html": "f6ba41e4c34c5636f4ea6ffdbf74102f8ed84448",
    "article.txt": "66fbb4c99d8fe0d1e6b90ad51b353264c81f651e"
  },
  "Primary": "article.html",
  "Publisher": "ccrk",
  "LastModified": "1708959417",
  "TimeCreated": "1708959417",
  "Categories": [
    "Religion",
    "Christianity"
  ],
  "Topics": [],
  "Description": "Coligny ^ko-leen’ye}, Gaspard de, French admiral and Huguenot martyr; b. at Cha-tillon-sur-Loing, in the department of Loiret, Feb. 16, 1519; murdered in the massacre of St. Bartholomew, in Paris, Aug. 24, 1572. Of noble family, he was early introduced at court, and served with bravery under Francis L, in Italy. ",
  "Comment": "",
  "License": "Public Domain in the USA",
  "SourceURL": "https://oldpedia.org/article/ccrk/Coligny",
  "SourceFileURL": "https://archive.org/details/concisecyclopedi00sanf",
  "LocalFileURL": "https://oldpedia.org/pdf/ccrk/concisecyclopedi00sanf.pdf",
  "ShortTitle": "",
  "BookTitle": "A Concise Cyclopedia of Religious Knowledge",
  "BookTitleLong": "A Concise Cyclopedia of Religious Knowledge: Biblical, Biographical, Geographical, Historical, Practical and Theological",
  "BookEdition": "",
  "BookEditors": [
    "Elias Benjamin Sanford"
  ],
  "BookVolumeNumber": "",
  "BookPublisher": "Funk & Wagnall Company",
  "BookCopyrightDate": "1890",
  "BookPrintingDate": "1895",
  "PublicationDate": "1895",
  "CreatorNames": [
    "Elias Benjamin Sanford"
  ],
  "ContributorNames": [],
  "Rating": []
}