{
  "ZWIversion": 1.4,
  "GeneratorName": "AutoZWI",
  "Title": "Ferrar, Nicholas",
  "Lang": "en",
  "Content": {
    "article.html": "4c6d5278917d558549128453fe295838b6c8f677",
    "article.txt": "263757d809ca1ef5b2112fe40d31ab31a5ba07c9"
  },
  "Primary": "article.html",
  "Publisher": "ccrk",
  "LastModified": "1708959419",
  "TimeCreated": "1708959419",
  "Categories": [
    "Religion",
    "Christianity"
  ],
  "Topics": [],
  "Description": "Ferrar, Nicholas, a clergyman of the Church of England: b. in London, Feb. 22, 1592; d. Dec. 2, 1637. He was ordained deacon by Laud, while bishop of St. Davids, in 1626, but never proceeded to priest’s orders. “His life was one of devout asceticism, and he devoted his means, which were ample, to pious uses. His house was like a monastery, in which",
  "Comment": "",
  "License": "Public Domain in the USA",
  "SourceURL": "https://oldpedia.org/article/ccrk/Ferrar, Nicholas",
  "SourceFileURL": "https://archive.org/details/concisecyclopedi00sanf",
  "LocalFileURL": "https://oldpedia.org/pdf/ccrk/concisecyclopedi00sanf.pdf",
  "ShortTitle": "",
  "BookTitle": "A Concise Cyclopedia of Religious Knowledge",
  "BookTitleLong": "A Concise Cyclopedia of Religious Knowledge: Biblical, Biographical, Geographical, Historical, Practical and Theological",
  "BookEdition": "",
  "BookEditors": [
    "Elias Benjamin Sanford"
  ],
  "BookVolumeNumber": "",
  "BookPublisher": "Funk & Wagnall Company",
  "BookCopyrightDate": "1890",
  "BookPrintingDate": "1895",
  "PublicationDate": "1895",
  "CreatorNames": [
    "Elias Benjamin Sanford"
  ],
  "ContributorNames": [],
  "Rating": []
}