{
  "ZWIversion": 1.4,
  "GeneratorName": "AutoZWI",
  "Title": "Agape",
  "Lang": "en",
  "Content": {
    "article.html": "8deff87b90260966885b99419417fd0abf7ce8be",
    "article.txt": "65a785512efa6990755338dd71f5ea0ef12d0316"
  },
  "Primary": "article.html",
  "Publisher": "ccrk",
  "LastModified": "1708959413",
  "TimeCreated": "1708959413",
  "Categories": [
    "Religion",
    "Christianity"
  ],
  "Topics": [],
  "Description": "Agape, the love-feast which, among the primitive Christians, usually accompanied the Eucharist. According to Chrysostom, the Agape was a common feast, symbolizing the community of goods when it no longer really existed, to which the rich brought provisions, and the poor, who brought nothing, were invited. At first it was observed probably every even",
  "Comment": "",
  "License": "Public Domain in the USA",
  "SourceURL": "https://oldpedia.org/article/ccrk/Agape",
  "SourceFileURL": "https://archive.org/details/concisecyclopedi00sanf",
  "LocalFileURL": "https://oldpedia.org/pdf/ccrk/concisecyclopedi00sanf.pdf",
  "ShortTitle": "",
  "BookTitle": "A Concise Cyclopedia of Religious Knowledge",
  "BookTitleLong": "A Concise Cyclopedia of Religious Knowledge: Biblical, Biographical, Geographical, Historical, Practical and Theological",
  "BookEdition": "",
  "BookEditors": [
    "Elias Benjamin Sanford"
  ],
  "BookVolumeNumber": "",
  "BookPublisher": "Funk & Wagnall Company",
  "BookCopyrightDate": "1890",
  "BookPrintingDate": "1895",
  "PublicationDate": "1895",
  "CreatorNames": [
    "Elias Benjamin Sanford"
  ],
  "ContributorNames": [],
  "Rating": []
}