{
  "ZWIversion": 1.4,
  "GeneratorName": "AutoZWI",
  "Title": "Moses",
  "Lang": "en",
  "Content": {
    "article.html": "17ff911706842ce718cd4c2b42b8b222337b4c47",
    "article.txt": "62223c74bf9ea4a40f7e4b6c93ada91747eccafc"
  },
  "Primary": "article.html",
  "Publisher": "ccrk",
  "LastModified": "1708959424",
  "TimeCreated": "1708959424",
  "Categories": [
    "Religion",
    "Christianity"
  ],
  "Topics": [],
  "Description": "Moses. “Of the life of Moses we have few certain details, though the history of Israel bears witness to the importance of his work. His origin and the history of his childhood can be read in Exodus i., ii. (comp. vi. 16 jy.); the statements there given are enlarged and modified in the Jewish Midrash, particularly as we find it in Josephus and Philo.",
  "Comment": "",
  "License": "Public Domain in the USA",
  "SourceURL": "https://oldpedia.org/article/ccrk/Moses",
  "SourceFileURL": "https://archive.org/details/concisecyclopedi00sanf",
  "LocalFileURL": "https://oldpedia.org/pdf/ccrk/concisecyclopedi00sanf.pdf",
  "ShortTitle": "",
  "BookTitle": "A Concise Cyclopedia of Religious Knowledge",
  "BookTitleLong": "A Concise Cyclopedia of Religious Knowledge: Biblical, Biographical, Geographical, Historical, Practical and Theological",
  "BookEdition": "",
  "BookEditors": [
    "Elias Benjamin Sanford"
  ],
  "BookVolumeNumber": "",
  "BookPublisher": "Funk & Wagnall Company",
  "BookCopyrightDate": "1890",
  "BookPrintingDate": "1895",
  "PublicationDate": "1895",
  "CreatorNames": [
    "Elias Benjamin Sanford"
  ],
  "ContributorNames": [],
  "Rating": []
}