{
  "ZWIversion": 1.4,
  "GeneratorName": "AutoZWI",
  "Title": "Canaan, Land of",
  "Lang": "en",
  "Content": {
    "article.html": "76f08afc0f0d2bb2d394b13d0a5540740a7bb32b",
    "article.txt": "f2b363c956071cf134ca281a4a17618d7b213d2d"
  },
  "Primary": "article.html",
  "Publisher": "ccrk",
  "LastModified": "1708959415",
  "TimeCreated": "1708959415",
  "Categories": [
    "Religion",
    "Christianity"
  ],
  "Topics": [],
  "Description": "Ca'naan, Land of, the country inhabited by the posterity of Canaan, known as Canaanites. At the time of its conquest by Joshua it was peopled by several tribes known as Hittites, Jebusites, Amorites, Girgasites, Hivites, Perizzites, etc. The original boundaries of the country were Mount Lebanon on the north, the wilderness of Arabia on the south, an",
  "Comment": "",
  "License": "Public Domain in the USA",
  "SourceURL": "https://oldpedia.org/article/ccrk/Canaan, Land of",
  "SourceFileURL": "https://archive.org/details/concisecyclopedi00sanf",
  "LocalFileURL": "https://oldpedia.org/pdf/ccrk/concisecyclopedi00sanf.pdf",
  "ShortTitle": "",
  "BookTitle": "A Concise Cyclopedia of Religious Knowledge",
  "BookTitleLong": "A Concise Cyclopedia of Religious Knowledge: Biblical, Biographical, Geographical, Historical, Practical and Theological",
  "BookEdition": "",
  "BookEditors": [
    "Elias Benjamin Sanford"
  ],
  "BookVolumeNumber": "",
  "BookPublisher": "Funk & Wagnall Company",
  "BookCopyrightDate": "1890",
  "BookPrintingDate": "1895",
  "PublicationDate": "1895",
  "CreatorNames": [
    "Elias Benjamin Sanford"
  ],
  "ContributorNames": [],
  "Rating": []
}