{
  "ZWIversion": 1.4,
  "GeneratorName": "AutoZWI",
  "Title": "Thorndike, Herbert",
  "Lang": "en",
  "Content": {
    "article.html": "2f0efa9ca1ef0c3d151f7a7d0ce83f2baeebc416",
    "article.txt": "289bbbec8b5b695b6ae0988d8e515af9f393951f"
  },
  "Primary": "article.html",
  "Publisher": "ccrk",
  "LastModified": "1708959429",
  "TimeCreated": "1708959429",
  "Categories": [
    "Religion",
    "Christianity"
  ],
  "Topics": [],
  "Description": "Thorndike, Herbert, d. 1672. One of the most learned and able advocates of the Laudian theology in the seventeenth century. He held several preferments, among them the mastership of Sidney College, Cambridge, from all of which he was ejected in the Great Revolution, but received a stall at Westminster at the Restoration. ",
  "Comment": "",
  "License": "Public Domain in the USA",
  "SourceURL": "https://oldpedia.org/article/ccrk/Thorndike, Herbert",
  "SourceFileURL": "https://archive.org/details/concisecyclopedi00sanf",
  "LocalFileURL": "https://oldpedia.org/pdf/ccrk/concisecyclopedi00sanf.pdf",
  "ShortTitle": "",
  "BookTitle": "A Concise Cyclopedia of Religious Knowledge",
  "BookTitleLong": "A Concise Cyclopedia of Religious Knowledge: Biblical, Biographical, Geographical, Historical, Practical and Theological",
  "BookEdition": "",
  "BookEditors": [
    "Elias Benjamin Sanford"
  ],
  "BookVolumeNumber": "",
  "BookPublisher": "Funk & Wagnall Company",
  "BookCopyrightDate": "1890",
  "BookPrintingDate": "1895",
  "PublicationDate": "1895",
  "CreatorNames": [
    "Elias Benjamin Sanford"
  ],
  "ContributorNames": [],
  "Rating": []
}