{
  "ZWIversion": 1.4,
  "GeneratorName": "AutoZWI",
  "Title": "Breviary",
  "Lang": "en",
  "Content": {
    "article.html": "30181773c3206ee1eaca433b55e3efbccd2ce923",
    "article.txt": "fb7c98a6c343cc1c8e93aa79bc64a5f830f129cc"
  },
  "Primary": "article.html",
  "Publisher": "ccrk",
  "LastModified": "1708959415",
  "TimeCreated": "1708959415",
  "Categories": [
    "Religion",
    "Christianity"
  ],
  "Topics": [],
  "Description": "Breviary, an office-book of the Roman Catholic Church, which contains the offices for the canonical hours. (See Canonical Hours.) The Roman Church enjoins, under pain of excommunication, all “religious” persons (i. e., all persons, male or female, who have taken vows in any religious order), to repeat, either in private or public, the services of th",
  "Comment": "",
  "License": "Public Domain in the USA",
  "SourceURL": "https://oldpedia.org/article/ccrk/Breviary",
  "SourceFileURL": "https://archive.org/details/concisecyclopedi00sanf",
  "LocalFileURL": "https://oldpedia.org/pdf/ccrk/concisecyclopedi00sanf.pdf",
  "ShortTitle": "",
  "BookTitle": "A Concise Cyclopedia of Religious Knowledge",
  "BookTitleLong": "A Concise Cyclopedia of Religious Knowledge: Biblical, Biographical, Geographical, Historical, Practical and Theological",
  "BookEdition": "",
  "BookEditors": [
    "Elias Benjamin Sanford"
  ],
  "BookVolumeNumber": "",
  "BookPublisher": "Funk & Wagnall Company",
  "BookCopyrightDate": "1890",
  "BookPrintingDate": "1895",
  "PublicationDate": "1895",
  "CreatorNames": [
    "Elias Benjamin Sanford"
  ],
  "ContributorNames": [],
  "Rating": []
}