{
  "ZWIversion": 1.4,
  "GeneratorName": "AutoZWI",
  "Title": "Savoy Conference",
  "Lang": "en",
  "Content": {
    "article.html": "a89be582fd1fae1840955b0c184117d7d8482f6c",
    "article.txt": "2b4f16481ff91e85a7b744c7dd871f59564cb5d2"
  },
  "Primary": "article.html",
  "Publisher": "ccrk",
  "LastModified": "1708959428",
  "TimeCreated": "1708959428",
  "Categories": [
    "Religion",
    "Christianity"
  ],
  "Topics": [],
  "Description": "Savoy Conference, the name given to a Conference held in 1661, between twelve bishops of the Church and the same number of Puritan clergymen, for the purpose of settling differences, and arranging the Prayer-Book so that it would be acceptable to both parties. The Conference was held in the Savoy Palace, and, opening on April 13, lasted for four mon",
  "Comment": "",
  "License": "Public Domain in the USA",
  "SourceURL": "https://oldpedia.org/article/ccrk/Savoy Conference",
  "SourceFileURL": "https://archive.org/details/concisecyclopedi00sanf",
  "LocalFileURL": "https://oldpedia.org/pdf/ccrk/concisecyclopedi00sanf.pdf",
  "ShortTitle": "",
  "BookTitle": "A Concise Cyclopedia of Religious Knowledge",
  "BookTitleLong": "A Concise Cyclopedia of Religious Knowledge: Biblical, Biographical, Geographical, Historical, Practical and Theological",
  "BookEdition": "",
  "BookEditors": [
    "Elias Benjamin Sanford"
  ],
  "BookVolumeNumber": "",
  "BookPublisher": "Funk & Wagnall Company",
  "BookCopyrightDate": "1890",
  "BookPrintingDate": "1895",
  "PublicationDate": "1895",
  "CreatorNames": [
    "Elias Benjamin Sanford"
  ],
  "ContributorNames": [],
  "Rating": []
}