{
  "ZWIversion": 1.4,
  "GeneratorName": "AutoZWI",
  "Title": "Bacon, Francis",
  "Lang": "en",
  "Content": {
    "article.html": "6e56af72d0c6c314e29fe59328fe086c822e0562",
    "article.txt": "aa5fb457c546d187dddbd4f6f6116add339dcc7d"
  },
  "Primary": "article.html",
  "Publisher": "ccrk",
  "LastModified": "1708959414",
  "TimeCreated": "1708959414",
  "Categories": [
    "Religion",
    "Christianity"
  ],
  "Topics": [],
  "Description": "Bacon, Francis, b. in London, Jan. 22, 1561; d. at Highgate, April 9, 1626. After graduating at Cambridge, he was, for a time, in the diplomatic service. In 1580 he entered upon the profession of law, and in 1607 he was appointed solicitor-general, from which jurisdiction he rose to be LordChancellor. He was accused and condemned before the Parliame",
  "Comment": "",
  "License": "Public Domain in the USA",
  "SourceURL": "https://oldpedia.org/article/ccrk/Bacon, Francis",
  "SourceFileURL": "https://archive.org/details/concisecyclopedi00sanf",
  "LocalFileURL": "https://oldpedia.org/pdf/ccrk/concisecyclopedi00sanf.pdf",
  "ShortTitle": "",
  "BookTitle": "A Concise Cyclopedia of Religious Knowledge",
  "BookTitleLong": "A Concise Cyclopedia of Religious Knowledge: Biblical, Biographical, Geographical, Historical, Practical and Theological",
  "BookEdition": "",
  "BookEditors": [
    "Elias Benjamin Sanford"
  ],
  "BookVolumeNumber": "",
  "BookPublisher": "Funk & Wagnall Company",
  "BookCopyrightDate": "1890",
  "BookPrintingDate": "1895",
  "PublicationDate": "1895",
  "CreatorNames": [
    "Elias Benjamin Sanford"
  ],
  "ContributorNames": [],
  "Rating": []
}