{
  "ZWIversion": 1.4,
  "GeneratorName": "AutoZWI",
  "Title": "Humility",
  "Lang": "en",
  "Content": {
    "article.html": "95c32f53b806bded63237fae3c09cfc7dea25df5",
    "article.txt": "c8b75fd9d7807c7c09017e6e6e91dd5ead84170f"
  },
  "Primary": "article.html",
  "Publisher": "ccrk",
  "LastModified": "1708959421",
  "TimeCreated": "1708959421",
  "Categories": [
    "Religion",
    "Christianity"
  ],
  "Topics": [],
  "Description": "Humility, “a virtue opposed to pride and^ self-conceit, by reason of which a man thinks of himself no more highly than he ought to think (Rom. xii. 3), and places himself in subjection to him to whom he owes subjection. This person is primarily God, so that humility is, first of all, the sense of absolute dependence upon him. ",
  "Comment": "",
  "License": "Public Domain in the USA",
  "SourceURL": "https://oldpedia.org/article/ccrk/Humility",
  "SourceFileURL": "https://archive.org/details/concisecyclopedi00sanf",
  "LocalFileURL": "https://oldpedia.org/pdf/ccrk/concisecyclopedi00sanf.pdf",
  "ShortTitle": "",
  "BookTitle": "A Concise Cyclopedia of Religious Knowledge",
  "BookTitleLong": "A Concise Cyclopedia of Religious Knowledge: Biblical, Biographical, Geographical, Historical, Practical and Theological",
  "BookEdition": "",
  "BookEditors": [
    "Elias Benjamin Sanford"
  ],
  "BookVolumeNumber": "",
  "BookPublisher": "Funk & Wagnall Company",
  "BookCopyrightDate": "1890",
  "BookPrintingDate": "1895",
  "PublicationDate": "1895",
  "CreatorNames": [
    "Elias Benjamin Sanford"
  ],
  "ContributorNames": [],
  "Rating": []
}