{
  "ZWIversion": 1.4,
  "GeneratorName": "AutoZWI",
  "Title": "Nestorians",
  "Lang": "en",
  "Content": {
    "article.html": "5d0498ed99736f495ff4015c01ed959f4c0d3053",
    "article.txt": "d144f2480655ba7374527ad614d5f66aae154342"
  },
  "Primary": "article.html",
  "Publisher": "ccrk",
  "LastModified": "1708959425",
  "TimeCreated": "1708959425",
  "Categories": [
    "Religion",
    "Christianity"
  ],
  "Topics": [],
  "Description": "Nestorians, followers of Nestorius, who was bishop of Constantinople from 428 to 431. Formerly a monk of Antioch, who had gained some reputation as a scholar and orator, he was nominated to the see of Constantinople by the Emperor Theodosius, and readily elected by the clergy and people, to put an end to the distractions caused by the claims of the",
  "Comment": "",
  "License": "Public Domain in the USA",
  "SourceURL": "https://oldpedia.org/article/ccrk/Nestorians",
  "SourceFileURL": "https://archive.org/details/concisecyclopedi00sanf",
  "LocalFileURL": "https://oldpedia.org/pdf/ccrk/concisecyclopedi00sanf.pdf",
  "ShortTitle": "",
  "BookTitle": "A Concise Cyclopedia of Religious Knowledge",
  "BookTitleLong": "A Concise Cyclopedia of Religious Knowledge: Biblical, Biographical, Geographical, Historical, Practical and Theological",
  "BookEdition": "",
  "BookEditors": [
    "Elias Benjamin Sanford"
  ],
  "BookVolumeNumber": "",
  "BookPublisher": "Funk & Wagnall Company",
  "BookCopyrightDate": "1890",
  "BookPrintingDate": "1895",
  "PublicationDate": "1895",
  "CreatorNames": [
    "Elias Benjamin Sanford"
  ],
  "ContributorNames": [],
  "Rating": []
}