{
  "ZWIversion": 1.4,
  "GeneratorName": "AutoZWI",
  "Title": "Dexter, Henry Martyn",
  "Lang": "en",
  "Content": {
    "article.html": "e3f231e4355705d1be2c0662ed1e3112750d11fb",
    "article.txt": "43acc8b04befa5e97c66a5be205aff84d8a4d99d"
  },
  "Primary": "article.html",
  "Publisher": "ccrk",
  "LastModified": "1708959418",
  "TimeCreated": "1708959418",
  "Categories": [
    "Religion",
    "Christianity"
  ],
  "Topics": [],
  "Description": "Dexter, Henry Martyn, D. D. (Iowa College, Grinnell, la., 1865), S. T. D. (Yale, t88o), Congregationalist; b. at Plympton, Mass., Aug. 13, 1821; was graduated at Yale College, 1840, and at Andover Theological Seminary, 1844; became pastor at Manchester, N. H., 1844; in Boston, 1849, but since 1867 has been editor of the Congregationalist, having bee",
  "Comment": "",
  "License": "Public Domain in the USA",
  "SourceURL": "https://oldpedia.org/article/ccrk/Dexter, Henry Martyn",
  "SourceFileURL": "https://archive.org/details/concisecyclopedi00sanf",
  "LocalFileURL": "https://oldpedia.org/pdf/ccrk/concisecyclopedi00sanf.pdf",
  "ShortTitle": "",
  "BookTitle": "A Concise Cyclopedia of Religious Knowledge",
  "BookTitleLong": "A Concise Cyclopedia of Religious Knowledge: Biblical, Biographical, Geographical, Historical, Practical and Theological",
  "BookEdition": "",
  "BookEditors": [
    "Elias Benjamin Sanford"
  ],
  "BookVolumeNumber": "",
  "BookPublisher": "Funk & Wagnall Company",
  "BookCopyrightDate": "1890",
  "BookPrintingDate": "1895",
  "PublicationDate": "1895",
  "CreatorNames": [
    "Elias Benjamin Sanford"
  ],
  "ContributorNames": [],
  "Rating": []
}