{
  "ZWIversion": 1.4,
  "GeneratorName": "AutoZWI",
  "Title": "Ampulla",
  "Lang": "en",
  "Content": {
    "article.html": "9451fdcd1d5e07f593a4d3256cffe8ebacab436c",
    "article.txt": "18659f86cf09d5b8be30b697c077ae9d3cc21b8d"
  },
  "Primary": "article.html",
  "Publisher": "ccrk",
  "LastModified": "1708959413",
  "TimeCreated": "1708959413",
  "Categories": [
    "Religion",
    "Christianity"
  ],
  "Topics": [],
  "Description": "Ampulla, (1) a flask or cruet for holding the consecrated oil or chrism used in ceremonies of unction. (2) The cruets holding the wine and’water used in the Eucharist. Arnsdorf, Nikolaus von, b. in Saxony 1483; d. at Eisenach, May 14, 1565. He was educated at Wittenberg, where he became professor of theology (1511), and took a leading part in advanc",
  "Comment": "",
  "License": "Public Domain in the USA",
  "SourceURL": "https://oldpedia.org/article/ccrk/Ampulla",
  "SourceFileURL": "https://archive.org/details/concisecyclopedi00sanf",
  "LocalFileURL": "https://oldpedia.org/pdf/ccrk/concisecyclopedi00sanf.pdf",
  "ShortTitle": "",
  "BookTitle": "A Concise Cyclopedia of Religious Knowledge",
  "BookTitleLong": "A Concise Cyclopedia of Religious Knowledge: Biblical, Biographical, Geographical, Historical, Practical and Theological",
  "BookEdition": "",
  "BookEditors": [
    "Elias Benjamin Sanford"
  ],
  "BookVolumeNumber": "",
  "BookPublisher": "Funk & Wagnall Company",
  "BookCopyrightDate": "1890",
  "BookPrintingDate": "1895",
  "PublicationDate": "1895",
  "CreatorNames": [
    "Elias Benjamin Sanford"
  ],
  "ContributorNames": [],
  "Rating": []
}