{
  "ZWIversion": 1.4,
  "GeneratorName": "AutoZWI",
  "Title": "Fairbairn, Andrew Martin",
  "Lang": "en",
  "Content": {
    "article.html": "4135ae46277da5a9cc068f9d5a24ed4ec7757f26",
    "article.txt": "4d6a8d19b0eac1591208526bcd530e68c0d1ba22"
  },
  "Primary": "article.html",
  "Publisher": "ccrk",
  "LastModified": "1708959419",
  "TimeCreated": "1708959419",
  "Categories": [
    "Religion",
    "Christianity"
  ],
  "Topics": [],
  "Description": "Fairbairn, Andrew Martin, D. D. (Edinburgh, 1878; Yale, 1889), Congregationalist; b. near Edinburgh, Nov. 4, 1838; studied at Edinburgh, Glasgow, and Berlin (under Dorner, 1866-67); became pastor at Bathgate, Scotland, 1861; at Aberdeen, 1872; principal of Airdale (Congregational Theological) College, Bradford, Eng.,1877, and of Mansfield College, O",
  "Comment": "",
  "License": "Public Domain in the USA",
  "SourceURL": "https://oldpedia.org/article/ccrk/Fairbairn, Andrew Martin",
  "SourceFileURL": "https://archive.org/details/concisecyclopedi00sanf",
  "LocalFileURL": "https://oldpedia.org/pdf/ccrk/concisecyclopedi00sanf.pdf",
  "ShortTitle": "",
  "BookTitle": "A Concise Cyclopedia of Religious Knowledge",
  "BookTitleLong": "A Concise Cyclopedia of Religious Knowledge: Biblical, Biographical, Geographical, Historical, Practical and Theological",
  "BookEdition": "",
  "BookEditors": [
    "Elias Benjamin Sanford"
  ],
  "BookVolumeNumber": "",
  "BookPublisher": "Funk & Wagnall Company",
  "BookCopyrightDate": "1890",
  "BookPrintingDate": "1895",
  "PublicationDate": "1895",
  "CreatorNames": [
    "Elias Benjamin Sanford"
  ],
  "ContributorNames": [],
  "Rating": []
}