{
  "ZWIversion": 1.4,
  "GeneratorName": "AutoZWI",
  "Title": "Priscillianism",
  "Lang": "en",
  "Content": {
    "article.html": "fe924fb1e8208cd8bf849c63134750d6f4fbfd50",
    "article.txt": "60c55e09d663bc0ec39b2a08a5bf9bc4af223894"
  },
  "Primary": "article.html",
  "Publisher": "ccrk",
  "LastModified": "1708959426",
  "TimeCreated": "1708959426",
  "Categories": [
    "Religion",
    "Christianity"
  ],
  "Topics": [],
  "Description": "Priscillianism gained many converts, especially of the weaker sex. About A. D. 378 a provincial council was held at Saragossa, at which the heresy was condemned. ^Priscillian, however, found supporters in the Bishops Salvianus and Justantius, and Hyginus of Cordova who, wishing to convert the heretics, was consecrated bishop of Avila; ",
  "Comment": "",
  "License": "Public Domain in the USA",
  "SourceURL": "https://oldpedia.org/article/ccrk/Priscillianism",
  "SourceFileURL": "https://archive.org/details/concisecyclopedi00sanf",
  "LocalFileURL": "https://oldpedia.org/pdf/ccrk/concisecyclopedi00sanf.pdf",
  "ShortTitle": "",
  "BookTitle": "A Concise Cyclopedia of Religious Knowledge",
  "BookTitleLong": "A Concise Cyclopedia of Religious Knowledge: Biblical, Biographical, Geographical, Historical, Practical and Theological",
  "BookEdition": "",
  "BookEditors": [
    "Elias Benjamin Sanford"
  ],
  "BookVolumeNumber": "",
  "BookPublisher": "Funk & Wagnall Company",
  "BookCopyrightDate": "1890",
  "BookPrintingDate": "1895",
  "PublicationDate": "1895",
  "CreatorNames": [
    "Elias Benjamin Sanford"
  ],
  "ContributorNames": [],
  "Rating": []
}