{
  "ZWIversion": 1.4,
  "GeneratorName": "AutoZWI",
  "Title": "Lectures",
  "Lang": "en",
  "Content": {
    "article.html": "e7a1bb2bd6585fdcde6956ecaa4e280c7397fbae",
    "article.txt": "a003369eeb499e571c03855372f5dee05bad8c96"
  },
  "Primary": "article.html",
  "Publisher": "ccrk",
  "LastModified": "1708959423",
  "TimeCreated": "1708959423",
  "Categories": [
    "Religion",
    "Christianity"
  ],
  "Topics": [],
  "Description": "Lectures. See Bampton; Hulsean; Lowell, etc.",
  "Comment": "",
  "License": "Public Domain in the USA",
  "SourceURL": "https://oldpedia.org/article/ccrk/Lectures",
  "SourceFileURL": "https://archive.org/details/concisecyclopedi00sanf",
  "LocalFileURL": "https://oldpedia.org/pdf/ccrk/concisecyclopedi00sanf.pdf",
  "ShortTitle": "",
  "BookTitle": "A Concise Cyclopedia of Religious Knowledge",
  "BookTitleLong": "A Concise Cyclopedia of Religious Knowledge: Biblical, Biographical, Geographical, Historical, Practical and Theological",
  "BookEdition": "",
  "BookEditors": [
    "Elias Benjamin Sanford"
  ],
  "BookVolumeNumber": "",
  "BookPublisher": "Funk & Wagnall Company",
  "BookCopyrightDate": "1890",
  "BookPrintingDate": "1895",
  "PublicationDate": "1895",
  "CreatorNames": [
    "Elias Benjamin Sanford"
  ],
  "ContributorNames": [],
  "Rating": []
}