{
  "ZWIversion": 1.4,
  "GeneratorName": "AutoZWI",
  "Title": "Paris, Matthew",
  "Lang": "en",
  "Content": {
    "article.html": "0b1e4f1784d7e93a9bcfc3acd6cb478bdf2c81d2",
    "article.txt": "9315a8662b06467951332f0a88d979327e7e0fd6"
  },
  "Primary": "article.html",
  "Publisher": "ccrk",
  "LastModified": "1708959426",
  "TimeCreated": "1708959426",
  "Categories": [
    "Religion",
    "Christianity"
  ],
  "Topics": [],
  "Description": "Paris, Matthew, b. probably in Paris, about A. D. 1195; d. at St. Albans, 1259; a Benedictine monk of St. Albans; the author, under the title of Historia Major, of a history of England from 1066 to 1259. The earlier part of the history (from 1066 to 1235) belongs, however, really to Roger of Wendover, another monk of St. Albans; ",
  "Comment": "",
  "License": "Public Domain in the USA",
  "SourceURL": "https://oldpedia.org/article/ccrk/Paris, Matthew",
  "SourceFileURL": "https://archive.org/details/concisecyclopedi00sanf",
  "LocalFileURL": "https://oldpedia.org/pdf/ccrk/concisecyclopedi00sanf.pdf",
  "ShortTitle": "",
  "BookTitle": "A Concise Cyclopedia of Religious Knowledge",
  "BookTitleLong": "A Concise Cyclopedia of Religious Knowledge: Biblical, Biographical, Geographical, Historical, Practical and Theological",
  "BookEdition": "",
  "BookEditors": [
    "Elias Benjamin Sanford"
  ],
  "BookVolumeNumber": "",
  "BookPublisher": "Funk & Wagnall Company",
  "BookCopyrightDate": "1890",
  "BookPrintingDate": "1895",
  "PublicationDate": "1895",
  "CreatorNames": [
    "Elias Benjamin Sanford"
  ],
  "ContributorNames": [],
  "Rating": []
}