{
  "ZWIversion": 1.4,
  "GeneratorName": "AutoZWI",
  "Title": "Architecture",
  "Lang": "en",
  "Content": {
    "article.html": "08df367983161781f14a03a89cc63402d531bc42",
    "article.txt": "9f7349211dd42f6cbcf673b7413fa0e40cc8a739"
  },
  "Primary": "article.html",
  "Publisher": "ccrk",
  "LastModified": "1708959414",
  "TimeCreated": "1708959414",
  "Categories": [
    "Religion",
    "Christianity"
  ],
  "Topics": [],
  "Description": "Architecture, Christian. It was not until the time of Constantine that Christian architecture began to develop as an art. (1) The so-called Basilican style was an imitation of the Roman basilica, a rectangular building with plain walls on the outside, and on the interior a large hall surrounded by columns and galleries. ",
  "Comment": "",
  "License": "Public Domain in the USA",
  "SourceURL": "https://oldpedia.org/article/ccrk/Architecture",
  "SourceFileURL": "https://archive.org/details/concisecyclopedi00sanf",
  "LocalFileURL": "https://oldpedia.org/pdf/ccrk/concisecyclopedi00sanf.pdf",
  "ShortTitle": "",
  "BookTitle": "A Concise Cyclopedia of Religious Knowledge",
  "BookTitleLong": "A Concise Cyclopedia of Religious Knowledge: Biblical, Biographical, Geographical, Historical, Practical and Theological",
  "BookEdition": "",
  "BookEditors": [
    "Elias Benjamin Sanford"
  ],
  "BookVolumeNumber": "",
  "BookPublisher": "Funk & Wagnall Company",
  "BookCopyrightDate": "1890",
  "BookPrintingDate": "1895",
  "PublicationDate": "1895",
  "CreatorNames": [
    "Elias Benjamin Sanford"
  ],
  "ContributorNames": [],
  "Rating": []
}