{
  "ZWIversion": 1.4,
  "GeneratorName": "AutoZWI",
  "Title": "Gothic Architecture",
  "Lang": "en",
  "Content": {
    "article.html": "457a9ee9c06bd1126a72470b0f0fcda11dd85ee0",
    "article.txt": "77bb262a7fd1a07e8293b2ff934b5cec5c4d0ae1"
  },
  "Primary": "article.html",
  "Publisher": "ccrk",
  "LastModified": "1708959420",
  "TimeCreated": "1708959420",
  "Categories": [
    "Religion",
    "Christianity"
  ],
  "Topics": [],
  "Description": "Gothic Architecture. This name was given in contempt, to the style so designated, by partisans of the Classical style of architecture, who meant it to signify “barbarous;” but it has been universally adopted to express the whole range of mediaeval architecture. There was an attempt made to get rid of the implied slur by using the word “Pointed” inst",
  "Comment": "",
  "License": "Public Domain in the USA",
  "SourceURL": "https://oldpedia.org/article/ccrk/Gothic Architecture",
  "SourceFileURL": "https://archive.org/details/concisecyclopedi00sanf",
  "LocalFileURL": "https://oldpedia.org/pdf/ccrk/concisecyclopedi00sanf.pdf",
  "ShortTitle": "",
  "BookTitle": "A Concise Cyclopedia of Religious Knowledge",
  "BookTitleLong": "A Concise Cyclopedia of Religious Knowledge: Biblical, Biographical, Geographical, Historical, Practical and Theological",
  "BookEdition": "",
  "BookEditors": [
    "Elias Benjamin Sanford"
  ],
  "BookVolumeNumber": "",
  "BookPublisher": "Funk & Wagnall Company",
  "BookCopyrightDate": "1890",
  "BookPrintingDate": "1895",
  "PublicationDate": "1895",
  "CreatorNames": [
    "Elias Benjamin Sanford"
  ],
  "ContributorNames": [],
  "Rating": []
}