{
  "ZWIversion": 1.4,
  "GeneratorName": "AutoZWI",
  "Title": "Antonelli, Giacomo",
  "Lang": "en",
  "Content": {
    "article.html": "f3767cf3f6d35290944891bce84f5b5c4a80875b",
    "article.txt": "581a152ffc084264e2e768996fe66241f68d6fcd"
  },
  "Primary": "article.html",
  "Publisher": "ccrk",
  "LastModified": "1708959413",
  "TimeCreated": "1708959413",
  "Categories": [
    "Religion",
    "Christianity"
  ],
  "Topics": [],
  "Description": "Antonelli, Giacomo, a noted Italian cardinal and statesman; b. at Sonnino, April 2, 1806; d. in Rome, Nov. 7, 1876. He early won distinction, and Gregory XVI., in 1845, made him his minister of finance. He was appointed cardinal-deacon (1847) by Pius IX., who made him his secretary of foreign affairs in 1849. He proved an. ",
  "Comment": "",
  "License": "Public Domain in the USA",
  "SourceURL": "https://oldpedia.org/article/ccrk/Antonelli, Giacomo",
  "SourceFileURL": "https://archive.org/details/concisecyclopedi00sanf",
  "LocalFileURL": "https://oldpedia.org/pdf/ccrk/concisecyclopedi00sanf.pdf",
  "ShortTitle": "",
  "BookTitle": "A Concise Cyclopedia of Religious Knowledge",
  "BookTitleLong": "A Concise Cyclopedia of Religious Knowledge: Biblical, Biographical, Geographical, Historical, Practical and Theological",
  "BookEdition": "",
  "BookEditors": [
    "Elias Benjamin Sanford"
  ],
  "BookVolumeNumber": "",
  "BookPublisher": "Funk & Wagnall Company",
  "BookCopyrightDate": "1890",
  "BookPrintingDate": "1895",
  "PublicationDate": "1895",
  "CreatorNames": [
    "Elias Benjamin Sanford"
  ],
  "ContributorNames": [],
  "Rating": []
}