{
  "ZWIversion": 1.4,
  "GeneratorName": "AutoZWI",
  "Title": "Lot",
  "Lang": "en",
  "Content": {
    "article.html": "c6c899aa2ca683f5f0535301515934e031b92a68",
    "article.txt": "f5f8ce8d37e3daf19bea5d2412c7b5aef36231e0"
  },
  "Primary": "article.html",
  "Publisher": "ccrk",
  "LastModified": "1708959423",
  "TimeCreated": "1708959423",
  "Categories": [
    "Religion",
    "Christianity"
  ],
  "Topics": [],
  "Description": "Lot. “The custom of deciding doubtful questions by lot is one of great extent and high antiquity, recommending itself as a sort of appeal to the Almighty ..secure from all influence of passion or bias, and is a sort of divination employed even by the gods themselves. (Hom. II. xxii. 209; Cic. de Div. i. 34; ii. ",
  "Comment": "",
  "License": "Public Domain in the USA",
  "SourceURL": "https://oldpedia.org/article/ccrk/Lot",
  "SourceFileURL": "https://archive.org/details/concisecyclopedi00sanf",
  "LocalFileURL": "https://oldpedia.org/pdf/ccrk/concisecyclopedi00sanf.pdf",
  "ShortTitle": "",
  "BookTitle": "A Concise Cyclopedia of Religious Knowledge",
  "BookTitleLong": "A Concise Cyclopedia of Religious Knowledge: Biblical, Biographical, Geographical, Historical, Practical and Theological",
  "BookEdition": "",
  "BookEditors": [
    "Elias Benjamin Sanford"
  ],
  "BookVolumeNumber": "",
  "BookPublisher": "Funk & Wagnall Company",
  "BookCopyrightDate": "1890",
  "BookPrintingDate": "1895",
  "PublicationDate": "1895",
  "CreatorNames": [
    "Elias Benjamin Sanford"
  ],
  "ContributorNames": [],
  "Rating": []
}