{
  "ZWIversion": 1.4,
  "GeneratorName": "AutoZWI",
  "Title": "Sharp, James, archbishop of St. Andrews",
  "Lang": "en",
  "Content": {
    "article.html": "c7959f80deb2177b81d001e994cfd0d32da81312",
    "article.txt": "6ec915fa3291ccc570ad7ef153a9b394b1e5ad60"
  },
  "Primary": "article.html",
  "Publisher": "ccrk",
  "LastModified": "1708959428",
  "TimeCreated": "1708959428",
  "Categories": [
    "Religion",
    "Christianity"
  ],
  "Topics": [],
  "Description": "Sharp, James, archbishop of St. Andrews; b. in the castle of Banff, May, 1618; assassinated on Magus Muir, near St. Andrews, May 3, 1679. He was educated at the University of Aberdeen, and after acting for a short time (1640) as professor of philosophy in St. Leonard’s College, St. Andrews, he became minister of Crail. ",
  "Comment": "",
  "License": "Public Domain in the USA",
  "SourceURL": "https://oldpedia.org/article/ccrk/Sharp, James, archbishop of St. Andrews",
  "SourceFileURL": "https://archive.org/details/concisecyclopedi00sanf",
  "LocalFileURL": "https://oldpedia.org/pdf/ccrk/concisecyclopedi00sanf.pdf",
  "ShortTitle": "",
  "BookTitle": "A Concise Cyclopedia of Religious Knowledge",
  "BookTitleLong": "A Concise Cyclopedia of Religious Knowledge: Biblical, Biographical, Geographical, Historical, Practical and Theological",
  "BookEdition": "",
  "BookEditors": [
    "Elias Benjamin Sanford"
  ],
  "BookVolumeNumber": "",
  "BookPublisher": "Funk & Wagnall Company",
  "BookCopyrightDate": "1890",
  "BookPrintingDate": "1895",
  "PublicationDate": "1895",
  "CreatorNames": [
    "Elias Benjamin Sanford"
  ],
  "ContributorNames": [],
  "Rating": []
}