{
  "ZWIversion": 1.4,
  "GeneratorName": "AutoZWI",
  "Title": "Atonement",
  "Lang": "en",
  "Content": {
    "article.html": "2a45b4d7818b9d0ea104b178777642bad395d6d4",
    "article.txt": "6d6de4a8e424e627e2fcd0689fe22a2bc0006412"
  },
  "Primary": "article.html",
  "Publisher": "ccrk",
  "LastModified": "1708959414",
  "TimeCreated": "1708959414",
  "Categories": [
    "Religion",
    "Christianity"
  ],
  "Topics": [],
  "Description": "Atonement, Day of. The directions for its observance are found in Lev. xvi., xxiii. 26-32; Num. xxix. 7-11. The day is still kept, but with less imposing ceremonial than in the period before the destruction of Jerusalem. See Lightfoot: Temple Service; Ewald: The Antiquities of Israel, Eng. trans. (Boston, 1876), p. 361, sqq.; ",
  "Comment": "",
  "License": "Public Domain in the USA",
  "SourceURL": "https://oldpedia.org/article/ccrk/Atonement",
  "SourceFileURL": "https://archive.org/details/concisecyclopedi00sanf",
  "LocalFileURL": "https://oldpedia.org/pdf/ccrk/concisecyclopedi00sanf.pdf",
  "ShortTitle": "",
  "BookTitle": "A Concise Cyclopedia of Religious Knowledge",
  "BookTitleLong": "A Concise Cyclopedia of Religious Knowledge: Biblical, Biographical, Geographical, Historical, Practical and Theological",
  "BookEdition": "",
  "BookEditors": [
    "Elias Benjamin Sanford"
  ],
  "BookVolumeNumber": "",
  "BookPublisher": "Funk & Wagnall Company",
  "BookCopyrightDate": "1890",
  "BookPrintingDate": "1895",
  "PublicationDate": "1895",
  "CreatorNames": [
    "Elias Benjamin Sanford"
  ],
  "ContributorNames": [],
  "Rating": []
}