{
  "ZWIversion": 1.4,
  "GeneratorName": "AutoZWI",
  "Title": "Helvetic",
  "Lang": "en",
  "Content": {
    "article.html": "45b886e7295ee261b97e0df126732f9808ca4132",
    "article.txt": "bef006c8392e51bc312b68799259af61d95a5c25"
  },
  "Primary": "article.html",
  "Publisher": "ccrk",
  "LastModified": "1708959421",
  "TimeCreated": "1708959421",
  "Categories": [
    "Religion",
    "Christianity"
  ],
  "Topics": [],
  "Description": "Helvetic Confessions. (1) First Helvetie Confession.—This was framed by a convention of delegates which began its sessions at Basel, Jan. 30, 1536. The Confession was first drawn up in Latin and translated into German, and adopted as a standard of doctrine in March, 1536, (2) The Second Helvetic Confession was written by Bullinger. ",
  "Comment": "",
  "License": "Public Domain in the USA",
  "SourceURL": "https://oldpedia.org/article/ccrk/Helvetic",
  "SourceFileURL": "https://archive.org/details/concisecyclopedi00sanf",
  "LocalFileURL": "https://oldpedia.org/pdf/ccrk/concisecyclopedi00sanf.pdf",
  "ShortTitle": "",
  "BookTitle": "A Concise Cyclopedia of Religious Knowledge",
  "BookTitleLong": "A Concise Cyclopedia of Religious Knowledge: Biblical, Biographical, Geographical, Historical, Practical and Theological",
  "BookEdition": "",
  "BookEditors": [
    "Elias Benjamin Sanford"
  ],
  "BookVolumeNumber": "",
  "BookPublisher": "Funk & Wagnall Company",
  "BookCopyrightDate": "1890",
  "BookPrintingDate": "1895",
  "PublicationDate": "1895",
  "CreatorNames": [
    "Elias Benjamin Sanford"
  ],
  "ContributorNames": [],
  "Rating": []
}