{
  "ZWIversion": 1.4,
  "GeneratorName": "AutoZWI",
  "Title": "Christian",
  "Lang": "en",
  "Content": {
    "article.html": "a2d274a475876f388cae6d0fa7349e9143ec7366",
    "article.txt": "f22efab5b34fc61e4880e4169a7cb0967c9b5b64"
  },
  "Primary": "article.html",
  "Publisher": "ccrk",
  "LastModified": "1708959416",
  "TimeCreated": "1708959416",
  "Categories": [
    "Religion",
    "Christianity"
  ],
  "Topics": [],
  "Description": "Christian Endeavor, The Young People’s Society of. This “latest-born of the children of the Church,” as the Society of Christian Endeavor has been fitly called, was first established in theWilliston Church in Portland, Maine, on the second day of February, 1881. It was founded by the pastor of that church for the sake of helping the young people to",
  "Comment": "",
  "License": "Public Domain in the USA",
  "SourceURL": "https://oldpedia.org/article/ccrk/Christian",
  "SourceFileURL": "https://archive.org/details/concisecyclopedi00sanf",
  "LocalFileURL": "https://oldpedia.org/pdf/ccrk/concisecyclopedi00sanf.pdf",
  "ShortTitle": "",
  "BookTitle": "A Concise Cyclopedia of Religious Knowledge",
  "BookTitleLong": "A Concise Cyclopedia of Religious Knowledge: Biblical, Biographical, Geographical, Historical, Practical and Theological",
  "BookEdition": "",
  "BookEditors": [
    "Elias Benjamin Sanford"
  ],
  "BookVolumeNumber": "",
  "BookPublisher": "Funk & Wagnall Company",
  "BookCopyrightDate": "1890",
  "BookPrintingDate": "1895",
  "PublicationDate": "1895",
  "CreatorNames": [
    "Elias Benjamin Sanford"
  ],
  "ContributorNames": [],
  "Rating": []
}