{
  "ZWIversion": 1.4,
  "GeneratorName": "AutoZWI",
  "Title": "Jehoshaphat",
  "Lang": "en",
  "Content": {
    "article.html": "98ca629d47ec6c8f792e1b5906f0092b8d8bad55",
    "article.txt": "5a0885724fba86ffb38ee173d1395e4f300220d2"
  },
  "Primary": "article.html",
  "Publisher": "ccrk",
  "LastModified": "1708959422",
  "TimeCreated": "1708959422",
  "Categories": [
    "Religion",
    "Christianity"
  ],
  "Topics": [],
  "Description": "Jehoshaphat, Valley of. a valley mentioned by Joel only, as the spot in which, after the return of Judah and Jerusalem from captivity, Jehovah would gather all the heathen (Joel iii. 2; Heb. iv. 2), and would there sit to judge them for their misdeeds to Israel (iii. 12; Heb. v. 41). For many centuries the name has been given to the deep ravine whic",
  "Comment": "",
  "License": "Public Domain in the USA",
  "SourceURL": "https://oldpedia.org/article/ccrk/Jehoshaphat",
  "SourceFileURL": "https://archive.org/details/concisecyclopedi00sanf",
  "LocalFileURL": "https://oldpedia.org/pdf/ccrk/concisecyclopedi00sanf.pdf",
  "ShortTitle": "",
  "BookTitle": "A Concise Cyclopedia of Religious Knowledge",
  "BookTitleLong": "A Concise Cyclopedia of Religious Knowledge: Biblical, Biographical, Geographical, Historical, Practical and Theological",
  "BookEdition": "",
  "BookEditors": [
    "Elias Benjamin Sanford"
  ],
  "BookVolumeNumber": "",
  "BookPublisher": "Funk & Wagnall Company",
  "BookCopyrightDate": "1890",
  "BookPrintingDate": "1895",
  "PublicationDate": "1895",
  "CreatorNames": [
    "Elias Benjamin Sanford"
  ],
  "ContributorNames": [],
  "Rating": []
}