{
  "ZWIversion": 1.4,
  "GeneratorName": "AutoZWI",
  "Title": "Purim",
  "Lang": "en",
  "Content": {
    "article.html": "6be3e35026b6ab779078ab96afdb93ca5c28c245",
    "article.txt": "bcec35348a5e9aebabc024e1a607cf771280e329"
  },
  "Primary": "article.html",
  "Publisher": "ccrk",
  "LastModified": "1708959427",
  "TimeCreated": "1708959427",
  "Categories": [
    "Religion",
    "Christianity"
  ],
  "Topics": [],
  "Description": "Pu'rim (lots'), a Jewish festival instituted to commemorate the preservation of the Jews from the massacre ordered by Haman. (Esth. ix. 20-32.) The name had its origin from the circumstance that Haman endeavored to decide by lots as to the day on which the massacre should take place. The festival is celebrated on the fourteenth and fifteenth of the",
  "Comment": "",
  "License": "Public Domain in the USA",
  "SourceURL": "https://oldpedia.org/article/ccrk/Purim",
  "SourceFileURL": "https://archive.org/details/concisecyclopedi00sanf",
  "LocalFileURL": "https://oldpedia.org/pdf/ccrk/concisecyclopedi00sanf.pdf",
  "ShortTitle": "",
  "BookTitle": "A Concise Cyclopedia of Religious Knowledge",
  "BookTitleLong": "A Concise Cyclopedia of Religious Knowledge: Biblical, Biographical, Geographical, Historical, Practical and Theological",
  "BookEdition": "",
  "BookEditors": [
    "Elias Benjamin Sanford"
  ],
  "BookVolumeNumber": "",
  "BookPublisher": "Funk & Wagnall Company",
  "BookCopyrightDate": "1890",
  "BookPrintingDate": "1895",
  "PublicationDate": "1895",
  "CreatorNames": [
    "Elias Benjamin Sanford"
  ],
  "ContributorNames": [],
  "Rating": []
}