{
  "ZWIversion": 1.4,
  "GeneratorName": "AutoZWI",
  "Title": "Garden. “The term ‘garden",
  "Lang": "en",
  "Content": {
    "article.html": "4d471727f2314ca0e5961f0e6c61e56a84ae1a57",
    "article.txt": "174643e84141e036bf362e28e7011939512fd4e9"
  },
  "Primary": "article.html",
  "Publisher": "ccrk",
  "LastModified": "1708959420",
  "TimeCreated": "1708959420",
  "Categories": [
    "Religion",
    "Christianity"
  ],
  "Topics": [],
  "Description": "Garden. “The term ‘garden,’ when used in the Scriptures, refers not to a place where vegetables were raised for the support of life, but to one planted with flowers, shrubs, and ornamental as well as fruit-bearing trees, intended to minister especially to the enjoyment of life. They were not often found in connection with private houses, unless they",
  "Comment": "",
  "License": "Public Domain in the USA",
  "SourceURL": "https://oldpedia.org/article/ccrk/Garden. “The term ‘garden",
  "SourceFileURL": "https://archive.org/details/concisecyclopedi00sanf",
  "LocalFileURL": "https://oldpedia.org/pdf/ccrk/concisecyclopedi00sanf.pdf",
  "ShortTitle": "",
  "BookTitle": "A Concise Cyclopedia of Religious Knowledge",
  "BookTitleLong": "A Concise Cyclopedia of Religious Knowledge: Biblical, Biographical, Geographical, Historical, Practical and Theological",
  "BookEdition": "",
  "BookEditors": [
    "Elias Benjamin Sanford"
  ],
  "BookVolumeNumber": "",
  "BookPublisher": "Funk & Wagnall Company",
  "BookCopyrightDate": "1890",
  "BookPrintingDate": "1895",
  "PublicationDate": "1895",
  "CreatorNames": [
    "Elias Benjamin Sanford"
  ],
  "ContributorNames": [],
  "Rating": []
}