{
  "ZWIversion": 1.4,
  "GeneratorName": "AutoZWI",
  "Title": "Daub, Karl, German theologian",
  "Lang": "en",
  "Content": {
    "article.html": "34f8cf3d62fd02faf2ae12f3fd5aa6c1589bcefc",
    "article.txt": "0e441aefbeefffa0a5de23452c7c15495532ca6b"
  },
  "Primary": "article.html",
  "Publisher": "ccrk",
  "LastModified": "1708959417",
  "TimeCreated": "1708959417",
  "Categories": [
    "Religion",
    "Christianity"
  ],
  "Topics": [],
  "Description": "Daub, Karl, German theologian; b. at Cassel, March 20, 1765; studied at Marburg, and in 1794 was appointed professor of theology at Heidelberg, where he d., Nov. 22, 1836. His name will be remembered as the founder of the speculative school of theology.",
  "Comment": "",
  "License": "Public Domain in the USA",
  "SourceURL": "https://oldpedia.org/article/ccrk/Daub, Karl, German theologian",
  "SourceFileURL": "https://archive.org/details/concisecyclopedi00sanf",
  "LocalFileURL": "https://oldpedia.org/pdf/ccrk/concisecyclopedi00sanf.pdf",
  "ShortTitle": "",
  "BookTitle": "A Concise Cyclopedia of Religious Knowledge",
  "BookTitleLong": "A Concise Cyclopedia of Religious Knowledge: Biblical, Biographical, Geographical, Historical, Practical and Theological",
  "BookEdition": "",
  "BookEditors": [
    "Elias Benjamin Sanford"
  ],
  "BookVolumeNumber": "",
  "BookPublisher": "Funk & Wagnall Company",
  "BookCopyrightDate": "1890",
  "BookPrintingDate": "1895",
  "PublicationDate": "1895",
  "CreatorNames": [
    "Elias Benjamin Sanford"
  ],
  "ContributorNames": [],
  "Rating": []
}