{
  "ZWIversion": 1.4,
  "GeneratorName": "AutoZWI",
  "Title": "Transubstantiation",
  "Lang": "en",
  "Content": {
    "article.html": "b6fdd5287cd10e9f401ae9e1cf25360b0c0587b9",
    "article.txt": "15deea1300b781088171d102f2d6fe10c0b9d4c7"
  },
  "Primary": "article.html",
  "Publisher": "ccrk",
  "LastModified": "1708959429",
  "TimeCreated": "1708959429",
  "Categories": [
    "Religion",
    "Christianity"
  ],
  "Topics": [],
  "Description": "Transubstantiation (from trans and substantia, a change of one substance into another), in the Roman Catholic Church, the miraculous conversion of the bread and wine used in the Eucharist into the “very body and blood” of Christ, a change said to be wrought by the act of consecration. “The forerunners of the Reformation opposed this doctrine, especi",
  "Comment": "",
  "License": "Public Domain in the USA",
  "SourceURL": "https://oldpedia.org/article/ccrk/Transubstantiation",
  "SourceFileURL": "https://archive.org/details/concisecyclopedi00sanf",
  "LocalFileURL": "https://oldpedia.org/pdf/ccrk/concisecyclopedi00sanf.pdf",
  "ShortTitle": "",
  "BookTitle": "A Concise Cyclopedia of Religious Knowledge",
  "BookTitleLong": "A Concise Cyclopedia of Religious Knowledge: Biblical, Biographical, Geographical, Historical, Practical and Theological",
  "BookEdition": "",
  "BookEditors": [
    "Elias Benjamin Sanford"
  ],
  "BookVolumeNumber": "",
  "BookPublisher": "Funk & Wagnall Company",
  "BookCopyrightDate": "1890",
  "BookPrintingDate": "1895",
  "PublicationDate": "1895",
  "CreatorNames": [
    "Elias Benjamin Sanford"
  ],
  "ContributorNames": [],
  "Rating": []
}