{
  "ZWIversion": 1.4,
  "GeneratorName": "AutoZWI",
  "Title": "Peter’s Pence",
  "Lang": "en",
  "Content": {
    "article.html": "1d2353ead03777bfe74280e9ae8bb25499e67f1e",
    "article.txt": "0c6d15e71595e07bcdb2f745294a6d7001e4fc12"
  },
  "Primary": "article.html",
  "Publisher": "ccrk",
  "LastModified": "1708959426",
  "TimeCreated": "1708959426",
  "Categories": [
    "Religion",
    "Christianity"
  ],
  "Topics": [],
  "Description": "Peter’s Pence denotes a money tribute once paid annually by several countries to the popes. It probably originated in England, where it was collected from about 740 until it was abolished by Henry VIII. in 1534. The tax was first fixed at a penny for every family, but was afterward required only of those having fixed incomes. ",
  "Comment": "",
  "License": "Public Domain in the USA",
  "SourceURL": "https://oldpedia.org/article/ccrk/Peter’s Pence",
  "SourceFileURL": "https://archive.org/details/concisecyclopedi00sanf",
  "LocalFileURL": "https://oldpedia.org/pdf/ccrk/concisecyclopedi00sanf.pdf",
  "ShortTitle": "",
  "BookTitle": "A Concise Cyclopedia of Religious Knowledge",
  "BookTitleLong": "A Concise Cyclopedia of Religious Knowledge: Biblical, Biographical, Geographical, Historical, Practical and Theological",
  "BookEdition": "",
  "BookEditors": [
    "Elias Benjamin Sanford"
  ],
  "BookVolumeNumber": "",
  "BookPublisher": "Funk & Wagnall Company",
  "BookCopyrightDate": "1890",
  "BookPrintingDate": "1895",
  "PublicationDate": "1895",
  "CreatorNames": [
    "Elias Benjamin Sanford"
  ],
  "ContributorNames": [],
  "Rating": []
}