{
  "ZWIversion": 1.4,
  "GeneratorName": "AutoZWI",
  "Title": "Strauss",
  "Lang": "en",
  "Content": {
    "article.html": "6c04d1369fc952cb657b0ebf0033395382161b43",
    "article.txt": "cd0997014e8590aa16039359585a0d2e44406d76"
  },
  "Primary": "article.html",
  "Publisher": "ccrk",
  "LastModified": "1708959428",
  "TimeCreated": "1708959428",
  "Categories": [
    "Religion",
    "Christianity"
  ],
  "Topics": [],
  "Description": "Strauss (strowss), David Friedrich, the leader in our century of the extreme ra-tionists on the subject of the Life of Christ; b. at Ludwigsburg, in Wiirtemberg, 180S; d. there, 1874; studied theology at Blaubeuren, and afterward at Tubingen. He went to the seminary at Maulbronn as professor’s assistant in 1830, and was at first a follower of Schell",
  "Comment": "",
  "License": "Public Domain in the USA",
  "SourceURL": "https://oldpedia.org/article/ccrk/Strauss",
  "SourceFileURL": "https://archive.org/details/concisecyclopedi00sanf",
  "LocalFileURL": "https://oldpedia.org/pdf/ccrk/concisecyclopedi00sanf.pdf",
  "ShortTitle": "",
  "BookTitle": "A Concise Cyclopedia of Religious Knowledge",
  "BookTitleLong": "A Concise Cyclopedia of Religious Knowledge: Biblical, Biographical, Geographical, Historical, Practical and Theological",
  "BookEdition": "",
  "BookEditors": [
    "Elias Benjamin Sanford"
  ],
  "BookVolumeNumber": "",
  "BookPublisher": "Funk & Wagnall Company",
  "BookCopyrightDate": "1890",
  "BookPrintingDate": "1895",
  "PublicationDate": "1895",
  "CreatorNames": [
    "Elias Benjamin Sanford"
  ],
  "ContributorNames": [],
  "Rating": []
}