{
  "ZWIversion": 1.4,
  "GeneratorName": "AutoZWI",
  "Title": "Peter of Bruys",
  "Lang": "en",
  "Content": {
    "article.html": "79e4ea310df6bf2a9ae7089d46ee42825813ac5b",
    "article.txt": "1fe0e2925fd458017bbdd1b1e629ce18026f6c01"
  },
  "Primary": "article.html",
  "Publisher": "ccrk",
  "LastModified": "1708959426",
  "TimeCreated": "1708959426",
  "Categories": [
    "Religion",
    "Christianity"
  ],
  "Topics": [],
  "Description": "Peter of Bruys. See Petrobrussians.",
  "Comment": "",
  "License": "Public Domain in the USA",
  "SourceURL": "https://oldpedia.org/article/ccrk/Peter of Bruys",
  "SourceFileURL": "https://archive.org/details/concisecyclopedi00sanf",
  "LocalFileURL": "https://oldpedia.org/pdf/ccrk/concisecyclopedi00sanf.pdf",
  "ShortTitle": "",
  "BookTitle": "A Concise Cyclopedia of Religious Knowledge",
  "BookTitleLong": "A Concise Cyclopedia of Religious Knowledge: Biblical, Biographical, Geographical, Historical, Practical and Theological",
  "BookEdition": "",
  "BookEditors": [
    "Elias Benjamin Sanford"
  ],
  "BookVolumeNumber": "",
  "BookPublisher": "Funk & Wagnall Company",
  "BookCopyrightDate": "1890",
  "BookPrintingDate": "1895",
  "PublicationDate": "1895",
  "CreatorNames": [
    "Elias Benjamin Sanford"
  ],
  "ContributorNames": [],
  "Rating": []
}