{
  "ZWIversion": 1.4,
  "GeneratorName": "AutoZWI",
  "Title": "Joshua",
  "Lang": "en",
  "Content": {
    "article.html": "a4d600695d1fc01607b6cdc53b99a69121b37a5b",
    "article.txt": "baab39341a9cc62699407ba08bd83d8c24f1b94e"
  },
  "Primary": "article.html",
  "Publisher": "ccrk",
  "LastModified": "1708959422",
  "TimeCreated": "1708959422",
  "Categories": [
    "Religion",
    "Christianity"
  ],
  "Topics": [],
  "Description": "Joshua (Gr. /esous, “whence ‘Jesus,’ in the A. V. of Heb. iv. 8; another form of the name is Hoshea, Num. xiii. 8, 16), first the lieutenant, and afterward the successor of Moses, was the son of Nun, of the tribe of Ephraim, and left Egypt along with the rest of the children of Israel at the time of the exodus. ",
  "Comment": "",
  "License": "Public Domain in the USA",
  "SourceURL": "https://oldpedia.org/article/ccrk/Joshua",
  "SourceFileURL": "https://archive.org/details/concisecyclopedi00sanf",
  "LocalFileURL": "https://oldpedia.org/pdf/ccrk/concisecyclopedi00sanf.pdf",
  "ShortTitle": "",
  "BookTitle": "A Concise Cyclopedia of Religious Knowledge",
  "BookTitleLong": "A Concise Cyclopedia of Religious Knowledge: Biblical, Biographical, Geographical, Historical, Practical and Theological",
  "BookEdition": "",
  "BookEditors": [
    "Elias Benjamin Sanford"
  ],
  "BookVolumeNumber": "",
  "BookPublisher": "Funk & Wagnall Company",
  "BookCopyrightDate": "1890",
  "BookPrintingDate": "1895",
  "PublicationDate": "1895",
  "CreatorNames": [
    "Elias Benjamin Sanford"
  ],
  "ContributorNames": [],
  "Rating": []
}