{
  "ZWIversion": 1.4,
  "GeneratorName": "AutoZWI",
  "Title": "Cassock",
  "Lang": "en",
  "Content": {
    "article.html": "efd3d544f3f704af9fd4a32a07f6c344d08ff2ff",
    "article.txt": "ab68182acb18f83fa6de3e2477a8be41663cf295"
  },
  "Primary": "article.html",
  "Publisher": "ccrk",
  "LastModified": "1708959416",
  "TimeCreated": "1708959416",
  "Categories": [
    "Religion",
    "Christianity"
  ],
  "Topics": [],
  "Description": "Cassock, a close-fitting garment with tight sleeves, used by clergy of all orders, and also by laymen officially employed in the conduct of Divine worship, such as choirmen, sacristans, clerks, etc. It is worn beneath the surplice or alb. Black is the usual color, but in some churches violet, as a matter of taste, is preferred, while scarlet also is",
  "Comment": "",
  "License": "Public Domain in the USA",
  "SourceURL": "https://oldpedia.org/article/ccrk/Cassock",
  "SourceFileURL": "https://archive.org/details/concisecyclopedi00sanf",
  "LocalFileURL": "https://oldpedia.org/pdf/ccrk/concisecyclopedi00sanf.pdf",
  "ShortTitle": "",
  "BookTitle": "A Concise Cyclopedia of Religious Knowledge",
  "BookTitleLong": "A Concise Cyclopedia of Religious Knowledge: Biblical, Biographical, Geographical, Historical, Practical and Theological",
  "BookEdition": "",
  "BookEditors": [
    "Elias Benjamin Sanford"
  ],
  "BookVolumeNumber": "",
  "BookPublisher": "Funk & Wagnall Company",
  "BookCopyrightDate": "1890",
  "BookPrintingDate": "1895",
  "PublicationDate": "1895",
  "CreatorNames": [
    "Elias Benjamin Sanford"
  ],
  "ContributorNames": [],
  "Rating": []
}