{
  "ZWIversion": 1.4,
  "GeneratorName": "AutoZWI",
  "Title": "Hincmar",
  "Lang": "en",
  "Content": {
    "article.html": "16a9f37bc732a19548021c2cf6ecbc2b119faaaa",
    "article.txt": "485ab60d0903b4db9bbe9ed72a296c8608be2e73"
  },
  "Primary": "article.html",
  "Publisher": "ccrk",
  "LastModified": "1708959421",
  "TimeCreated": "1708959421",
  "Categories": [
    "Religion",
    "Christianity"
  ],
  "Topics": [],
  "Description": "Hincmar, bishop of Laon in the ninth century. He received his office through the influence of his uncle, Hincmar of Rheims. Opposing the king, and taking the part of the pope in his contention with the French Church, he was deposed by the Synod of Douzi (871), presided over by his uncle. He was taken prisoner and blinded by order of the king. ",
  "Comment": "",
  "License": "Public Domain in the USA",
  "SourceURL": "https://oldpedia.org/article/ccrk/Hincmar",
  "SourceFileURL": "https://archive.org/details/concisecyclopedi00sanf",
  "LocalFileURL": "https://oldpedia.org/pdf/ccrk/concisecyclopedi00sanf.pdf",
  "ShortTitle": "",
  "BookTitle": "A Concise Cyclopedia of Religious Knowledge",
  "BookTitleLong": "A Concise Cyclopedia of Religious Knowledge: Biblical, Biographical, Geographical, Historical, Practical and Theological",
  "BookEdition": "",
  "BookEditors": [
    "Elias Benjamin Sanford"
  ],
  "BookVolumeNumber": "",
  "BookPublisher": "Funk & Wagnall Company",
  "BookCopyrightDate": "1890",
  "BookPrintingDate": "1895",
  "PublicationDate": "1895",
  "CreatorNames": [
    "Elias Benjamin Sanford"
  ],
  "ContributorNames": [],
  "Rating": []
}