{
  "ZWIversion": 1.4,
  "GeneratorName": "AutoZWI",
  "Title": "Hermas",
  "Lang": "en",
  "Content": {
    "article.html": "dbec7a5efc27b74856f1c7a956f81cb6ebf0f04a",
    "article.txt": "99c68093f7fd48070f051ba5f7d56f31c5615b77"
  },
  "Primary": "article.html",
  "Publisher": "ccrk",
  "LastModified": "1708959421",
  "TimeCreated": "1708959421",
  "Categories": [
    "Religion",
    "Christianity"
  ],
  "Topics": [],
  "Description": "Hermas, the name of a book known under the general name of The Shepherd; held in high esteem by the early Church and quoted by Irenaeus, Clement of Alexandria, Origen, etc. There is little doubt but that it was the work of a writer named Hermas, the brother of Bishop Pius (139-154). Uhlhorn (Schaff-Herzog: Ency. ,vol. ii., p. ",
  "Comment": "",
  "License": "Public Domain in the USA",
  "SourceURL": "https://oldpedia.org/article/ccrk/Hermas",
  "SourceFileURL": "https://archive.org/details/concisecyclopedi00sanf",
  "LocalFileURL": "https://oldpedia.org/pdf/ccrk/concisecyclopedi00sanf.pdf",
  "ShortTitle": "",
  "BookTitle": "A Concise Cyclopedia of Religious Knowledge",
  "BookTitleLong": "A Concise Cyclopedia of Religious Knowledge: Biblical, Biographical, Geographical, Historical, Practical and Theological",
  "BookEdition": "",
  "BookEditors": [
    "Elias Benjamin Sanford"
  ],
  "BookVolumeNumber": "",
  "BookPublisher": "Funk & Wagnall Company",
  "BookCopyrightDate": "1890",
  "BookPrintingDate": "1895",
  "PublicationDate": "1895",
  "CreatorNames": [
    "Elias Benjamin Sanford"
  ],
  "ContributorNames": [],
  "Rating": []
}