{
  "ZWIversion": 1.4,
  "GeneratorName": "AutoZWI",
  "Title": "Martinmas, Festival of",
  "Lang": "en",
  "Content": {
    "article.html": "2c22180b11dd699a97961fe5171d7b96e98d9adc",
    "article.txt": "c6ccc63da76927eae2279679d51acb40c4a92c8b"
  },
  "Primary": "article.html",
  "Publisher": "ccrk",
  "LastModified": "1708959424",
  "TimeCreated": "1708959424",
  "Categories": [
    "Religion",
    "Christianity"
  ],
  "Topics": [],
  "Description": "Martinmas, Festival of, celebrated Nov. 11, in honor of St. Martin of Tours. It is called Martinalia in Germany. In England and Scotland the winter’s provisions were in olden days cured and stored up at that time of the year, and were hence called a tn art.",
  "Comment": "",
  "License": "Public Domain in the USA",
  "SourceURL": "https://oldpedia.org/article/ccrk/Martinmas, Festival of",
  "SourceFileURL": "https://archive.org/details/concisecyclopedi00sanf",
  "LocalFileURL": "https://oldpedia.org/pdf/ccrk/concisecyclopedi00sanf.pdf",
  "ShortTitle": "",
  "BookTitle": "A Concise Cyclopedia of Religious Knowledge",
  "BookTitleLong": "A Concise Cyclopedia of Religious Knowledge: Biblical, Biographical, Geographical, Historical, Practical and Theological",
  "BookEdition": "",
  "BookEditors": [
    "Elias Benjamin Sanford"
  ],
  "BookVolumeNumber": "",
  "BookPublisher": "Funk & Wagnall Company",
  "BookCopyrightDate": "1890",
  "BookPrintingDate": "1895",
  "PublicationDate": "1895",
  "CreatorNames": [
    "Elias Benjamin Sanford"
  ],
  "ContributorNames": [],
  "Rating": []
}