{
  "ZWIversion": 1.4,
  "GeneratorName": "AutoZWI",
  "Title": "Marcellians and Marcellinists",
  "Lang": "en",
  "Content": {
    "article.html": "7a7a45aeb11fea19760eb0538b8436dd711932da",
    "article.txt": "cdf48cf3f2bdcd2b3d3ffdf2f7af0e120ace13f9"
  },
  "Primary": "article.html",
  "Publisher": "ccrk",
  "LastModified": "1708959424",
  "TimeCreated": "1708959424",
  "Categories": [
    "Religion",
    "Christianity"
  ],
  "Topics": [],
  "Description": "Marcellians and Marcellinists, two heretical sects that flourished from the latter part of the second century. The first-mentioned were the followers of Marcellus of Ancyra (7. v.), and the second of Marcel-lina, a pupil of Carpocrates, whose system of Gnosticism she taught with success at Rome while Anicetus was bishop.",
  "Comment": "",
  "License": "Public Domain in the USA",
  "SourceURL": "https://oldpedia.org/article/ccrk/Marcellians and Marcellinists",
  "SourceFileURL": "https://archive.org/details/concisecyclopedi00sanf",
  "LocalFileURL": "https://oldpedia.org/pdf/ccrk/concisecyclopedi00sanf.pdf",
  "ShortTitle": "",
  "BookTitle": "A Concise Cyclopedia of Religious Knowledge",
  "BookTitleLong": "A Concise Cyclopedia of Religious Knowledge: Biblical, Biographical, Geographical, Historical, Practical and Theological",
  "BookEdition": "",
  "BookEditors": [
    "Elias Benjamin Sanford"
  ],
  "BookVolumeNumber": "",
  "BookPublisher": "Funk & Wagnall Company",
  "BookCopyrightDate": "1890",
  "BookPrintingDate": "1895",
  "PublicationDate": "1895",
  "CreatorNames": [
    "Elias Benjamin Sanford"
  ],
  "ContributorNames": [],
  "Rating": []
}