{
  "ZWIversion": 1.4,
  "GeneratorName": "AutoZWI",
  "Title": "John",
  "Lang": "en",
  "Content": {
    "article.html": "dc659ebd01ee94c869847e20d7f4e8b07fc399b8",
    "article.txt": "da30c9cee503575985978a78ff3129b243b6e467"
  },
  "Primary": "article.html",
  "Publisher": "ccrk",
  "LastModified": "1708959422",
  "TimeCreated": "1708959422",
  "Categories": [
    "Religion",
    "Christianity"
  ],
  "Topics": [],
  "Description": "John, St., of Nepomuk, the patron saint of Bohemia; b. at Pomuk, about 1330. He was a canon of the Cathedral of Prague and Vicar-General of the diocese. He appears to have incurred the hatred of King Wenceslaus IV., who caused him to be tortured and thrown into the river Moldau, in March, 13S3. Much of his history is involved in obscurity and legend",
  "Comment": "",
  "License": "Public Domain in the USA",
  "SourceURL": "https://oldpedia.org/article/ccrk/John",
  "SourceFileURL": "https://archive.org/details/concisecyclopedi00sanf",
  "LocalFileURL": "https://oldpedia.org/pdf/ccrk/concisecyclopedi00sanf.pdf",
  "ShortTitle": "",
  "BookTitle": "A Concise Cyclopedia of Religious Knowledge",
  "BookTitleLong": "A Concise Cyclopedia of Religious Knowledge: Biblical, Biographical, Geographical, Historical, Practical and Theological",
  "BookEdition": "",
  "BookEditors": [
    "Elias Benjamin Sanford"
  ],
  "BookVolumeNumber": "",
  "BookPublisher": "Funk & Wagnall Company",
  "BookCopyrightDate": "1890",
  "BookPrintingDate": "1895",
  "PublicationDate": "1895",
  "CreatorNames": [
    "Elias Benjamin Sanford"
  ],
  "ContributorNames": [],
  "Rating": []
}