{
  "ZWIversion": 1.4,
  "GeneratorName": "AutoZWI",
  "Title": "James",
  "Lang": "en",
  "Content": {
    "article.html": "a1a9d18e92a43e18ded9af649956c6eafdf2956c",
    "article.txt": "51f7584340864e092e4207fe137681aab11afbb9"
  },
  "Primary": "article.html",
  "Publisher": "ccrk",
  "LastModified": "1708959422",
  "TimeCreated": "1708959422",
  "Categories": [
    "Religion",
    "Christianity"
  ],
  "Topics": [],
  "Description": "James, “(1) the Son of Zebedee. This is the only one of the apostles of whose life and death we can write with certainty. Of his early life .we know nothing. We first hear of him A. D. 27, when he was called to be our Lord’s disciple; and he disappears from view A. D. 44, when he suffered martyrdom at the hands of Herod Agrippa I. I. ",
  "Comment": "",
  "License": "Public Domain in the USA",
  "SourceURL": "https://oldpedia.org/article/ccrk/James",
  "SourceFileURL": "https://archive.org/details/concisecyclopedi00sanf",
  "LocalFileURL": "https://oldpedia.org/pdf/ccrk/concisecyclopedi00sanf.pdf",
  "ShortTitle": "",
  "BookTitle": "A Concise Cyclopedia of Religious Knowledge",
  "BookTitleLong": "A Concise Cyclopedia of Religious Knowledge: Biblical, Biographical, Geographical, Historical, Practical and Theological",
  "BookEdition": "",
  "BookEditors": [
    "Elias Benjamin Sanford"
  ],
  "BookVolumeNumber": "",
  "BookPublisher": "Funk & Wagnall Company",
  "BookCopyrightDate": "1890",
  "BookPrintingDate": "1895",
  "PublicationDate": "1895",
  "CreatorNames": [
    "Elias Benjamin Sanford"
  ],
  "ContributorNames": [],
  "Rating": []
}