{
  "ZWIversion": 1.4,
  "GeneratorName": "AutoZWI",
  "Title": "Eudocia, wife of the Emperor Theodosius",
  "Lang": "en",
  "Content": {
    "article.html": "be74dbc30d989d6aaf28a49ef19f133fdf0da960",
    "article.txt": "9221e3555eaf4c19adcc8f1f8e26915ba42891a4"
  },
  "Primary": "article.html",
  "Publisher": "ccrk",
  "LastModified": "1708959419",
  "TimeCreated": "1708959419",
  "Categories": [
    "Religion",
    "Christianity"
  ],
  "Topics": [],
  "Description": "Eudocia, wife of the Emperor Theodosius; b. at Athens, she was early brought to Rome, and under the training of her father, a learned sophist, she developed remarkable intellectual powers. Captivated by her varied accomplishments the emperor was married to her in 421. In later years differences arose between them, and she was divorced, and lived in",
  "Comment": "",
  "License": "Public Domain in the USA",
  "SourceURL": "https://oldpedia.org/article/ccrk/Eudocia, wife of the Emperor Theodosius",
  "SourceFileURL": "https://archive.org/details/concisecyclopedi00sanf",
  "LocalFileURL": "https://oldpedia.org/pdf/ccrk/concisecyclopedi00sanf.pdf",
  "ShortTitle": "",
  "BookTitle": "A Concise Cyclopedia of Religious Knowledge",
  "BookTitleLong": "A Concise Cyclopedia of Religious Knowledge: Biblical, Biographical, Geographical, Historical, Practical and Theological",
  "BookEdition": "",
  "BookEditors": [
    "Elias Benjamin Sanford"
  ],
  "BookVolumeNumber": "",
  "BookPublisher": "Funk & Wagnall Company",
  "BookCopyrightDate": "1890",
  "BookPrintingDate": "1895",
  "PublicationDate": "1895",
  "CreatorNames": [
    "Elias Benjamin Sanford"
  ],
  "ContributorNames": [],
  "Rating": []
}