{
  "ZWIversion": 1.4,
  "GeneratorName": "AutoZWI",
  "Title": "Fasting",
  "Lang": "en",
  "Content": {
    "article.html": "fe4adbca7fe5044ec0b7d84c9d47300bcea99689",
    "article.txt": "94a01c4a490a0b8b0af098fee011cfab11ab5ac8"
  },
  "Primary": "article.html",
  "Publisher": "ccrk",
  "LastModified": "1708959419",
  "TimeCreated": "1708959419",
  "Categories": [
    "Religion",
    "Christianity"
  ],
  "Topics": [],
  "Description": "Fasting. Among the Hebrews there was but one divinely appointed public fast —that of the day of Atonement. (Lev. xvi. 29; xxiii. 27; Num. xxix. 7.) Days of public fasting were, however, frequently proclaimed in times of national calamity, and when there was special call for the confession of national sins. (Judg. xx. 26; I Sam. vii. 6; ",
  "Comment": "",
  "License": "Public Domain in the USA",
  "SourceURL": "https://oldpedia.org/article/ccrk/Fasting",
  "SourceFileURL": "https://archive.org/details/concisecyclopedi00sanf",
  "LocalFileURL": "https://oldpedia.org/pdf/ccrk/concisecyclopedi00sanf.pdf",
  "ShortTitle": "",
  "BookTitle": "A Concise Cyclopedia of Religious Knowledge",
  "BookTitleLong": "A Concise Cyclopedia of Religious Knowledge: Biblical, Biographical, Geographical, Historical, Practical and Theological",
  "BookEdition": "",
  "BookEditors": [
    "Elias Benjamin Sanford"
  ],
  "BookVolumeNumber": "",
  "BookPublisher": "Funk & Wagnall Company",
  "BookCopyrightDate": "1890",
  "BookPrintingDate": "1895",
  "PublicationDate": "1895",
  "CreatorNames": [
    "Elias Benjamin Sanford"
  ],
  "ContributorNames": [],
  "Rating": []
}