{
  "ZWIversion": 1.4,
  "GeneratorName": "AutoZWI",
  "Title": "Hilda",
  "Lang": "en",
  "Content": {
    "article.html": "2071b77c8f1f151ac31b162bf1dfd2030d9c7ddb",
    "article.txt": "e7a6f729af177cc44775d1170f5ae690c7b8cbcd"
  },
  "Primary": "article.html",
  "Publisher": "ccrk",
  "LastModified": "1708959421",
  "TimeCreated": "1708959421",
  "Categories": [
    "Religion",
    "Christianity"
  ],
  "Topics": [],
  "Description": "Hilda, St., a Saxon lady of the royal family of Northumbria. Converted to Christianity in the reign of King Edwin, she became abbess of the monastery of Heortea (Hartlepool) in 650. She founded the abbey of Whitby where she died in 6S0.",
  "Comment": "",
  "License": "Public Domain in the USA",
  "SourceURL": "https://oldpedia.org/article/ccrk/Hilda",
  "SourceFileURL": "https://archive.org/details/concisecyclopedi00sanf",
  "LocalFileURL": "https://oldpedia.org/pdf/ccrk/concisecyclopedi00sanf.pdf",
  "ShortTitle": "",
  "BookTitle": "A Concise Cyclopedia of Religious Knowledge",
  "BookTitleLong": "A Concise Cyclopedia of Religious Knowledge: Biblical, Biographical, Geographical, Historical, Practical and Theological",
  "BookEdition": "",
  "BookEditors": [
    "Elias Benjamin Sanford"
  ],
  "BookVolumeNumber": "",
  "BookPublisher": "Funk & Wagnall Company",
  "BookCopyrightDate": "1890",
  "BookPrintingDate": "1895",
  "PublicationDate": "1895",
  "CreatorNames": [
    "Elias Benjamin Sanford"
  ],
  "ContributorNames": [],
  "Rating": []
}