{
  "ZWIversion": 1.4,
  "GeneratorName": "AutoZWI",
  "Title": "Textus Receptus",
  "Lang": "en",
  "Content": {
    "article.html": "6c67b2b09410194508e25396b8c3c08364e8cdba",
    "article.txt": "3857ea2cf98f30fcfc04f4827b75e63b4ac00f85"
  },
  "Primary": "article.html",
  "Publisher": "ccrk",
  "LastModified": "1708959429",
  "TimeCreated": "1708959429",
  "Categories": [
    "Religion",
    "Christianity"
  ],
  "Topics": [],
  "Description": "Textus Receptus. See Bible, p. no.",
  "Comment": "",
  "License": "Public Domain in the USA",
  "SourceURL": "https://oldpedia.org/article/ccrk/Textus Receptus",
  "SourceFileURL": "https://archive.org/details/concisecyclopedi00sanf",
  "LocalFileURL": "https://oldpedia.org/pdf/ccrk/concisecyclopedi00sanf.pdf",
  "ShortTitle": "",
  "BookTitle": "A Concise Cyclopedia of Religious Knowledge",
  "BookTitleLong": "A Concise Cyclopedia of Religious Knowledge: Biblical, Biographical, Geographical, Historical, Practical and Theological",
  "BookEdition": "",
  "BookEditors": [
    "Elias Benjamin Sanford"
  ],
  "BookVolumeNumber": "",
  "BookPublisher": "Funk & Wagnall Company",
  "BookCopyrightDate": "1890",
  "BookPrintingDate": "1895",
  "PublicationDate": "1895",
  "CreatorNames": [
    "Elias Benjamin Sanford"
  ],
  "ContributorNames": [],
  "Rating": []
}