{
  "ZWIversion": 1.4,
  "GeneratorName": "AutoZWI",
  "Title": "Augsburg, Interim of",
  "Lang": "en",
  "Content": {
    "article.html": "99b1d15f17ceb13e421e788096aaa5ed25d06624",
    "article.txt": "16fbe6772b1f2d6da5d1552a48283c7692e66303"
  },
  "Primary": "article.html",
  "Publisher": "ccrk",
  "LastModified": "1708959414",
  "TimeCreated": "1708959414",
  "Categories": [
    "Religion",
    "Christianity"
  ],
  "Topics": [],
  "Description": "Augsburg, Interim of. See Interim. Augsburg, The Peace of, was concluded on Sept. 25, 1555. By its terms the sovereign could choose between the Augsburg Confession and the Roman Church, and his subjects were compelled to accept his choice. The only relief for the individual was to remove into the territory where the religion of the sovereign was in",
  "Comment": "",
  "License": "Public Domain in the USA",
  "SourceURL": "https://oldpedia.org/article/ccrk/Augsburg, Interim of",
  "SourceFileURL": "https://archive.org/details/concisecyclopedi00sanf",
  "LocalFileURL": "https://oldpedia.org/pdf/ccrk/concisecyclopedi00sanf.pdf",
  "ShortTitle": "",
  "BookTitle": "A Concise Cyclopedia of Religious Knowledge",
  "BookTitleLong": "A Concise Cyclopedia of Religious Knowledge: Biblical, Biographical, Geographical, Historical, Practical and Theological",
  "BookEdition": "",
  "BookEditors": [
    "Elias Benjamin Sanford"
  ],
  "BookVolumeNumber": "",
  "BookPublisher": "Funk & Wagnall Company",
  "BookCopyrightDate": "1890",
  "BookPrintingDate": "1895",
  "PublicationDate": "1895",
  "CreatorNames": [
    "Elias Benjamin Sanford"
  ],
  "ContributorNames": [],
  "Rating": []
}