{
  "ZWIversion": 1.4,
  "GeneratorName": "AutoZWI",
  "Title": "Affections",
  "Lang": "en",
  "Content": {
    "article.html": "04f59c4fda0a3973e19d3b29401deecf1bd2f388",
    "article.txt": "a1942389a3231aeaa0faf510993e619e88b2160d"
  },
  "Primary": "article.html",
  "Publisher": "ccrk",
  "LastModified": "1708959413",
  "TimeCreated": "1708959413",
  "Categories": [
    "Religion",
    "Christianity"
  ],
  "Topics": [],
  "Description": "Affections. “The affections, as they respect religion, may be defined to be the * vigorous and sensible exercises of the inclination and will of the soul toward religious objects.’ Whatever extremes Stoics or enthusiasts have run into, it is evident that the exercise of the affections is essential to the existence of true religion. ",
  "Comment": "",
  "License": "Public Domain in the USA",
  "SourceURL": "https://oldpedia.org/article/ccrk/Affections",
  "SourceFileURL": "https://archive.org/details/concisecyclopedi00sanf",
  "LocalFileURL": "https://oldpedia.org/pdf/ccrk/concisecyclopedi00sanf.pdf",
  "ShortTitle": "",
  "BookTitle": "A Concise Cyclopedia of Religious Knowledge",
  "BookTitleLong": "A Concise Cyclopedia of Religious Knowledge: Biblical, Biographical, Geographical, Historical, Practical and Theological",
  "BookEdition": "",
  "BookEditors": [
    "Elias Benjamin Sanford"
  ],
  "BookVolumeNumber": "",
  "BookPublisher": "Funk & Wagnall Company",
  "BookCopyrightDate": "1890",
  "BookPrintingDate": "1895",
  "PublicationDate": "1895",
  "CreatorNames": [
    "Elias Benjamin Sanford"
  ],
  "ContributorNames": [],
  "Rating": []
}