{
  "ZWIversion": 1.4,
  "GeneratorName": "AutoZWI",
  "Title": "Fox",
  "Lang": "en",
  "Content": {
    "article.html": "ff6180012b8564fe1a6f97217bbced99832f35ca",
    "article.txt": "05175a023d7c1de7288291438e4cee7a20556e7a"
  },
  "Primary": "article.html",
  "Publisher": "ccrk",
  "LastModified": "1708959419",
  "TimeCreated": "1708959419",
  "Categories": [
    "Religion",
    "Christianity"
  ],
  "Topics": [],
  "Description": "Fox (or Foxe), John, the author of the famous Book of Martyrs, was b. at Boston, Lincolnshire, 1517: d. in London, April 1 5, 1587. He was graduated at Oxford in 1543, and elected a fellow of Magdalen College. Two years after this he became a convert to Protestantism, and was expelled from his college on account of his heresy. ",
  "Comment": "",
  "License": "Public Domain in the USA",
  "SourceURL": "https://oldpedia.org/article/ccrk/Fox",
  "SourceFileURL": "https://archive.org/details/concisecyclopedi00sanf",
  "LocalFileURL": "https://oldpedia.org/pdf/ccrk/concisecyclopedi00sanf.pdf",
  "ShortTitle": "",
  "BookTitle": "A Concise Cyclopedia of Religious Knowledge",
  "BookTitleLong": "A Concise Cyclopedia of Religious Knowledge: Biblical, Biographical, Geographical, Historical, Practical and Theological",
  "BookEdition": "",
  "BookEditors": [
    "Elias Benjamin Sanford"
  ],
  "BookVolumeNumber": "",
  "BookPublisher": "Funk & Wagnall Company",
  "BookCopyrightDate": "1890",
  "BookPrintingDate": "1895",
  "PublicationDate": "1895",
  "CreatorNames": [
    "Elias Benjamin Sanford"
  ],
  "ContributorNames": [],
  "Rating": []
}