{
  "ZWIversion": 1.4,
  "GeneratorName": "AutoZWI",
  "Title": "Laodicea",
  "Lang": "en",
  "Content": {
    "article.html": "fcb35c0d1743b849c675cba239d28a77c3ff718b",
    "article.txt": "f2e75def9b518cfac232a94b6b27f055a6e2266a"
  },
  "Primary": "article.html",
  "Publisher": "ccrk",
  "LastModified": "1708959423",
  "TimeCreated": "1708959423",
  "Categories": [
    "Religion",
    "Christianity"
  ],
  "Topics": [],
  "Description": "Laodice'a, a city of ancient Phrygia, near the river Lycus, so called after Laodice, queen of Antiochus Theos, its founder, was built on the site of an older town, named Diospolis. It was destroyed by an earthquake during the reign of Tiberius, but rebuilt by the inhabitants, who were very wealthy; fell into the hands of the Turks in 1255; ",
  "Comment": "",
  "License": "Public Domain in the USA",
  "SourceURL": "https://oldpedia.org/article/ccrk/Laodicea",
  "SourceFileURL": "https://archive.org/details/concisecyclopedi00sanf",
  "LocalFileURL": "https://oldpedia.org/pdf/ccrk/concisecyclopedi00sanf.pdf",
  "ShortTitle": "",
  "BookTitle": "A Concise Cyclopedia of Religious Knowledge",
  "BookTitleLong": "A Concise Cyclopedia of Religious Knowledge: Biblical, Biographical, Geographical, Historical, Practical and Theological",
  "BookEdition": "",
  "BookEditors": [
    "Elias Benjamin Sanford"
  ],
  "BookVolumeNumber": "",
  "BookPublisher": "Funk & Wagnall Company",
  "BookCopyrightDate": "1890",
  "BookPrintingDate": "1895",
  "PublicationDate": "1895",
  "CreatorNames": [
    "Elias Benjamin Sanford"
  ],
  "ContributorNames": [],
  "Rating": []
}