{
  "ZWIversion": 1.4,
  "GeneratorName": "AutoZWI",
  "Title": "Baird, Charles Washington",
  "Lang": "en",
  "Content": {
    "article.html": "69dd9f6f366ab4f607c5e009543c92d51f3a4817",
    "article.txt": "f7f2482562677cc10cdd3625ea021c1e1e6c4996"
  },
  "Primary": "article.html",
  "Publisher": "ccrk",
  "LastModified": "1708959414",
  "TimeCreated": "1708959414",
  "Categories": [
    "Religion",
    "Christianity"
  ],
  "Topics": [],
  "Description": "Baird, Charles Washington, D. D., Presbyterian; b. at Princeton, N. J., Aug. 28, 1828; was graduated at the University of the City of New York, 1848, and at Union Theological Seminary, 1852; became pastor at Rye, N. Y., in 1861, where he remained until his death, Feb. 10, 1887. His best-known work is a History of the Huguenot Emigration to America (",
  "Comment": "",
  "License": "Public Domain in the USA",
  "SourceURL": "https://oldpedia.org/article/ccrk/Baird, Charles Washington",
  "SourceFileURL": "https://archive.org/details/concisecyclopedi00sanf",
  "LocalFileURL": "https://oldpedia.org/pdf/ccrk/concisecyclopedi00sanf.pdf",
  "ShortTitle": "",
  "BookTitle": "A Concise Cyclopedia of Religious Knowledge",
  "BookTitleLong": "A Concise Cyclopedia of Religious Knowledge: Biblical, Biographical, Geographical, Historical, Practical and Theological",
  "BookEdition": "",
  "BookEditors": [
    "Elias Benjamin Sanford"
  ],
  "BookVolumeNumber": "",
  "BookPublisher": "Funk & Wagnall Company",
  "BookCopyrightDate": "1890",
  "BookPrintingDate": "1895",
  "PublicationDate": "1895",
  "CreatorNames": [
    "Elias Benjamin Sanford"
  ],
  "ContributorNames": [],
  "Rating": []
}