{
  "ZWIversion": 1.4,
  "GeneratorName": "AutoZWI",
  "Title": "Jabbok",
  "Lang": "en",
  "Content": {
    "article.html": "d065ca9b03bc589246593a6a69f5a26299553323",
    "article.txt": "4a699fc7c3ffe866069b482f025547c60ee302d9"
  },
  "Primary": "article.html",
  "Publisher": "ccrk",
  "LastModified": "1708959422",
  "TimeCreated": "1708959422",
  "Categories": [
    "Religion",
    "Christianity"
  ],
  "Topics": [],
  "Description": "Jab'bok, now called the Zerka. It rises about twenty-five miles east of the Dead Sea at its north end, and flows into the Jordan about midway between the sea of Galilee and the Dead Sea. It was on its south bank that Jacob wrestled for a blessing. (Gen. xxxii. 22-24.) It was the northern boundary of Ammon, and separated the kingdoms of Sihon and Og.",
  "Comment": "",
  "License": "Public Domain in the USA",
  "SourceURL": "https://oldpedia.org/article/ccrk/Jabbok",
  "SourceFileURL": "https://archive.org/details/concisecyclopedi00sanf",
  "LocalFileURL": "https://oldpedia.org/pdf/ccrk/concisecyclopedi00sanf.pdf",
  "ShortTitle": "",
  "BookTitle": "A Concise Cyclopedia of Religious Knowledge",
  "BookTitleLong": "A Concise Cyclopedia of Religious Knowledge: Biblical, Biographical, Geographical, Historical, Practical and Theological",
  "BookEdition": "",
  "BookEditors": [
    "Elias Benjamin Sanford"
  ],
  "BookVolumeNumber": "",
  "BookPublisher": "Funk & Wagnall Company",
  "BookCopyrightDate": "1890",
  "BookPrintingDate": "1895",
  "PublicationDate": "1895",
  "CreatorNames": [
    "Elias Benjamin Sanford"
  ],
  "ContributorNames": [],
  "Rating": []
}