{
  "ZWIversion": 1.4,
  "GeneratorName": "AutoZWI",
  "Title": "Unitarian",
  "Lang": "en",
  "Content": {
    "article.html": "a602b8ec8290d390d9df50731bc0abce1bda4a14",
    "article.txt": "c5e99f739976466582c095966b59134b32a9b81a"
  },
  "Primary": "article.html",
  "Publisher": "ccrk",
  "LastModified": "1708959429",
  "TimeCreated": "1708959429",
  "Categories": [
    "Religion",
    "Christianity"
  ],
  "Topics": [],
  "Description": "Unitarian Church, The. The English word “Unitarian,” and the Latin word “Unitarius,” are both of comparatively recent origin, while the word “Trinitarius” is as old, at least, as the fourth century, implying a person who believes in the doctrine of the Trinitas, or Trinity. The word “Unitarius” has not been found earlier than the discussions which f",
  "Comment": "",
  "License": "Public Domain in the USA",
  "SourceURL": "https://oldpedia.org/article/ccrk/Unitarian",
  "SourceFileURL": "https://archive.org/details/concisecyclopedi00sanf",
  "LocalFileURL": "https://oldpedia.org/pdf/ccrk/concisecyclopedi00sanf.pdf",
  "ShortTitle": "",
  "BookTitle": "A Concise Cyclopedia of Religious Knowledge",
  "BookTitleLong": "A Concise Cyclopedia of Religious Knowledge: Biblical, Biographical, Geographical, Historical, Practical and Theological",
  "BookEdition": "",
  "BookEditors": [
    "Elias Benjamin Sanford"
  ],
  "BookVolumeNumber": "",
  "BookPublisher": "Funk & Wagnall Company",
  "BookCopyrightDate": "1890",
  "BookPrintingDate": "1895",
  "PublicationDate": "1895",
  "CreatorNames": [
    "Elias Benjamin Sanford"
  ],
  "ContributorNames": [],
  "Rating": []
}