{
  "ZWIversion": 1.4,
  "GeneratorName": "AutoZWI",
  "Title": "Beausobre",
  "Lang": "en",
  "Content": {
    "article.html": "95d2c94303f9ee895fea2374ce906fbb83636ef5",
    "article.txt": "b8a4526ec0913f5b89c86915db322862ac9ff89d"
  },
  "Primary": "article.html",
  "Publisher": "ccrk",
  "LastModified": "1708959414",
  "TimeCreated": "1708959414",
  "Categories": [
    "Religion",
    "Christianity"
  ],
  "Topics": [],
  "Description": "Beausobre (^-j^r), Isaac de. an eminent writer among the French Protestants; b. at Niort, March 8, 1659; d. at Berlin, June 5, 1738. Forsaking the profession of law for which he had been trained, he studied theology, and became minister at Chatillon-sur-Indre, in Touraine, in 16S5. His loyalty to the Huguenot faith compelled him to seek refuge first",
  "Comment": "",
  "License": "Public Domain in the USA",
  "SourceURL": "https://oldpedia.org/article/ccrk/Beausobre",
  "SourceFileURL": "https://archive.org/details/concisecyclopedi00sanf",
  "LocalFileURL": "https://oldpedia.org/pdf/ccrk/concisecyclopedi00sanf.pdf",
  "ShortTitle": "",
  "BookTitle": "A Concise Cyclopedia of Religious Knowledge",
  "BookTitleLong": "A Concise Cyclopedia of Religious Knowledge: Biblical, Biographical, Geographical, Historical, Practical and Theological",
  "BookEdition": "",
  "BookEditors": [
    "Elias Benjamin Sanford"
  ],
  "BookVolumeNumber": "",
  "BookPublisher": "Funk & Wagnall Company",
  "BookCopyrightDate": "1890",
  "BookPrintingDate": "1895",
  "PublicationDate": "1895",
  "CreatorNames": [
    "Elias Benjamin Sanford"
  ],
  "ContributorNames": [],
  "Rating": []
}