{
  "ZWIversion": 1.4,
  "GeneratorName": "AutoZWI",
  "Title": "Elisha",
  "Lang": "en",
  "Content": {
    "article.html": "ec311d4cf9f7855b78676fb2f8693ee30612a090",
    "article.txt": "d690cf338445a904f8f4a679b33f44fc5746c470"
  },
  "Primary": "article.html",
  "Publisher": "ccrk",
  "LastModified": "1708959419",
  "TimeCreated": "1708959419",
  "Categories": [
    "Religion",
    "Christianity"
  ],
  "Topics": [],
  "Description": "Eli'sha (God is salvation}, the disciple and successor of Elijah. He was a native of Abel-meholah (l Kings xix. 16), where Elijah found him ploughing, and consecrated him as prophet by throwing his mantle over him. Leaving the oxen in the field, he became the faithful follower of his great master. The conditions under which these eminent prophets fu",
  "Comment": "",
  "License": "Public Domain in the USA",
  "SourceURL": "https://oldpedia.org/article/ccrk/Elisha",
  "SourceFileURL": "https://archive.org/details/concisecyclopedi00sanf",
  "LocalFileURL": "https://oldpedia.org/pdf/ccrk/concisecyclopedi00sanf.pdf",
  "ShortTitle": "",
  "BookTitle": "A Concise Cyclopedia of Religious Knowledge",
  "BookTitleLong": "A Concise Cyclopedia of Religious Knowledge: Biblical, Biographical, Geographical, Historical, Practical and Theological",
  "BookEdition": "",
  "BookEditors": [
    "Elias Benjamin Sanford"
  ],
  "BookVolumeNumber": "",
  "BookPublisher": "Funk & Wagnall Company",
  "BookCopyrightDate": "1890",
  "BookPrintingDate": "1895",
  "PublicationDate": "1895",
  "CreatorNames": [
    "Elias Benjamin Sanford"
  ],
  "ContributorNames": [],
  "Rating": []
}