{
  "ZWIversion": 1.4,
  "GeneratorName": "AutoZWI",
  "Title": "Cyril",
  "Lang": "en",
  "Content": {
    "article.html": "af6c6564fd26d310c506d225760ad8598e0960c2",
    "article.txt": "788b3d8133ee0a1ce354c0278ec685056d5e2b95"
  },
  "Primary": "article.html",
  "Publisher": "ccrk",
  "LastModified": "1708959417",
  "TimeCreated": "1708959417",
  "Categories": [
    "Religion",
    "Christianity"
  ],
  "Topics": [],
  "Description": "Cyril, St., “bishop of Jerusalem, an eminent Church father; was born at Jerusalem about 315 A. D., and ordained a deacon in 334, a presbyter in 345, and on the death of Maximus in 351, was elected bishop of his native city. His metropolitan was the Arian bishop, Acacius of Caesarea, with whom he was soon engaged in hot conflict concerning, originall",
  "Comment": "",
  "License": "Public Domain in the USA",
  "SourceURL": "https://oldpedia.org/article/ccrk/Cyril",
  "SourceFileURL": "https://archive.org/details/concisecyclopedi00sanf",
  "LocalFileURL": "https://oldpedia.org/pdf/ccrk/concisecyclopedi00sanf.pdf",
  "ShortTitle": "",
  "BookTitle": "A Concise Cyclopedia of Religious Knowledge",
  "BookTitleLong": "A Concise Cyclopedia of Religious Knowledge: Biblical, Biographical, Geographical, Historical, Practical and Theological",
  "BookEdition": "",
  "BookEditors": [
    "Elias Benjamin Sanford"
  ],
  "BookVolumeNumber": "",
  "BookPublisher": "Funk & Wagnall Company",
  "BookCopyrightDate": "1890",
  "BookPrintingDate": "1895",
  "PublicationDate": "1895",
  "CreatorNames": [
    "Elias Benjamin Sanford"
  ],
  "ContributorNames": [],
  "Rating": []
}