{
  "ZWIversion": 1.4,
  "GeneratorName": "AutoZWI",
  "Title": "Artaxerxe",
  "Lang": "en",
  "Content": {
    "article.html": "3028f34bc6e10c4977ac44d5b69e08229648cfde",
    "article.txt": "80a21664c446c59500d7bacfa3b0551bfb812eaa"
  },
  "Primary": "article.html",
  "Publisher": "ccrk",
  "LastModified": "1708959414",
  "TimeCreated": "1708959414",
  "Categories": [
    "Religion",
    "Christianity"
  ],
  "Topics": [],
  "Description": "Artaxerx'es (the great warrior), a name given as the honorary title of Persian kings. Two of them are mentioned in the Bible. (1) Pseudo-Smerdis, the Magian, and the pretended brother of Cambyses, who seized the throne B. C. 522, and was murdered after a reign of eight months. He it was who stopped the rebuilding of the temple, because of reports br",
  "Comment": "",
  "License": "Public Domain in the USA",
  "SourceURL": "https://oldpedia.org/article/ccrk/Artaxerxe",
  "SourceFileURL": "https://archive.org/details/concisecyclopedi00sanf",
  "LocalFileURL": "https://oldpedia.org/pdf/ccrk/concisecyclopedi00sanf.pdf",
  "ShortTitle": "",
  "BookTitle": "A Concise Cyclopedia of Religious Knowledge",
  "BookTitleLong": "A Concise Cyclopedia of Religious Knowledge: Biblical, Biographical, Geographical, Historical, Practical and Theological",
  "BookEdition": "",
  "BookEditors": [
    "Elias Benjamin Sanford"
  ],
  "BookVolumeNumber": "",
  "BookPublisher": "Funk & Wagnall Company",
  "BookCopyrightDate": "1890",
  "BookPrintingDate": "1895",
  "PublicationDate": "1895",
  "CreatorNames": [
    "Elias Benjamin Sanford"
  ],
  "ContributorNames": [],
  "Rating": []
}