{
  "ZWIversion": 1.4,
  "GeneratorName": "AutoZWI",
  "Title": "Spring, Gardiner",
  "Lang": "en",
  "Content": {
    "article.html": "2e7e0bfdfd4c23263e581bad90232970116e07b6",
    "article.txt": "df60428b26a0401531b8513285c515342e9f576c"
  },
  "Primary": "article.html",
  "Publisher": "ccrk",
  "LastModified": "1708959428",
  "TimeCreated": "1708959428",
  "Categories": [
    "Religion",
    "Christianity"
  ],
  "Topics": [],
  "Description": "Spring, Gardiner, D. D.,LL. D., Presbyterian; b. at Newburyport, Mass., Feb. 24, 1785; d. in New York City, Aug. 18, 1873. He was graduated from Yale College, 1805; taught in Bermuda until 1807; admitted to the bar, 1808; abandoned law and studied for the ministry at Andover Theological Seminary, 1809-10. He was ordained pastor of the Brick (Presbyt",
  "Comment": "",
  "License": "Public Domain in the USA",
  "SourceURL": "https://oldpedia.org/article/ccrk/Spring, Gardiner",
  "SourceFileURL": "https://archive.org/details/concisecyclopedi00sanf",
  "LocalFileURL": "https://oldpedia.org/pdf/ccrk/concisecyclopedi00sanf.pdf",
  "ShortTitle": "",
  "BookTitle": "A Concise Cyclopedia of Religious Knowledge",
  "BookTitleLong": "A Concise Cyclopedia of Religious Knowledge: Biblical, Biographical, Geographical, Historical, Practical and Theological",
  "BookEdition": "",
  "BookEditors": [
    "Elias Benjamin Sanford"
  ],
  "BookVolumeNumber": "",
  "BookPublisher": "Funk & Wagnall Company",
  "BookCopyrightDate": "1890",
  "BookPrintingDate": "1895",
  "PublicationDate": "1895",
  "CreatorNames": [
    "Elias Benjamin Sanford"
  ],
  "ContributorNames": [],
  "Rating": []
}