{
  "ZWIversion": 1.4,
  "GeneratorName": "AutoZWI",
  "Title": "Quarles (fzudrlz), Francis",
  "Lang": "en",
  "Content": {
    "article.html": "f48c224d84b3c5842b9467cc1a83009bbf76d984",
    "article.txt": "c403ec221158a566399decc8576e8fcfc5fd052e"
  },
  "Primary": "article.html",
  "Publisher": "ccrk",
  "LastModified": "1708959427",
  "TimeCreated": "1708959427",
  "Categories": [
    "Religion",
    "Christianity"
  ],
  "Topics": [],
  "Description": "Quarles (fzudrlz), Francis, b. at Stewards, Essex, 1592; d. in London, Sept. 8, 1644. After graduating at Cambridge he studied law at Lincoln’s Inn; was a servant of Queen Elizabeth of Bohemia; secretary to Archbishop Ussher. He espoused the cause of Charles I., and lost all in the fall of that monarch. He is remembered as a sacred poet, in whose ve",
  "Comment": "",
  "License": "Public Domain in the USA",
  "SourceURL": "https://oldpedia.org/article/ccrk/Quarles (fzudrlz), Francis",
  "SourceFileURL": "https://archive.org/details/concisecyclopedi00sanf",
  "LocalFileURL": "https://oldpedia.org/pdf/ccrk/concisecyclopedi00sanf.pdf",
  "ShortTitle": "",
  "BookTitle": "A Concise Cyclopedia of Religious Knowledge",
  "BookTitleLong": "A Concise Cyclopedia of Religious Knowledge: Biblical, Biographical, Geographical, Historical, Practical and Theological",
  "BookEdition": "",
  "BookEditors": [
    "Elias Benjamin Sanford"
  ],
  "BookVolumeNumber": "",
  "BookPublisher": "Funk & Wagnall Company",
  "BookCopyrightDate": "1890",
  "BookPrintingDate": "1895",
  "PublicationDate": "1895",
  "CreatorNames": [
    "Elias Benjamin Sanford"
  ],
  "ContributorNames": [],
  "Rating": []
}