{
  "ZWIversion": 1.4,
  "GeneratorName": "AutoZWI",
  "Title": "George, Duke of Saxony",
  "Lang": "en",
  "Content": {
    "article.html": "4620b69829f1a4b579c23a648dd0ff2954a05262",
    "article.txt": "ee2ccba0dcdcf388554165f9057ac302c3419581"
  },
  "Primary": "article.html",
  "Publisher": "ccrk",
  "LastModified": "1708959420",
  "TimeCreated": "1708959420",
  "Categories": [
    "Religion",
    "Christianity"
  ],
  "Topics": [],
  "Description": "George, Duke of Saxony, b. at Dresden, Aug. 24, 1471; d. there, April 17, 1539. Through education and political influences he opposed the Reformation; but in spite of his efforts his people and his family accepted the evangelical doctrines.",
  "Comment": "",
  "License": "Public Domain in the USA",
  "SourceURL": "https://oldpedia.org/article/ccrk/George, Duke of Saxony",
  "SourceFileURL": "https://archive.org/details/concisecyclopedi00sanf",
  "LocalFileURL": "https://oldpedia.org/pdf/ccrk/concisecyclopedi00sanf.pdf",
  "ShortTitle": "",
  "BookTitle": "A Concise Cyclopedia of Religious Knowledge",
  "BookTitleLong": "A Concise Cyclopedia of Religious Knowledge: Biblical, Biographical, Geographical, Historical, Practical and Theological",
  "BookEdition": "",
  "BookEditors": [
    "Elias Benjamin Sanford"
  ],
  "BookVolumeNumber": "",
  "BookPublisher": "Funk & Wagnall Company",
  "BookCopyrightDate": "1890",
  "BookPrintingDate": "1895",
  "PublicationDate": "1895",
  "CreatorNames": [
    "Elias Benjamin Sanford"
  ],
  "ContributorNames": [],
  "Rating": []
}