{
  "ZWIversion": 1.4,
  "GeneratorName": "AutoZWI",
  "Title": "Upham, Thomas Cogswell",
  "Lang": "en",
  "Content": {
    "article.html": "bdfdf345e7db3aa2efda83f61f21c30dbfb90da5",
    "article.txt": "774923b083ebc057388b437ac1a6a22432be4282"
  },
  "Primary": "article.html",
  "Publisher": "ccrk",
  "LastModified": "1708959430",
  "TimeCreated": "1708959430",
  "Categories": [
    "Religion",
    "Christianity"
  ],
  "Topics": [],
  "Description": "Upham, Thomas Cogswell, D. D., Congregationalist; b. at Deerfield, N. H., Jan. 30, 1799; d. in New York City, April 2, 1872. He was graduated at Dartmouth College, 1818, and at Andover Seminary, 1821. From 1825 to 1867 he was professor of mental and moral philosophy in Bow-doin College. He was a prolific writer. Among his works are: ",
  "Comment": "",
  "License": "Public Domain in the USA",
  "SourceURL": "https://oldpedia.org/article/ccrk/Upham, Thomas Cogswell",
  "SourceFileURL": "https://archive.org/details/concisecyclopedi00sanf",
  "LocalFileURL": "https://oldpedia.org/pdf/ccrk/concisecyclopedi00sanf.pdf",
  "ShortTitle": "",
  "BookTitle": "A Concise Cyclopedia of Religious Knowledge",
  "BookTitleLong": "A Concise Cyclopedia of Religious Knowledge: Biblical, Biographical, Geographical, Historical, Practical and Theological",
  "BookEdition": "",
  "BookEditors": [
    "Elias Benjamin Sanford"
  ],
  "BookVolumeNumber": "",
  "BookPublisher": "Funk & Wagnall Company",
  "BookCopyrightDate": "1890",
  "BookPrintingDate": "1895",
  "PublicationDate": "1895",
  "CreatorNames": [
    "Elias Benjamin Sanford"
  ],
  "ContributorNames": [],
  "Rating": []
}