{
  "ZWIversion": 1.4,
  "GeneratorName": "AutoZWI",
  "Title": "Congregationalists",
  "Lang": "en",
  "Content": {
    "article.html": "77c6171ceee74e46c5a69a9d47087c4f0a05c42f",
    "article.txt": "f2fb7ee3e197f6d4826f294d9b01a8c926bb2c9e"
  },
  "Primary": "article.html",
  "Publisher": "ccrk",
  "LastModified": "1708959417",
  "TimeCreated": "1708959417",
  "Categories": [
    "Religion",
    "Christianity"
  ],
  "Topics": [],
  "Description": "Congregationalists. It is in the book of the Acts of the Apostles, and the Epistles that follow, that Congregationalists find the warrant for their system of church government and fellowship. In its historical development they trace the beginnings of a distinct denominational existence from the days that gave birth to English Puritanism. ",
  "Comment": "",
  "License": "Public Domain in the USA",
  "SourceURL": "https://oldpedia.org/article/ccrk/Congregationalists",
  "SourceFileURL": "https://archive.org/details/concisecyclopedi00sanf",
  "LocalFileURL": "https://oldpedia.org/pdf/ccrk/concisecyclopedi00sanf.pdf",
  "ShortTitle": "",
  "BookTitle": "A Concise Cyclopedia of Religious Knowledge",
  "BookTitleLong": "A Concise Cyclopedia of Religious Knowledge: Biblical, Biographical, Geographical, Historical, Practical and Theological",
  "BookEdition": "",
  "BookEditors": [
    "Elias Benjamin Sanford"
  ],
  "BookVolumeNumber": "",
  "BookPublisher": "Funk & Wagnall Company",
  "BookCopyrightDate": "1890",
  "BookPrintingDate": "1895",
  "PublicationDate": "1895",
  "CreatorNames": [
    "Elias Benjamin Sanford"
  ],
  "ContributorNames": [],
  "Rating": []
}