{
  "ZWIversion": 1.4,
  "GeneratorName": "AutoZWI",
  "Title": "Sacy, Louis Isaac Lemaistre de",
  "Lang": "en",
  "Content": {
    "article.html": "fd052ad1591964d0f1be78b56e7329e420ee6d9c",
    "article.txt": "2fa3cd9ec2cb0452f905edd2c1a770262817d79c"
  },
  "Primary": "article.html",
  "Publisher": "ccrk",
  "LastModified": "1708959427",
  "TimeCreated": "1708959427",
  "Categories": [
    "Religion",
    "Christianity"
  ],
  "Topics": [],
  "Description": "Sacy, Louis Isaac Lemaistre de, spiritual director of the recluses of Port Royal; b. in Paris, March 29, 1613; d. Jan. 4, 1684. Educated at Beauvais, in 1650, two years after his ordination he became confessor at Port Royal. During the persecution of the Jansenists he sought safety in the suburb of St. Antoine, but was discovered and imprisoned in t",
  "Comment": "",
  "License": "Public Domain in the USA",
  "SourceURL": "https://oldpedia.org/article/ccrk/Sacy, Louis Isaac Lemaistre de",
  "SourceFileURL": "https://archive.org/details/concisecyclopedi00sanf",
  "LocalFileURL": "https://oldpedia.org/pdf/ccrk/concisecyclopedi00sanf.pdf",
  "ShortTitle": "",
  "BookTitle": "A Concise Cyclopedia of Religious Knowledge",
  "BookTitleLong": "A Concise Cyclopedia of Religious Knowledge: Biblical, Biographical, Geographical, Historical, Practical and Theological",
  "BookEdition": "",
  "BookEditors": [
    "Elias Benjamin Sanford"
  ],
  "BookVolumeNumber": "",
  "BookPublisher": "Funk & Wagnall Company",
  "BookCopyrightDate": "1890",
  "BookPrintingDate": "1895",
  "PublicationDate": "1895",
  "CreatorNames": [
    "Elias Benjamin Sanford"
  ],
  "ContributorNames": [],
  "Rating": []
}