{
  "ZWIversion": 1.4,
  "GeneratorName": "AutoZWI",
  "Title": "Bloody Sweat",
  "Lang": "en",
  "Content": {
    "article.html": "99bc05bf74f1f60980a4cc1c87be4417cd767feb",
    "article.txt": "b8b6a5d807b250bf71fe5f1e5d72ed9cf1b14939"
  },
  "Primary": "article.html",
  "Publisher": "ccrk",
  "LastModified": "1708959415",
  "TimeCreated": "1708959415",
  "Categories": [
    "Religion",
    "Christianity"
  ],
  "Topics": [],
  "Description": "Bloody Sweat. Luke says that during Christ’s agony in the garden “his sweat was as it were great drops of blood falling down to the ground” (xxii. 44). This phenomenon is not unknown in other cases. Charles IX. of France died of bloody sweat. See Stroud: The Physical Cause of the Death of Christ (London, 1S47), pp. ",
  "Comment": "",
  "License": "Public Domain in the USA",
  "SourceURL": "https://oldpedia.org/article/ccrk/Bloody Sweat",
  "SourceFileURL": "https://archive.org/details/concisecyclopedi00sanf",
  "LocalFileURL": "https://oldpedia.org/pdf/ccrk/concisecyclopedi00sanf.pdf",
  "ShortTitle": "",
  "BookTitle": "A Concise Cyclopedia of Religious Knowledge",
  "BookTitleLong": "A Concise Cyclopedia of Religious Knowledge: Biblical, Biographical, Geographical, Historical, Practical and Theological",
  "BookEdition": "",
  "BookEditors": [
    "Elias Benjamin Sanford"
  ],
  "BookVolumeNumber": "",
  "BookPublisher": "Funk & Wagnall Company",
  "BookCopyrightDate": "1890",
  "BookPrintingDate": "1895",
  "PublicationDate": "1895",
  "CreatorNames": [
    "Elias Benjamin Sanford"
  ],
  "ContributorNames": [],
  "Rating": []
}