{
  "ZWIversion": 1.4,
  "GeneratorName": "AutoZWI",
  "Title": "Pole, Reginald, archbishop of Canterbury",
  "Lang": "en",
  "Content": {
    "article.html": "f7adc47fa1420c129b127fe00b51534988a00362",
    "article.txt": "2db29123ae792bb7ad2adef474a1f35c046f50bf"
  },
  "Primary": "article.html",
  "Publisher": "ccrk",
  "LastModified": "1708959426",
  "TimeCreated": "1708959426",
  "Categories": [
    "Religion",
    "Christianity"
  ],
  "Topics": [],
  "Description": "Pole, Reginald, archbishop of Canterbury; b. probably in Lordington, Sussex, March, 1500; d. at Lambeth, Nov. 18, 1558. His mother was a niece of Edward IV., and he was educated at Oxford, and at the universities of Paris and Padua, at the expense of Henry VIII., who bestowed upon him several important ecclesiastical preferments. ",
  "Comment": "",
  "License": "Public Domain in the USA",
  "SourceURL": "https://oldpedia.org/article/ccrk/Pole, Reginald, archbishop of Canterbury",
  "SourceFileURL": "https://archive.org/details/concisecyclopedi00sanf",
  "LocalFileURL": "https://oldpedia.org/pdf/ccrk/concisecyclopedi00sanf.pdf",
  "ShortTitle": "",
  "BookTitle": "A Concise Cyclopedia of Religious Knowledge",
  "BookTitleLong": "A Concise Cyclopedia of Religious Knowledge: Biblical, Biographical, Geographical, Historical, Practical and Theological",
  "BookEdition": "",
  "BookEditors": [
    "Elias Benjamin Sanford"
  ],
  "BookVolumeNumber": "",
  "BookPublisher": "Funk & Wagnall Company",
  "BookCopyrightDate": "1890",
  "BookPrintingDate": "1895",
  "PublicationDate": "1895",
  "CreatorNames": [
    "Elias Benjamin Sanford"
  ],
  "ContributorNames": [],
  "Rating": []
}