{
  "ZWIversion": 1.4,
  "GeneratorName": "AutoZWI",
  "Title": "Magog. See Gog and Magog",
  "Lang": "en",
  "Content": {
    "article.html": "0175af4ad89ac93c2cdc1b7218843504b9879df1",
    "article.txt": "9726d962c7d7cb27ccb6ca1338614a11283dec5d"
  },
  "Primary": "article.html",
  "Publisher": "ccrk",
  "LastModified": "1708959423",
  "TimeCreated": "1708959423",
  "Categories": [
    "Religion",
    "Christianity"
  ],
  "Topics": [],
  "Description": "Ma'gog. See Gog and Magog.",
  "Comment": "",
  "License": "Public Domain in the USA",
  "SourceURL": "https://oldpedia.org/article/ccrk/Magog. See Gog and Magog",
  "SourceFileURL": "https://archive.org/details/concisecyclopedi00sanf",
  "LocalFileURL": "https://oldpedia.org/pdf/ccrk/concisecyclopedi00sanf.pdf",
  "ShortTitle": "",
  "BookTitle": "A Concise Cyclopedia of Religious Knowledge",
  "BookTitleLong": "A Concise Cyclopedia of Religious Knowledge: Biblical, Biographical, Geographical, Historical, Practical and Theological",
  "BookEdition": "",
  "BookEditors": [
    "Elias Benjamin Sanford"
  ],
  "BookVolumeNumber": "",
  "BookPublisher": "Funk & Wagnall Company",
  "BookCopyrightDate": "1890",
  "BookPrintingDate": "1895",
  "PublicationDate": "1895",
  "CreatorNames": [
    "Elias Benjamin Sanford"
  ],
  "ContributorNames": [],
  "Rating": []
}