{
  "ZWIversion": 1.4,
  "GeneratorName": "AutoZWI",
  "Title": "Peter",
  "Lang": "en",
  "Content": {
    "article.html": "01d82ae94317f9e77087e2903eb390845337e417",
    "article.txt": "92dd06eb9defd798d3ff74326e18ba92a99c59d0"
  },
  "Primary": "article.html",
  "Publisher": "ccrk",
  "LastModified": "1708959426",
  "TimeCreated": "1708959426",
  "Categories": [
    "Religion",
    "Christianity"
  ],
  "Topics": [],
  "Description": "Peter. “I. His Life. —‘ Peter’ is the Greek equivalent of the Syriac appellative ‘ Cephas,’ meaning a stone or a rock, with which Christ saluted Simon when he first met him. He made good his right to this title by that confession of his which is the rock on which Christianity is grounded and rooted (Matt. xvi. ",
  "Comment": "",
  "License": "Public Domain in the USA",
  "SourceURL": "https://oldpedia.org/article/ccrk/Peter",
  "SourceFileURL": "https://archive.org/details/concisecyclopedi00sanf",
  "LocalFileURL": "https://oldpedia.org/pdf/ccrk/concisecyclopedi00sanf.pdf",
  "ShortTitle": "",
  "BookTitle": "A Concise Cyclopedia of Religious Knowledge",
  "BookTitleLong": "A Concise Cyclopedia of Religious Knowledge: Biblical, Biographical, Geographical, Historical, Practical and Theological",
  "BookEdition": "",
  "BookEditors": [
    "Elias Benjamin Sanford"
  ],
  "BookVolumeNumber": "",
  "BookPublisher": "Funk & Wagnall Company",
  "BookCopyrightDate": "1890",
  "BookPrintingDate": "1895",
  "PublicationDate": "1895",
  "CreatorNames": [
    "Elias Benjamin Sanford"
  ],
  "ContributorNames": [],
  "Rating": []
}