{
  "ZWIversion": 1.4,
  "GeneratorName": "AutoZWI",
  "Title": "Ranke, Leopold von, a famous historian",
  "Lang": "en",
  "Content": {
    "article.html": "a6c27ddc4e5f7b397138c58adea11119bf175468",
    "article.txt": "bbccec946f45912de65583e7d1d38a7c02849479"
  },
  "Primary": "article.html",
  "Publisher": "ccrk",
  "LastModified": "1708959427",
  "TimeCreated": "1708959427",
  "Categories": [
    "Religion",
    "Christianity"
  ],
  "Topics": [],
  "Description": "Ranke, Leopold von, a famous historian; b. at Wiche, Thuringia, Dec. 21, 1795; d. in Berlin, May 23, 1886. He studied at Leipzig; became head teacher in the Frankfort (on the Oder) gymnasium in 1818; and after 1825 was professor of history at the University of Berlin. In 1827, under the direction of the Prussian Government, he conducted historical r",
  "Comment": "",
  "License": "Public Domain in the USA",
  "SourceURL": "https://oldpedia.org/article/ccrk/Ranke, Leopold von, a famous historian",
  "SourceFileURL": "https://archive.org/details/concisecyclopedi00sanf",
  "LocalFileURL": "https://oldpedia.org/pdf/ccrk/concisecyclopedi00sanf.pdf",
  "ShortTitle": "",
  "BookTitle": "A Concise Cyclopedia of Religious Knowledge",
  "BookTitleLong": "A Concise Cyclopedia of Religious Knowledge: Biblical, Biographical, Geographical, Historical, Practical and Theological",
  "BookEdition": "",
  "BookEditors": [
    "Elias Benjamin Sanford"
  ],
  "BookVolumeNumber": "",
  "BookPublisher": "Funk & Wagnall Company",
  "BookCopyrightDate": "1890",
  "BookPrintingDate": "1895",
  "PublicationDate": "1895",
  "CreatorNames": [
    "Elias Benjamin Sanford"
  ],
  "ContributorNames": [],
  "Rating": []
}