{
  "ZWIversion": 1.4,
  "GeneratorName": "AutoZWI",
  "Title": "Ettwein, John",
  "Lang": "en",
  "Content": {
    "article.html": "e804a2eaf7398a5eca05e55ffa0c9119e227aa91",
    "article.txt": "d52be30dc1cc709de4d04df9ce49dc350197c33c"
  },
  "Primary": "article.html",
  "Publisher": "ccrk",
  "LastModified": "1708959419",
  "TimeCreated": "1708959419",
  "Categories": [
    "Religion",
    "Christianity"
  ],
  "Topics": [],
  "Description": "Ettwein, John, an eminent bishop of the Moravian Church; b. at Freudenstadt, in Wiirtemburg, June 29, 1721; d. at Bethlehem, Pa., Jan. 2, 1802. He became a Moravian in 1739, and was ordained in 1746. In 1754 he came to America as a traveling evangelist and missionary to the Indians, among whomhe labored withgreat zeal, and prepared a dictionary and",
  "Comment": "",
  "License": "Public Domain in the USA",
  "SourceURL": "https://oldpedia.org/article/ccrk/Ettwein, John",
  "SourceFileURL": "https://archive.org/details/concisecyclopedi00sanf",
  "LocalFileURL": "https://oldpedia.org/pdf/ccrk/concisecyclopedi00sanf.pdf",
  "ShortTitle": "",
  "BookTitle": "A Concise Cyclopedia of Religious Knowledge",
  "BookTitleLong": "A Concise Cyclopedia of Religious Knowledge: Biblical, Biographical, Geographical, Historical, Practical and Theological",
  "BookEdition": "",
  "BookEditors": [
    "Elias Benjamin Sanford"
  ],
  "BookVolumeNumber": "",
  "BookPublisher": "Funk & Wagnall Company",
  "BookCopyrightDate": "1890",
  "BookPrintingDate": "1895",
  "PublicationDate": "1895",
  "CreatorNames": [
    "Elias Benjamin Sanford"
  ],
  "ContributorNames": [],
  "Rating": []
}