{
  "ZWIversion": 1.4,
  "GeneratorName": "AutoZWI",
  "Title": "Hospitality",
  "Lang": "en",
  "Content": {
    "article.html": "e50571553778cf5913945375e6447c704d796404",
    "article.txt": "0d0b0724ef82af118a80a83aec5713472bb71148"
  },
  "Primary": "article.html",
  "Publisher": "ccrk",
  "LastModified": "1708959421",
  "TimeCreated": "1708959421",
  "Categories": [
    "Religion",
    "Christianity"
  ],
  "Topics": [],
  "Description": "Hospitality, “kindness exercised in the entertainment of strangers. This virtue, we find, is explicitly commanded by, and makes a part of the morality of, the New Testament. Thus we are expressly exhorted by an apostle, ‘ Be not forgetful to entertain strangers; for thereby some have entertained angels unawares,’ referring, no doubt, to Abraham and",
  "Comment": "",
  "License": "Public Domain in the USA",
  "SourceURL": "https://oldpedia.org/article/ccrk/Hospitality",
  "SourceFileURL": "https://archive.org/details/concisecyclopedi00sanf",
  "LocalFileURL": "https://oldpedia.org/pdf/ccrk/concisecyclopedi00sanf.pdf",
  "ShortTitle": "",
  "BookTitle": "A Concise Cyclopedia of Religious Knowledge",
  "BookTitleLong": "A Concise Cyclopedia of Religious Knowledge: Biblical, Biographical, Geographical, Historical, Practical and Theological",
  "BookEdition": "",
  "BookEditors": [
    "Elias Benjamin Sanford"
  ],
  "BookVolumeNumber": "",
  "BookPublisher": "Funk & Wagnall Company",
  "BookCopyrightDate": "1890",
  "BookPrintingDate": "1895",
  "PublicationDate": "1895",
  "CreatorNames": [
    "Elias Benjamin Sanford"
  ],
  "ContributorNames": [],
  "Rating": []
}