{
  "ZWIversion": 1.4,
  "GeneratorName": "AutoZWI",
  "Title": "Praemunire",
  "Lang": "en",
  "Content": {
    "article.html": "0e89c65aa7dfdc4229529ffb5a3be5389b2abb73",
    "article.txt": "0ce409a3f76ab0fd702d5feada5cb85d4d81cc04"
  },
  "Primary": "article.html",
  "Publisher": "ccrk",
  "LastModified": "1708959426",
  "TimeCreated": "1708959426",
  "Categories": [
    "Religion",
    "Christianity"
  ],
  "Topics": [],
  "Description": "Praemunire {to defend in front of), a term used in a writ passed in the reign of Edward III. Its object was to lessen the authority of the pope, and it ordained that no one should appeal to the pope against the authority of the sovereign, or on matters belonging to his jurisdiction. Later sovereigns have given the name to other statutes relating to",
  "Comment": "",
  "License": "Public Domain in the USA",
  "SourceURL": "https://oldpedia.org/article/ccrk/Praemunire",
  "SourceFileURL": "https://archive.org/details/concisecyclopedi00sanf",
  "LocalFileURL": "https://oldpedia.org/pdf/ccrk/concisecyclopedi00sanf.pdf",
  "ShortTitle": "",
  "BookTitle": "A Concise Cyclopedia of Religious Knowledge",
  "BookTitleLong": "A Concise Cyclopedia of Religious Knowledge: Biblical, Biographical, Geographical, Historical, Practical and Theological",
  "BookEdition": "",
  "BookEditors": [
    "Elias Benjamin Sanford"
  ],
  "BookVolumeNumber": "",
  "BookPublisher": "Funk & Wagnall Company",
  "BookCopyrightDate": "1890",
  "BookPrintingDate": "1895",
  "PublicationDate": "1895",
  "CreatorNames": [
    "Elias Benjamin Sanford"
  ],
  "ContributorNames": [],
  "Rating": []
}