{
  "ZWIversion": 1.4,
  "GeneratorName": "AutoZWI",
  "Title": "Amorite, the Amorite",
  "Lang": "en",
  "Content": {
    "article.html": "a6fc1bda65a7e59bea10312c74eee022f5df43f4",
    "article.txt": "423efa10d960bcdac199c822a4da2ef2dfe875f1"
  },
  "Primary": "article.html",
  "Publisher": "ccrk",
  "LastModified": "1708959413",
  "TimeCreated": "1708959413",
  "Categories": [
    "Religion",
    "Christianity"
  ],
  "Topics": [],
  "Description": "Am'orite, the Am'orites (i. e.,the dwellers oh the szimmits; or wountaineers), one of the chief nations who possessed the land of Canaan before its conquest by the Israelites. In the genealogical table of Gen. x. “the Amorite” is given as the fourth son of Canaan, with “Zidon, Heth (Hittite), the Jebusite,” etc. ",
  "Comment": "",
  "License": "Public Domain in the USA",
  "SourceURL": "https://oldpedia.org/article/ccrk/Amorite, the Amorite",
  "SourceFileURL": "https://archive.org/details/concisecyclopedi00sanf",
  "LocalFileURL": "https://oldpedia.org/pdf/ccrk/concisecyclopedi00sanf.pdf",
  "ShortTitle": "",
  "BookTitle": "A Concise Cyclopedia of Religious Knowledge",
  "BookTitleLong": "A Concise Cyclopedia of Religious Knowledge: Biblical, Biographical, Geographical, Historical, Practical and Theological",
  "BookEdition": "",
  "BookEditors": [
    "Elias Benjamin Sanford"
  ],
  "BookVolumeNumber": "",
  "BookPublisher": "Funk & Wagnall Company",
  "BookCopyrightDate": "1890",
  "BookPrintingDate": "1895",
  "PublicationDate": "1895",
  "CreatorNames": [
    "Elias Benjamin Sanford"
  ],
  "ContributorNames": [],
  "Rating": []
}