{
  "ZWIversion": 1.4,
  "GeneratorName": "AutoZWI",
  "Title": "Cutty-siool",
  "Lang": "en",
  "Content": {
    "article.html": "2b6cb2152a8f2091e8211cb140ff8b2fbf8964e6",
    "article.txt": "e7f979ce04ed4cae4be92f0d2fdc2f4f0434c3a2"
  },
  "Primary": "article.html",
  "Publisher": "ccrk",
  "LastModified": "1708959417",
  "TimeCreated": "1708959417",
  "Categories": [
    "Religion",
    "Christianity"
  ],
  "Topics": [],
  "Description": "Cutty-siool, the stool or seat of repentance in the old Scotch kirks, placed in a conspicuous position, and painted black, on which offenders against chastity sat during three Sabbath services, professing repentance, and receiving the minister’s rebukes.",
  "Comment": "",
  "License": "Public Domain in the USA",
  "SourceURL": "https://oldpedia.org/article/ccrk/Cutty-siool",
  "SourceFileURL": "https://archive.org/details/concisecyclopedi00sanf",
  "LocalFileURL": "https://oldpedia.org/pdf/ccrk/concisecyclopedi00sanf.pdf",
  "ShortTitle": "",
  "BookTitle": "A Concise Cyclopedia of Religious Knowledge",
  "BookTitleLong": "A Concise Cyclopedia of Religious Knowledge: Biblical, Biographical, Geographical, Historical, Practical and Theological",
  "BookEdition": "",
  "BookEditors": [
    "Elias Benjamin Sanford"
  ],
  "BookVolumeNumber": "",
  "BookPublisher": "Funk & Wagnall Company",
  "BookCopyrightDate": "1890",
  "BookPrintingDate": "1895",
  "PublicationDate": "1895",
  "CreatorNames": [
    "Elias Benjamin Sanford"
  ],
  "ContributorNames": [],
  "Rating": []
}