{
  "ZWIversion": 1.4,
  "GeneratorName": "AutoZWI",
  "Title": "Feast of Fools",
  "Lang": "en",
  "Content": {
    "article.html": "7786b5ccb5070130f9abcafc55440245dac97d26",
    "article.txt": "a9bc7c848d04e070e1ad7e96642ff9d868b661e7"
  },
  "Primary": "article.html",
  "Publisher": "ccrk",
  "LastModified": "1708959419",
  "TimeCreated": "1708959419",
  "Categories": [
    "Religion",
    "Christianity"
  ],
  "Topics": [],
  "Description": "Feast of Fools, a festival celebrated in many countries during the Middle Ages. The young people played the chief parts, choosing one of their number to act the part of bishop or archbishop of fools, as he was called. They were permitted to make a mock of the most sacred services, and often engaged in indecent songs and dances.",
  "Comment": "",
  "License": "Public Domain in the USA",
  "SourceURL": "https://oldpedia.org/article/ccrk/Feast of Fools",
  "SourceFileURL": "https://archive.org/details/concisecyclopedi00sanf",
  "LocalFileURL": "https://oldpedia.org/pdf/ccrk/concisecyclopedi00sanf.pdf",
  "ShortTitle": "",
  "BookTitle": "A Concise Cyclopedia of Religious Knowledge",
  "BookTitleLong": "A Concise Cyclopedia of Religious Knowledge: Biblical, Biographical, Geographical, Historical, Practical and Theological",
  "BookEdition": "",
  "BookEditors": [
    "Elias Benjamin Sanford"
  ],
  "BookVolumeNumber": "",
  "BookPublisher": "Funk & Wagnall Company",
  "BookCopyrightDate": "1890",
  "BookPrintingDate": "1895",
  "PublicationDate": "1895",
  "CreatorNames": [
    "Elias Benjamin Sanford"
  ],
  "ContributorNames": [],
  "Rating": []
}