{
  "ZWIversion": 1.4,
  "GeneratorName": "AutoZWI",
  "Title": "Tindal, Matthew",
  "Lang": "en",
  "Content": {
    "article.html": "6a78ec7106d53972dfaefdfc1da3a3f76937cb9d",
    "article.txt": "413146f592e2bb31b000dafaf389544a818a56ea"
  },
  "Primary": "article.html",
  "Publisher": "ccrk",
  "LastModified": "1708959429",
  "TimeCreated": "1708959429",
  "Categories": [
    "Religion",
    "Christianity"
  ],
  "Topics": [],
  "Description": "Tindal, Matthew, a distinguished deist-ical writer; b. in Devonshire, about 1657; d. in London, Aug. 16, 1733. A graduate of Oxford, he joined the Roman Catholic Church, but soon returned to the Church of England. His principal work was: Christianity as Old as the Creation; or, The Gospel a Re-pnblication of the Law of Nature (1730). ",
  "Comment": "",
  "License": "Public Domain in the USA",
  "SourceURL": "https://oldpedia.org/article/ccrk/Tindal, Matthew",
  "SourceFileURL": "https://archive.org/details/concisecyclopedi00sanf",
  "LocalFileURL": "https://oldpedia.org/pdf/ccrk/concisecyclopedi00sanf.pdf",
  "ShortTitle": "",
  "BookTitle": "A Concise Cyclopedia of Religious Knowledge",
  "BookTitleLong": "A Concise Cyclopedia of Religious Knowledge: Biblical, Biographical, Geographical, Historical, Practical and Theological",
  "BookEdition": "",
  "BookEditors": [
    "Elias Benjamin Sanford"
  ],
  "BookVolumeNumber": "",
  "BookPublisher": "Funk & Wagnall Company",
  "BookCopyrightDate": "1890",
  "BookPrintingDate": "1895",
  "PublicationDate": "1895",
  "CreatorNames": [
    "Elias Benjamin Sanford"
  ],
  "ContributorNames": [],
  "Rating": []
}