{
  "ZWIversion": 1.4,
  "GeneratorName": "AutoZWI",
  "Title": "Chant (Lat. cant",
  "Lang": "en",
  "Content": {
    "article.html": "ac0a79846d9bd4c7573ed9aec205f57e1cdc11e0",
    "article.txt": "4498b02b92b15edbc823a385411d82b4913f4835"
  },
  "Primary": "article.html",
  "Publisher": "ccrk",
  "LastModified": "1708959416",
  "TimeCreated": "1708959416",
  "Categories": [
    "Religion",
    "Christianity"
  ],
  "Topics": [],
  "Description": "Chant (Lat. cantus, song), words recited to musical tones without musical measure. It is chiefly used for prose compositions, though sometimes employed for hymns. It is the oldest form of church music. The one or more priests to say daily mass for the souls of the founder and his relatives, or other benefactors. ",
  "Comment": "",
  "License": "Public Domain in the USA",
  "SourceURL": "https://oldpedia.org/article/ccrk/Chant (Lat. cant",
  "SourceFileURL": "https://archive.org/details/concisecyclopedi00sanf",
  "LocalFileURL": "https://oldpedia.org/pdf/ccrk/concisecyclopedi00sanf.pdf",
  "ShortTitle": "",
  "BookTitle": "A Concise Cyclopedia of Religious Knowledge",
  "BookTitleLong": "A Concise Cyclopedia of Religious Knowledge: Biblical, Biographical, Geographical, Historical, Practical and Theological",
  "BookEdition": "",
  "BookEditors": [
    "Elias Benjamin Sanford"
  ],
  "BookVolumeNumber": "",
  "BookPublisher": "Funk & Wagnall Company",
  "BookCopyrightDate": "1890",
  "BookPrintingDate": "1895",
  "PublicationDate": "1895",
  "CreatorNames": [
    "Elias Benjamin Sanford"
  ],
  "ContributorNames": [],
  "Rating": []
}