{
  "ZWIversion": 1.4,
  "GeneratorName": "AutoZWI",
  "Title": "Ubiquitarians",
  "Lang": "en",
  "Content": {
    "article.html": "a4f4e7b25ffed2ae3359bad87cf82169123e65af",
    "article.txt": "0c262c691f6f0f3e1f060ed7cd1c542eaf1c16ad"
  },
  "Primary": "article.html",
  "Publisher": "ccrk",
  "LastModified": "1708959429",
  "TimeCreated": "1708959429",
  "Categories": [
    "Religion",
    "Christianity"
  ],
  "Topics": [],
  "Description": "Ubiquitarians (from Lat. ubique, everywhere), a sect of Lutherans which rose and spread itself in Germany, and whose distinguishing doctrine was that the body of Jesus Christ is everywhere, or in every place. Brentz, one of the early Reformers, is said to have broached this error in 1560; Andreas and Flacius helped to spread it. ",
  "Comment": "",
  "License": "Public Domain in the USA",
  "SourceURL": "https://oldpedia.org/article/ccrk/Ubiquitarians",
  "SourceFileURL": "https://archive.org/details/concisecyclopedi00sanf",
  "LocalFileURL": "https://oldpedia.org/pdf/ccrk/concisecyclopedi00sanf.pdf",
  "ShortTitle": "",
  "BookTitle": "A Concise Cyclopedia of Religious Knowledge",
  "BookTitleLong": "A Concise Cyclopedia of Religious Knowledge: Biblical, Biographical, Geographical, Historical, Practical and Theological",
  "BookEdition": "",
  "BookEditors": [
    "Elias Benjamin Sanford"
  ],
  "BookVolumeNumber": "",
  "BookPublisher": "Funk & Wagnall Company",
  "BookCopyrightDate": "1890",
  "BookPrintingDate": "1895",
  "PublicationDate": "1895",
  "CreatorNames": [
    "Elias Benjamin Sanford"
  ],
  "ContributorNames": [],
  "Rating": []
}