{
  "ZWIversion": 1.4,
  "GeneratorName": "AutoZWI",
  "Title": "Banns",
  "Lang": "en",
  "Content": {
    "article.html": "4238c3d4bb8e3cb763e79b916c7bb8185305d54f",
    "article.txt": "d211cbdbd0c479da9483f8714c49907ccd38e174"
  },
  "Primary": "article.html",
  "Publisher": "ccrk",
  "LastModified": "1708959414",
  "TimeCreated": "1708959414",
  "Categories": [
    "Religion",
    "Christianity"
  ],
  "Topics": [],
  "Description": "Banns, the public notice in church of a marriage to be contracted. This custom is traced back, in England and France, to the twelfth and thirteenth centuries. It seems to have been of very early origin, as it is frequently mentioned by Tertul-lian. Banns are not published in the United States, except in Roman Catholic churches.",
  "Comment": "",
  "License": "Public Domain in the USA",
  "SourceURL": "https://oldpedia.org/article/ccrk/Banns",
  "SourceFileURL": "https://archive.org/details/concisecyclopedi00sanf",
  "LocalFileURL": "https://oldpedia.org/pdf/ccrk/concisecyclopedi00sanf.pdf",
  "ShortTitle": "",
  "BookTitle": "A Concise Cyclopedia of Religious Knowledge",
  "BookTitleLong": "A Concise Cyclopedia of Religious Knowledge: Biblical, Biographical, Geographical, Historical, Practical and Theological",
  "BookEdition": "",
  "BookEditors": [
    "Elias Benjamin Sanford"
  ],
  "BookVolumeNumber": "",
  "BookPublisher": "Funk & Wagnall Company",
  "BookCopyrightDate": "1890",
  "BookPrintingDate": "1895",
  "PublicationDate": "1895",
  "CreatorNames": [
    "Elias Benjamin Sanford"
  ],
  "ContributorNames": [],
  "Rating": []
}