{
  "ZWIversion": 1.4,
  "GeneratorName": "AutoZWI",
  "Title": "Hall, Gordon",
  "Lang": "en",
  "Content": {
    "article.html": "514170a5db89d4dccd6806b66a586eb19d9c5c34",
    "article.txt": "5a1d3ecee75a89e1f92e51285bac7bc835d2ef8a"
  },
  "Primary": "article.html",
  "Publisher": "ccrk",
  "LastModified": "1708959420",
  "TimeCreated": "1708959420",
  "Categories": [
    "Religion",
    "Christianity"
  ],
  "Topics": [],
  "Description": "Hall, Gordon, the first American missionary to Bombay; b. at Tolland, Mass., April 8, 1784; d. of cholera, Bombay, March 20, 1826. After graduating from Williams College in 1808 he studied theology, and was ordained as a missionary in 1813. For thirteen years he labored with great diligence and success in Bombay. ",
  "Comment": "",
  "License": "Public Domain in the USA",
  "SourceURL": "https://oldpedia.org/article/ccrk/Hall, Gordon",
  "SourceFileURL": "https://archive.org/details/concisecyclopedi00sanf",
  "LocalFileURL": "https://oldpedia.org/pdf/ccrk/concisecyclopedi00sanf.pdf",
  "ShortTitle": "",
  "BookTitle": "A Concise Cyclopedia of Religious Knowledge",
  "BookTitleLong": "A Concise Cyclopedia of Religious Knowledge: Biblical, Biographical, Geographical, Historical, Practical and Theological",
  "BookEdition": "",
  "BookEditors": [
    "Elias Benjamin Sanford"
  ],
  "BookVolumeNumber": "",
  "BookPublisher": "Funk & Wagnall Company",
  "BookCopyrightDate": "1890",
  "BookPrintingDate": "1895",
  "PublicationDate": "1895",
  "CreatorNames": [
    "Elias Benjamin Sanford"
  ],
  "ContributorNames": [],
  "Rating": []
}