{
  "ZWIversion": 1.4,
  "GeneratorName": "AutoZWI",
  "Title": "Beads",
  "Lang": "en",
  "Content": {
    "article.html": "1545f94c212b8761290a429803ea8cd8d4d420e2",
    "article.txt": "0a2ae0e69dfaf64f48fb50bd81bd91b1e9fa5e4d"
  },
  "Primary": "article.html",
  "Publisher": "ccrk",
  "LastModified": "1708959414",
  "TimeCreated": "1708959414",
  "Categories": [
    "Religion",
    "Christianity"
  ],
  "Topics": [],
  "Description": "Beads. See Rosary.",
  "Comment": "",
  "License": "Public Domain in the USA",
  "SourceURL": "https://oldpedia.org/article/ccrk/Beads",
  "SourceFileURL": "https://archive.org/details/concisecyclopedi00sanf",
  "LocalFileURL": "https://oldpedia.org/pdf/ccrk/concisecyclopedi00sanf.pdf",
  "ShortTitle": "",
  "BookTitle": "A Concise Cyclopedia of Religious Knowledge",
  "BookTitleLong": "A Concise Cyclopedia of Religious Knowledge: Biblical, Biographical, Geographical, Historical, Practical and Theological",
  "BookEdition": "",
  "BookEditors": [
    "Elias Benjamin Sanford"
  ],
  "BookVolumeNumber": "",
  "BookPublisher": "Funk & Wagnall Company",
  "BookCopyrightDate": "1890",
  "BookPrintingDate": "1895",
  "PublicationDate": "1895",
  "CreatorNames": [
    "Elias Benjamin Sanford"
  ],
  "ContributorNames": [],
  "Rating": []
}