{
  "ZWIversion": 1.4,
  "GeneratorName": "AutoZWI",
  "Title": "Barnabas",
  "Lang": "en",
  "Content": {
    "article.html": "08cb1df71f9a128279ed6d21691f1a1ff148e378",
    "article.txt": "a25a0e012ea7ced0e961152574b83df04bec2afb"
  },
  "Primary": "article.html",
  "Publisher": "ccrk",
  "LastModified": "1708959414",
  "TimeCreated": "1708959414",
  "Categories": [
    "Religion",
    "Christianity"
  ],
  "Topics": [],
  "Description": "Bar'nabas, “a name signifying son of prophecy, or exhortation (or, but not so probably, consolation, as A. V.), given by the apostles (Acts iv. 36) to foseph (or Joses), a Levite of the island of Cyprus, who was only a disciple of Christ. In Acts ix. 27, we find him introducing the newly converted Saul to the apostles at Jerusalem, in a way which se",
  "Comment": "",
  "License": "Public Domain in the USA",
  "SourceURL": "https://oldpedia.org/article/ccrk/Barnabas",
  "SourceFileURL": "https://archive.org/details/concisecyclopedi00sanf",
  "LocalFileURL": "https://oldpedia.org/pdf/ccrk/concisecyclopedi00sanf.pdf",
  "ShortTitle": "",
  "BookTitle": "A Concise Cyclopedia of Religious Knowledge",
  "BookTitleLong": "A Concise Cyclopedia of Religious Knowledge: Biblical, Biographical, Geographical, Historical, Practical and Theological",
  "BookEdition": "",
  "BookEditors": [
    "Elias Benjamin Sanford"
  ],
  "BookVolumeNumber": "",
  "BookPublisher": "Funk & Wagnall Company",
  "BookCopyrightDate": "1890",
  "BookPrintingDate": "1895",
  "PublicationDate": "1895",
  "CreatorNames": [
    "Elias Benjamin Sanford"
  ],
  "ContributorNames": [],
  "Rating": []
}