{
  "ZWIversion": 1.4,
  "GeneratorName": "AutoZWI",
  "Title": "Stennett, Joseph, an English hymnwriter",
  "Lang": "en",
  "Content": {
    "article.html": "9f2d4d5c785e35c9f3070e421b23fe6fde11df44",
    "article.txt": "e7e330d8b0a79c25a266f1e5775ea173e1f65d67"
  },
  "Primary": "article.html",
  "Publisher": "ccrk",
  "LastModified": "1708959428",
  "TimeCreated": "1708959428",
  "Categories": [
    "Religion",
    "Christianity"
  ],
  "Topics": [],
  "Description": "Stennett, Joseph, an English hymnwriter; b. at Abingdon, Berks, 1663; d. at Knaphill, Bucks, July 11, 1713. He was ordained in 1690 pastor of a Baptist Church in Devonshire Square, London, in which relation he continued till his death. His Hymns for the Lord1 s Suffer appeared in 1697, and with considerable additions in a third edition in 1709. ",
  "Comment": "",
  "License": "Public Domain in the USA",
  "SourceURL": "https://oldpedia.org/article/ccrk/Stennett, Joseph, an English hymnwriter",
  "SourceFileURL": "https://archive.org/details/concisecyclopedi00sanf",
  "LocalFileURL": "https://oldpedia.org/pdf/ccrk/concisecyclopedi00sanf.pdf",
  "ShortTitle": "",
  "BookTitle": "A Concise Cyclopedia of Religious Knowledge",
  "BookTitleLong": "A Concise Cyclopedia of Religious Knowledge: Biblical, Biographical, Geographical, Historical, Practical and Theological",
  "BookEdition": "",
  "BookEditors": [
    "Elias Benjamin Sanford"
  ],
  "BookVolumeNumber": "",
  "BookPublisher": "Funk & Wagnall Company",
  "BookCopyrightDate": "1890",
  "BookPrintingDate": "1895",
  "PublicationDate": "1895",
  "CreatorNames": [
    "Elias Benjamin Sanford"
  ],
  "ContributorNames": [],
  "Rating": []
}