{
  "ZWIversion": 1.4,
  "GeneratorName": "AutoZWI",
  "Title": "Trench, Richard Chenevix",
  "Lang": "en",
  "Content": {
    "article.html": "d3abf46145c2edf5dd62f52ef142ffec8f6cb097",
    "article.txt": "e788aa1a50d1ece35f8bbd61f5f1de6cd97b0a69"
  },
  "Primary": "article.html",
  "Publisher": "ccrk",
  "LastModified": "1708959429",
  "TimeCreated": "1708959429",
  "Categories": [
    "Religion",
    "Christianity"
  ],
  "Topics": [],
  "Description": "Trench, Richard Chenevix, D. D., archbishop of Dublin; b. in Dublin, Ireland, Sept. 9, 1807; d. in London, March 28, 1886. Educated at Trinity College, Cambridge, he became curate of Curdridge, 1835, and Alverstoke, 1840; rector of Itchinstoke, Hants, 1845; dean of Westminster, 1856; archbishop of Dublin, 1864. ",
  "Comment": "",
  "License": "Public Domain in the USA",
  "SourceURL": "https://oldpedia.org/article/ccrk/Trench, Richard Chenevix",
  "SourceFileURL": "https://archive.org/details/concisecyclopedi00sanf",
  "LocalFileURL": "https://oldpedia.org/pdf/ccrk/concisecyclopedi00sanf.pdf",
  "ShortTitle": "",
  "BookTitle": "A Concise Cyclopedia of Religious Knowledge",
  "BookTitleLong": "A Concise Cyclopedia of Religious Knowledge: Biblical, Biographical, Geographical, Historical, Practical and Theological",
  "BookEdition": "",
  "BookEditors": [
    "Elias Benjamin Sanford"
  ],
  "BookVolumeNumber": "",
  "BookPublisher": "Funk & Wagnall Company",
  "BookCopyrightDate": "1890",
  "BookPrintingDate": "1895",
  "PublicationDate": "1895",
  "CreatorNames": [
    "Elias Benjamin Sanford"
  ],
  "ContributorNames": [],
  "Rating": []
}