{
  "ZWIversion": 1.4,
  "GeneratorName": "AutoZWI",
  "Title": "Nicene Creed. See Creed",
  "Lang": "en",
  "Content": {
    "article.html": "d8be4b406a7a4680751331616e9969c0b10f1fc4",
    "article.txt": "a4ddba4f80af8c641fcfcbaa875a43c61a549a21"
  },
  "Primary": "article.html",
  "Publisher": "ccrk",
  "LastModified": "1708959425",
  "TimeCreated": "1708959425",
  "Categories": [
    "Religion",
    "Christianity"
  ],
  "Topics": [],
  "Description": "Nicene Creed. See Creed, Nicene.",
  "Comment": "",
  "License": "Public Domain in the USA",
  "SourceURL": "https://oldpedia.org/article/ccrk/Nicene Creed. See Creed",
  "SourceFileURL": "https://archive.org/details/concisecyclopedi00sanf",
  "LocalFileURL": "https://oldpedia.org/pdf/ccrk/concisecyclopedi00sanf.pdf",
  "ShortTitle": "",
  "BookTitle": "A Concise Cyclopedia of Religious Knowledge",
  "BookTitleLong": "A Concise Cyclopedia of Religious Knowledge: Biblical, Biographical, Geographical, Historical, Practical and Theological",
  "BookEdition": "",
  "BookEditors": [
    "Elias Benjamin Sanford"
  ],
  "BookVolumeNumber": "",
  "BookPublisher": "Funk & Wagnall Company",
  "BookCopyrightDate": "1890",
  "BookPrintingDate": "1895",
  "PublicationDate": "1895",
  "CreatorNames": [
    "Elias Benjamin Sanford"
  ],
  "ContributorNames": [],
  "Rating": []
}