{
  "ZWIversion": 1.4,
  "GeneratorName": "AutoZWI",
  "Title": "African Methodist Episcopal Zion Church",
  "Lang": "en",
  "Content": {
    "article.html": "1fc4c2a4c3d84092779daebdb4a9245f3d8b5979",
    "article.txt": "3386f5195674ecc84d2b4d4421fd8b03e240a2a0"
  },
  "Primary": "article.html",
  "Publisher": "ccrk",
  "LastModified": "1708959413",
  "TimeCreated": "1708959413",
  "Categories": [
    "Religion",
    "Christianity"
  ],
  "Topics": [],
  "Description": "African Methodist Episcopal Zion Church. This denomination originated in 1820, by the secession of the Zion congregation of New York from the Methodist Episcopal Church. The separation grew out of a controversy in regard to church government. The highest officers in the church are superintendents, who are elected every four years by the General Conf",
  "Comment": "",
  "License": "Public Domain in the USA",
  "SourceURL": "https://oldpedia.org/article/ccrk/African Methodist Episcopal Zion Church",
  "SourceFileURL": "https://archive.org/details/concisecyclopedi00sanf",
  "LocalFileURL": "https://oldpedia.org/pdf/ccrk/concisecyclopedi00sanf.pdf",
  "ShortTitle": "",
  "BookTitle": "A Concise Cyclopedia of Religious Knowledge",
  "BookTitleLong": "A Concise Cyclopedia of Religious Knowledge: Biblical, Biographical, Geographical, Historical, Practical and Theological",
  "BookEdition": "",
  "BookEditors": [
    "Elias Benjamin Sanford"
  ],
  "BookVolumeNumber": "",
  "BookPublisher": "Funk & Wagnall Company",
  "BookCopyrightDate": "1890",
  "BookPrintingDate": "1895",
  "PublicationDate": "1895",
  "CreatorNames": [
    "Elias Benjamin Sanford"
  ],
  "ContributorNames": [],
  "Rating": []
}