{
  "ZWIversion": 1.4,
  "GeneratorName": "AutoZWI",
  "Title": "Alms",
  "Lang": "en",
  "Content": {
    "article.html": "cfb81fc667366deea518aaa4ba93c08b7198d318",
    "article.txt": "2ed9eac85af008ac9f923bcde21d593af69aa676"
  },
  "Primary": "article.html",
  "Publisher": "ccrk",
  "LastModified": "1708959413",
  "TimeCreated": "1708959413",
  "Categories": [
    "Religion",
    "Christianity"
  ],
  "Topics": [],
  "Description": "Alms, the giving of money or goods to the poor as a religious duty. Both in the Old and New Testament this duty is inculcated alike by command and example. In the early Church, collections for the poor are mentioned as a bond of unity, and the expression of spiritual life. The message given to Cornelius shous the Divine recognition of this service o",
  "Comment": "",
  "License": "Public Domain in the USA",
  "SourceURL": "https://oldpedia.org/article/ccrk/Alms",
  "SourceFileURL": "https://archive.org/details/concisecyclopedi00sanf",
  "LocalFileURL": "https://oldpedia.org/pdf/ccrk/concisecyclopedi00sanf.pdf",
  "ShortTitle": "",
  "BookTitle": "A Concise Cyclopedia of Religious Knowledge",
  "BookTitleLong": "A Concise Cyclopedia of Religious Knowledge: Biblical, Biographical, Geographical, Historical, Practical and Theological",
  "BookEdition": "",
  "BookEditors": [
    "Elias Benjamin Sanford"
  ],
  "BookVolumeNumber": "",
  "BookPublisher": "Funk & Wagnall Company",
  "BookCopyrightDate": "1890",
  "BookPrintingDate": "1895",
  "PublicationDate": "1895",
  "CreatorNames": [
    "Elias Benjamin Sanford"
  ],
  "ContributorNames": [],
  "Rating": []
}