{
  "ZWIversion": 1.4,
  "GeneratorName": "AutoZWI",
  "Title": "Hodge, Charles",
  "Lang": "en",
  "Content": {
    "article.html": "100fb26f26169e3577fa5e7bdf86c4caf6af396d",
    "article.txt": "d607122a0d911c2bd3d3be2eff5f8849ace6894d"
  },
  "Primary": "article.html",
  "Publisher": "ccrk",
  "LastModified": "1708959421",
  "TimeCreated": "1708959421",
  "Categories": [
    "Religion",
    "Christianity"
  ],
  "Topics": [],
  "Description": "Hodge, Charles, D. D.,LL.D.,oneof the most eminent theologians of modern times; b. Dec.18, 1797, in Philadelphia; d. in Princeton, N. J., June 19, 1878. He was graduated at Princeton, and studied at the Seminary with which the labors of his life were identified. He was appointed professor of biblical and Oriental literature in 1822 and lived to comp",
  "Comment": "",
  "License": "Public Domain in the USA",
  "SourceURL": "https://oldpedia.org/article/ccrk/Hodge, Charles",
  "SourceFileURL": "https://archive.org/details/concisecyclopedi00sanf",
  "LocalFileURL": "https://oldpedia.org/pdf/ccrk/concisecyclopedi00sanf.pdf",
  "ShortTitle": "",
  "BookTitle": "A Concise Cyclopedia of Religious Knowledge",
  "BookTitleLong": "A Concise Cyclopedia of Religious Knowledge: Biblical, Biographical, Geographical, Historical, Practical and Theological",
  "BookEdition": "",
  "BookEditors": [
    "Elias Benjamin Sanford"
  ],
  "BookVolumeNumber": "",
  "BookPublisher": "Funk & Wagnall Company",
  "BookCopyrightDate": "1890",
  "BookPrintingDate": "1895",
  "PublicationDate": "1895",
  "CreatorNames": [
    "Elias Benjamin Sanford"
  ],
  "ContributorNames": [],
  "Rating": []
}