{
  "ZWIversion": 1.4,
  "GeneratorName": "AutoZWI",
  "Title": "Harvest",
  "Lang": "en",
  "Content": {
    "article.html": "95d664d217081949cea89a73c219d31ab1837821",
    "article.txt": "3a81650162f2d7755371ff1f4967fc90094121a8"
  },
  "Primary": "article.html",
  "Publisher": "ccrk",
  "LastModified": "1708959421",
  "TimeCreated": "1708959421",
  "Categories": [
    "Religion",
    "Christianity"
  ],
  "Topics": [],
  "Description": "Harvest, among the Hebrews, began in Palestine about the middle of April. On the sixteenth day of this month a handful of ripe ears was offered before the Lord as the first-fruits, and it was then lawful to put the sickle to the corn. (Lev. xxiii. g-14.) The barley was first gathered at the time of the festival of the Passover, and the harvest close",
  "Comment": "",
  "License": "Public Domain in the USA",
  "SourceURL": "https://oldpedia.org/article/ccrk/Harvest",
  "SourceFileURL": "https://archive.org/details/concisecyclopedi00sanf",
  "LocalFileURL": "https://oldpedia.org/pdf/ccrk/concisecyclopedi00sanf.pdf",
  "ShortTitle": "",
  "BookTitle": "A Concise Cyclopedia of Religious Knowledge",
  "BookTitleLong": "A Concise Cyclopedia of Religious Knowledge: Biblical, Biographical, Geographical, Historical, Practical and Theological",
  "BookEdition": "",
  "BookEditors": [
    "Elias Benjamin Sanford"
  ],
  "BookVolumeNumber": "",
  "BookPublisher": "Funk & Wagnall Company",
  "BookCopyrightDate": "1890",
  "BookPrintingDate": "1895",
  "PublicationDate": "1895",
  "CreatorNames": [
    "Elias Benjamin Sanford"
  ],
  "ContributorNames": [],
  "Rating": []
}