{
  "ZWIversion": 1.4,
  "GeneratorName": "AutoZWI",
  "Title": "Ansgar",
  "Lang": "en",
  "Content": {
    "article.html": "cdf2fc8477f188347fc3b31316a8acaeebc01fd6",
    "article.txt": "793c5787243a6c875f428a41081f03eadee97b92"
  },
  "Primary": "article.html",
  "Publisher": "ccrk",
  "LastModified": "1708959413",
  "TimeCreated": "1708959413",
  "Categories": [
    "Religion",
    "Christianity"
  ],
  "Topics": [],
  "Description": "Ansgar, called the “apostle of the North,” because of his labors to introduce Christianity into Scandinavia; b. Sept. 9, 801, in the diocese of Amiens; d. in Bremen, Feb. 3, 865. He was educated in the monastery of Corbie, and in 826 entered upon his labors in Jutland as missionary among the Danes. In 831 he was appointed bishop of Hamburg, and in 8",
  "Comment": "",
  "License": "Public Domain in the USA",
  "SourceURL": "https://oldpedia.org/article/ccrk/Ansgar",
  "SourceFileURL": "https://archive.org/details/concisecyclopedi00sanf",
  "LocalFileURL": "https://oldpedia.org/pdf/ccrk/concisecyclopedi00sanf.pdf",
  "ShortTitle": "",
  "BookTitle": "A Concise Cyclopedia of Religious Knowledge",
  "BookTitleLong": "A Concise Cyclopedia of Religious Knowledge: Biblical, Biographical, Geographical, Historical, Practical and Theological",
  "BookEdition": "",
  "BookEditors": [
    "Elias Benjamin Sanford"
  ],
  "BookVolumeNumber": "",
  "BookPublisher": "Funk & Wagnall Company",
  "BookCopyrightDate": "1890",
  "BookPrintingDate": "1895",
  "PublicationDate": "1895",
  "CreatorNames": [
    "Elias Benjamin Sanford"
  ],
  "ContributorNames": [],
  "Rating": []
}